<svg width="1440" height="462" viewBox="0 0 1440 462" fill="none" xmlns="http://www.w3.org/2000/svg">
<path d="M1235.98 401.99C1234.73 400.17 1233.48 398.35 1231.67 395.72C1231.29 398.18 1231.45 400.08 1230.68 401.46C1229.57 403.45 1228.07 405.91 1226.2 406.51C1225.1 406.87 1222.32 404.36 1221.41 402.57C1218.03 395.99 1220.88 389.93 1228.24 387.38C1227.19 382.97 1226.13 378.54 1225.07 374.1C1225.64 373.94 1226.21 373.78 1226.78 373.63C1228.09 378.4 1229.1 383.28 1230.78 387.91C1232.46 392.52 1234.81 396.88 1236.87 401.36C1236.57 401.57 1236.28 401.78 1235.98 401.99ZM1229.39 396.53C1229.77 396.28 1230.15 396.02 1230.53 395.77C1229.11 393.86 1227.33 390.16 1226.35 390.36C1222.24 391.21 1221.41 395.08 1222.15 398.6C1222.63 400.89 1224.65 402.85 1225.98 404.96C1227.12 402.48 1228.27 400.01 1229.38 397.52C1229.5 397.24 1229.39 396.86 1229.39 396.53Z" fill="#E9E9E9"/>
<path d="M1280.82 360.2C1282.47 359.56 1283.61 359.13 1285.2 358.51C1281.86 363.56 1282.46 366.52 1288.59 373.11C1289.85 370.76 1291.07 368.47 1292.3 366.18C1292.87 366.67 1293.44 367.16 1294.01 367.65C1292.73 369.37 1291.76 371.59 1290.07 372.64C1288.84 373.4 1285.46 373.21 1285.07 372.43C1282.65 367.58 1279.26 363.3 1277.58 357.97C1275.91 352.69 1273.08 347.77 1270.76 342.7C1271.24 342.47 1271.72 342.23 1272.2 342C1275.02 347.94 1277.83 353.89 1280.82 360.2Z" fill="#E9E9E9"/>
<path d="M1238.84 385.9C1239.4 383.51 1239.56 381.29 1240.45 379.41C1242.4 375.29 1247.56 374.79 1249.38 378.89C1251.04 382.62 1251.64 387.11 1251.47 391.21C1251.4 393.08 1248.59 395.9 1246.6 396.31C1244.95 396.65 1242.14 394.51 1240.87 392.74C1239.54 390.86 1239.44 388.12 1238.84 385.9ZM1251.47 388.21C1249.66 384.53 1248.32 381.45 1246.59 378.61C1246.31 378.16 1243.36 378.49 1243.23 378.92C1242.31 382.12 1240.94 385.57 1241.44 388.67C1241.81 390.94 1244.79 392.79 1246.61 394.82C1248.14 392.74 1249.66 390.66 1251.47 388.21Z" fill="#E9E9E9"/>
<path d="M1259.06 388.36C1256.84 383.12 1254.62 377.88 1252.4 372.65C1253.61 371.79 1254.82 371.17 1255.73 370.24C1259.88 366.02 1264.01 366.52 1266.69 371.85C1268.23 374.92 1269.41 378.18 1270.18 381.97C1269.18 380.63 1268.04 379.37 1267.23 377.93C1266.51 376.65 1266.27 375.1 1265.62 373.77C1264.38 371.23 1262.98 368.11 1259.5 369.56C1256.18 370.94 1255.37 374.23 1256.46 377.56C1257.6 381.04 1259.14 384.39 1260.5 387.79C1260.02 387.99 1259.54 388.17 1259.06 388.36Z" fill="#E9E9E9"/>
<path d="M1265.07 352.77L1267.07 351.77L1266.07 357.56L1265.07 352.77Z" fill="#E9E9E9"/>
<g clip-path="url(#clip0)">
<path d="M1200.98 118C1203.55 118.375 1206.23 118.39 1208.65 119.194C1216.94 121.942 1222.15 127.624 1222.9 136.436C1223.63 145.061 1220.18 151.953 1212.49 156.308C1206.63 159.625 1200.22 160.578 1193.58 159.688C1187.65 158.876 1183.8 155.411 1182.66 149.557C1181.1 141.65 1182.33 133.962 1186.12 126.898C1189.15 121.255 1194.82 119.319 1199.72 121.918C1195.37 121.286 1191.13 121.942 1188.75 125.649C1186.64 128.943 1185.2 132.83 1184.24 136.655C1183.41 139.995 1183.29 143.625 1183.51 147.09C1183.95 153.935 1188.17 158.377 1195.04 158.431C1199.87 158.47 1204.98 157.791 1209.51 156.175C1218.06 153.124 1222.77 144.655 1221.69 136.085C1220.6 127.499 1213.95 120.982 1204.84 119.616C1203.56 119.428 1202.27 119.374 1200.99 119.264C1200.98 118.835 1200.98 118.414 1200.98 118Z" fill="#E9E9E9"/>
<path d="M1201.78 152.39C1199.33 146.864 1197.22 142.095 1195.11 137.333C1195.43 137.169 1195.75 137.006 1196.07 136.842C1197.98 140.869 1199.88 144.897 1202.09 149.572C1206.08 143.921 1209.77 138.699 1213.46 133.478C1213.79 133.704 1214.11 133.938 1214.44 134.164C1210.4 139.995 1206.35 145.825 1201.78 152.39Z" fill="#E9E9E9"/>
</g>
<g clip-path="url(#clip1)">
<path d="M1314 72.0399C1314.55 71.1206 1315 70.574 1315.23 69.9479C1317.3 64.4371 1323.75 62.7973 1328.35 66.6334C1333.2 70.6684 1335.76 80.6465 1333.55 86.5299C1332.3 89.8643 1329.87 91.8469 1326.42 92.9998C1322.28 86.0032 1318.1 78.952 1314 72.0399ZM1333.59 81.0291C1333.39 76.691 1331.95 72.6014 1329.3 68.959C1327.83 66.9316 1325.81 65.6148 1323.21 65.4607C1320.49 65.3017 1318.24 66.3552 1316.83 68.646C1315.53 70.738 1315.26 72.8051 1316.81 75.1804C1319.9 79.8912 1322.61 84.8355 1325.49 89.6754C1326.75 91.7873 1327.61 91.9414 1329.65 90.4258C1332.76 88.1052 1333.46 84.7659 1333.59 81.0291Z" fill="#E9E9E9"/>
<path d="M1335.94 70.9523C1336.57 69.0242 1336.8 67.5136 1337.51 66.2614C1339.12 63.424 1342.99 63.1954 1344.79 65.9235C1347.14 69.4963 1347.68 73.5015 1346.1 77.5265C1344.82 80.8161 1340.91 81.3527 1338.99 78.3563C1337.52 76.0705 1336.87 73.2729 1335.94 70.9523ZM1337.3 70.6541C1337.18 70.7038 1337.05 70.7535 1336.93 70.8082C1337.68 72.9648 1338.14 75.2754 1339.27 77.2084C1339.88 78.247 1341.69 79.2309 1342.86 79.1315C1343.85 79.047 1345.16 77.5165 1345.54 76.3687C1346.54 73.3723 1346.23 70.2268 1344.62 67.5186C1343.94 66.3657 1342.11 64.9843 1341.05 65.1632C1339.77 65.3769 1338.62 67.0316 1337.68 68.254C1337.24 68.8155 1337.41 69.8392 1337.3 70.6541Z" fill="#E9E9E9"/>
</g>
<g clip-path="url(#clip2)">
<g clip-path="url(#clip3)">
<path d="M1343.18 189.38C1343.52 191.98 1343.59 194.64 1344.26 197.15C1345.18 200.61 1347.25 203.63 1351.31 202.24C1355.13 200.92 1355.38 196.89 1353.56 194.3C1350.14 189.43 1345.77 185.22 1341.12 181C1339.79 184.45 1340.33 188.72 1335.18 187.48C1331.16 186.51 1326.91 180.66 1327.51 176.94C1328.07 173.44 1331.11 171.81 1334.17 173.99C1340.37 178.41 1346.53 182.99 1352.11 188.15C1354.32 190.19 1355.85 193.92 1355.97 196.94C1356.06 199.32 1354.08 202.72 1352 204.02C1349.04 205.86 1345.41 204.21 1344.03 201.1C1342.48 197.59 1342.09 193.56 1341.19 189.76C1341.85 189.63 1342.52 189.51 1343.18 189.38ZM1337.12 185.71C1338.14 181.61 1335.82 176.57 1332.46 175.55C1331.79 175.34 1330.5 175.43 1330.27 175.83C1329.75 176.73 1329.21 178.11 1329.56 178.93C1330.99 182.3 1332.91 185.33 1337.12 185.71Z" fill="#E9E9E9"/>
<path d="M1328.89 202.52C1325.18 200.17 1321.47 197.81 1317.47 195.27C1318.02 194.56 1318.69 194.03 1318.9 193.36C1321.2 186.11 1322.05 185.76 1328.88 189.52C1330.98 190.67 1333.06 191.84 1335.15 193C1334.97 193.39 1334.78 193.79 1334.6 194.18C1330.43 192.41 1326.25 190.64 1321.78 188.74C1319.62 196.63 1326.89 197.72 1329.72 201.58C1329.44 201.89 1329.16 202.2 1328.89 202.52Z" fill="#E9E9E9"/>
<path d="M1314.95 209.72C1312.44 213.43 1309.94 217.14 1307.43 220.84C1306.96 220.52 1306.48 220.2 1306 219.88C1308.52 216.18 1311.04 212.48 1313.56 208.78C1314.02 209.09 1314.49 209.41 1314.95 209.72Z" fill="#E9E9E9"/>
<path d="M1324.82 208.58C1321.38 205.87 1317.94 203.16 1314.51 200.46C1314.89 199.97 1315.27 199.49 1315.65 199C1319.06 201.74 1322.48 204.48 1325.89 207.22C1325.53 207.67 1325.18 208.13 1324.82 208.58Z" fill="#E9E9E9"/>
</g>
</g>
<path d="M758.764 429.996C754.783 416.837 750.877 404.193 747.154 391.498C746.225 388.339 749.667 382.842 753.058 381.996C775.291 376.441 797.524 370.869 819.816 365.546C829.75 363.175 839.826 361.425 849.802 359.211C852.73 358.565 854.131 359.352 854.82 362.263C857.382 373.133 860.268 383.937 862.656 394.848C863.892 400.495 861.885 403.306 856.321 404.79C831.094 411.514 805.875 418.205 780.632 424.822C773.566 426.671 766.418 428.197 758.764 429.996ZM751.765 383.53C755.894 397.103 759.759 409.823 763.607 422.475C764.494 422.368 764.909 422.359 765.307 422.26C796.247 414.549 827.18 406.78 858.145 399.16C861.213 398.405 861.86 396.963 861.188 394.21C858.709 384.169 856.221 374.128 853.874 364.054C853.153 360.953 851.685 360.231 848.6 360.928C826.79 365.886 804.922 370.587 783.12 375.579C772.654 377.975 762.288 380.844 751.765 383.53ZM859.936 402.037C859.787 401.465 859.646 400.893 859.497 400.321C854.363 401.597 849.23 402.883 844.089 404.16C818.24 410.585 792.391 417.011 766.542 423.446C763.118 424.3 763.126 424.324 762.338 427.649C795.244 419.963 827.793 411.746 859.936 402.037ZM750.886 386.822C750.38 386.864 749.882 386.905 749.376 386.955C749.31 389.052 748.738 391.299 749.268 393.231C751.532 401.473 754.112 409.615 756.591 417.799C757.487 420.751 758.424 423.686 759.344 426.629C759.858 426.605 760.364 426.58 760.878 426.555C761.011 424.581 761.65 422.475 761.177 420.66C759.054 412.526 756.666 404.458 754.261 396.407C753.291 393.157 752.022 390.014 750.886 386.822Z" fill="#E9E9E9"/>
<path d="M819.583 370.022C820.495 374.765 821.399 379.516 822.345 384.433C823.564 384.093 824.459 383.828 825.371 383.596C830.563 382.286 834.776 385.154 835.348 390.511C835.796 394.706 834.087 398.056 830.803 400.585C826.201 404.134 824.07 403.213 823.116 397.517C821.723 389.226 820.197 380.959 818.77 372.676C818.629 371.847 818.754 370.976 818.754 370.13C819.027 370.089 819.301 370.056 819.583 370.022ZM825.43 402.019C827.934 400.353 829.833 399.482 831.218 398.097C834.643 394.698 835.174 389.333 831.948 386.688C830.364 385.395 827.536 385.353 825.264 385.32C824.501 385.312 822.958 387.153 823.049 387.998C823.547 392.318 824.459 396.588 825.43 402.019Z" fill="#E9E9E9"/>
<path d="M797.632 407.36C797.093 407.758 796.545 408.148 796.015 408.554C793.361 410.577 790.566 413.098 787.1 411.124C783.65 409.159 783.235 405.129 784.04 401.888C785.018 397.908 786.926 394.002 789.173 390.545C790.55 388.422 793.85 387.585 795.492 390.221C796.363 391.623 795.849 394.898 794.704 396.316C792.963 398.471 790.301 400.13 787.713 401.291C783.965 402.974 785.35 405.478 786.229 407.808C787.299 410.668 789.546 410.851 791.984 409.499C793.784 408.504 795.492 407.36 797.242 406.282C797.358 406.63 797.491 406.995 797.632 407.36ZM784.96 399.35C785.45 399.781 785.939 400.213 786.428 400.644C789.007 398.745 791.727 397.004 794.066 394.856C794.771 394.21 794.431 392.419 794.572 391.15C793.195 391.183 791.18 390.653 790.566 391.349C788.435 393.787 786.793 396.647 784.96 399.35Z" fill="#E9E9E9"/>
<path d="M841.866 394.326C844.428 396.738 849.238 396.821 851.179 394.035C852.116 392.692 852.655 390.064 851.95 388.853C851.121 387.427 848.807 386.349 847.016 386.134C844.926 385.885 841.99 387.245 841.526 384.334C841.169 382.087 842.015 379.161 843.359 377.278C844.354 375.885 847.016 375.686 849.653 374.691C846.701 377.403 844.171 378.953 842.82 381.209C841.526 383.356 842.621 385.296 845.714 384.716C849.023 384.094 852.199 384.708 853.285 388.024C853.949 390.039 853.691 393.778 852.389 394.707C849.943 396.448 846.477 396.871 843.367 397.443C842.762 397.551 841.824 395.851 841.045 394.989C841.31 394.749 841.592 394.533 841.866 394.326Z" fill="#E9E9E9"/>
<path d="M764.701 396.009C767.645 401.025 770.589 406.041 774.188 412.169C775.366 405.279 776.352 399.491 777.348 393.695C777.754 393.762 778.152 393.828 778.558 393.894C777.489 400.984 776.419 408.081 775.357 415.17C774.992 415.261 774.619 415.353 774.254 415.436C770.68 409.192 767.114 402.94 763.54 396.697C763.922 396.473 764.311 396.241 764.701 396.009Z" fill="#E9E9E9"/>
<path d="M805.833 406.796C805.054 400.204 804.282 393.604 803.503 387.012C803.926 386.946 804.341 386.88 804.763 386.813C805.07 388.198 805.377 389.574 805.56 390.412C808.155 388.745 810.867 386.929 813.703 385.337C813.902 385.23 815.047 386.797 815.577 388.19C812.783 385.205 811.224 386.904 809.648 389.052C806.837 392.858 805.153 396.846 806.646 401.696C807.127 403.263 807.168 404.972 807.409 406.622C806.878 406.68 806.356 406.738 805.833 406.796Z" fill="#E9E9E9"/>
<path d="M721 212.007C726.647 205.337 729.713 197.746 738.316 194.689C749.065 190.868 759.422 185.985 770.188 182.189C779.276 178.983 785.289 182.347 788.296 191.25C790.297 197.181 788.057 201.209 781.269 203.709C769.881 207.912 758.51 212.189 747.029 216.126C744.406 217.023 741.186 217.247 738.461 216.716C732.805 215.595 727.32 213.759 721 212.007ZM768.348 185.038C768.058 185.494 767.394 186.142 767.522 186.375C770.605 191.898 773.774 197.372 777.061 203.078C777.973 202.795 779.318 202.372 781.405 201.716C778.288 196.209 775.434 191.034 772.428 185.935C771.465 184.307 770.128 182.911 768.246 185.137C768.237 185.137 768.348 185.038 768.348 185.038ZM768.987 191.358C758.451 195.204 748.162 198.958 738.452 202.505C738.716 204.822 738.903 206.467 739.108 208.227C742.285 209.44 767.437 201.45 772.36 197.388C771.32 195.528 770.247 193.626 768.987 191.358ZM740.437 213.61C742.532 214.307 744.252 215.528 745.385 215.146C755.231 211.766 764.967 208.103 775.077 204.39C774.421 202.663 773.918 201.317 773.271 199.614C763.093 203.302 753.289 206.807 743.545 210.462C742.532 210.844 741.868 212.123 740.437 213.61ZM767.684 190.22C767.828 189.797 767.965 189.382 768.109 188.958C766.44 188.036 764.319 185.943 763.178 186.367C753.69 189.88 744.38 193.858 734.815 197.779C735.599 199.357 736.11 200.403 736.706 201.608C747.148 197.77 757.42 194 767.684 190.22ZM782.589 200.885C787.682 198.734 788.773 195.644 786.328 190.279C783.27 183.576 778.339 181.092 773.084 183.418C776.252 189.232 779.42 195.063 782.589 200.885ZM732.532 199.614C730.71 202.795 725.923 204.706 726.962 209.141C728.461 215.57 735.181 213.327 739.397 215.744C739.687 213.626 739.9 212.09 740.104 210.553C738.793 209.889 737.575 209.266 736.229 208.576C736.629 207.43 736.979 206.45 736.944 206.533C735.326 204 734.168 202.164 732.532 199.614Z" fill="#E9E9E9"/>
<path d="M1320.46 207.981C1321.21 208.061 1322.29 207.851 1322.65 208.261C1327.1 213.461 1330.21 219.351 1331.36 226.191C1327.78 220.071 1324.2 213.941 1320.61 207.841C1320.59 207.861 1320.46 207.981 1320.46 207.981Z" fill="#E9E9E9"/>
<path d="M50 134.79C55.83 138.25 58.64 137.4 59.72 130.62C60.9 123.23 63.37 117.2 69.81 112.61C74.48 109.29 73.83 101.92 69.48 98.1001C65.44 94.5601 58.92 95.5401 55.47 100.3C54.53 101.6 53.87 103.1 52.37 105.78C52.37 103.48 52.1 102.41 52.42 101.57C54.11 97.0901 58.77 94.0201 63.74 94.0001C68.61 93.9801 71.94 96.3401 73.83 100.76C75.84 105.46 75.33 111.3 71.34 114.01C64.88 118.39 62.59 124.44 61.56 131.62C61.27 133.63 60.2 135.92 58.74 137.26C57.53 138.37 55.05 138.89 53.43 138.49C52.05 138.14 51.12 136.09 50 134.79Z" fill="#E9E9E9"/>
<path d="M92.4196 102.57C97.3496 115.54 85.5996 143.9 73.1396 148.94C86.2096 136.24 92.6796 120.8 92.4196 102.57Z" fill="#E9E9E9"/>
<path d="M82.4298 109.09C84.6998 118.89 76.1098 138.51 68.2598 141.58C76.3598 132.2 80.8898 121.32 82.4298 109.09Z" fill="#E9E9E9"/>
<path d="M72.5103 118.471C74.0003 123.221 72.2303 127.981 67.5303 131.241C69.2803 126.781 70.8703 122.681 72.5103 118.471Z" fill="#E9E9E9"/>
<path d="M51.5996 123.9C55.4096 121.91 57.0896 119.13 54.7696 114.88C55.4296 114.89 56.0896 114.9 56.7596 114.91C56.9796 116.98 57.8596 119.28 57.2296 121.05C56.6396 122.7 54.4496 123.77 52.9596 125.09C52.4996 124.69 52.0496 124.29 51.5996 123.9Z" fill="#E9E9E9"/>
<path d="M1136.5 80.3189C1129.32 70.7997 1122.32 61.5304 1115 51.8237C1121.72 46.5885 1128.31 41.4505 1135.3 36C1142.15 45.4012 1148.9 54.6704 1156 64.398C1149.51 69.6887 1143.14 74.8892 1136.5 80.3189ZM1116.57 52.0112C1123.37 61.0235 1129.93 69.7373 1136.68 78.6803C1142.77 73.7228 1148.54 69.0152 1154.45 64.1966C1147.9 55.212 1141.56 46.5052 1135.09 37.6247C1128.78 42.5336 1122.87 47.1231 1116.57 52.0112Z" fill="#E9E9E9"/>
<path d="M1129.04 61.8013C1132.62 58.9824 1136.21 56.1564 1140.48 52.7959C1139.93 54.2054 1139.68 54.8372 1139.31 55.7676C1140.2 55.8787 1141.02 55.8162 1141.69 56.1078C1143.29 56.7883 1145.73 57.3229 1146.13 58.4963C1146.58 59.8086 1145.58 62.1693 1144.46 63.3497C1141.94 65.9881 1138.95 68.1752 1136.15 70.5429C1135.9 70.2791 1135.65 70.0152 1135.39 69.7583C1136.22 69.0432 1137.06 68.3558 1137.86 67.6198C1140.14 65.5229 1142.62 63.5927 1144.6 61.2459C1146.14 59.4198 1145.47 57.802 1142.9 57.3507C1139.72 56.7952 1136.75 56.8022 1134.16 59.2531C1132.8 60.5446 1131.08 61.468 1129.53 62.5512C1129.36 62.3082 1129.2 62.0513 1129.04 61.8013Z" fill="#E9E9E9"/>
<path d="M1124.97 56.0522C1128.21 53.3652 1131.46 50.6851 1134.7 47.998C1134.93 48.2619 1135.16 48.5188 1135.38 48.7826C1132.16 51.4836 1128.93 54.1845 1125.71 56.8854C1125.46 56.6077 1125.21 56.33 1124.97 56.0522Z" fill="#E9E9E9"/>
<path d="M767.011 284.75C769.631 285.36 771.841 286.61 773.551 286.12C777.201 285.07 779.621 282.03 778.881 278.2C778.461 276.05 776.331 273.92 774.441 272.47C773.381 271.65 771.151 272.55 769.601 272.12C767.901 271.64 765.231 270.71 765.051 269.63C764.761 267.92 765.741 265.46 767.031 264.18C768.091 263.13 770.391 263.35 772.141 263C772.261 263.5 772.381 264 772.491 264.49C772.151 264.71 771.821 264.95 771.471 265.16C769.781 266.16 768.081 267.16 766.381 268.15C767.921 268.89 769.441 270.21 771.011 270.28C777.691 270.56 780.651 272.82 780.781 278.27C780.911 283.55 776.811 288.21 771.821 288.42C768.731 288.55 766.761 287.49 767.011 284.75Z" fill="#E9E9E9"/>
<path d="M108.231 397.381C106.261 397.511 105.051 397.591 103.791 397.671C103.791 397.131 103.761 396.561 103.791 396.551C106.941 396.161 110.091 395.811 114.521 395.311C111.681 399.441 109.771 402.201 107.091 406.101C107.331 403.591 107.431 402.451 107.671 399.961C102.991 404.021 99.3308 407.561 95.2908 410.611C89.7608 414.791 84.2208 419.101 78.1508 422.391C73.5108 424.911 68.0808 425.231 63.0508 421.791C77.2208 425.231 86.2108 416.751 95.3008 408.341C99.1908 404.741 103.381 401.471 108.231 397.381Z" fill="#E9E9E9"/>
<path d="M60.2695 409.731C60.8395 403.311 61.2895 397.251 62.0295 391.221C62.1295 390.391 63.7195 389.151 64.6495 389.121C70.4395 388.931 76.2295 389.021 82.6495 389.021C81.8695 395.471 81.2195 401.681 80.2595 407.841C80.1395 408.611 78.3495 409.611 77.3095 409.651C71.8695 409.821 66.4195 409.731 60.2695 409.731ZM80.7495 390.881C74.8795 390.881 69.4795 390.881 63.6695 390.881C63.1495 396.651 62.6595 402.141 62.1395 408.011C67.3495 408.011 71.7895 408.131 76.2095 407.911C77.1395 407.861 78.6495 406.651 78.7895 405.791C79.6195 400.951 80.1095 396.041 80.7495 390.881Z" fill="#E9E9E9"/>
<path d="M50.21 419.601C42.81 419.601 35.42 419.601 28.02 419.601C28.01 419.241 28.01 418.881 28 418.521C35.4 418.521 42.79 418.521 50.19 418.521C50.19 418.881 50.2 419.241 50.21 419.601Z" fill="#E9E9E9"/>
<path d="M1391.87 377.99C1390.07 379.11 1388.23 381.15 1386.46 381.1C1384.66 381.04 1381.46 378.92 1381.46 377.7C1381.45 374.33 1381.97 370.33 1383.89 367.8C1385.15 366.14 1389.49 365.6 1391.93 366.31C1395.79 367.44 1397.08 371.23 1396.86 375.2C1396.56 380.51 1392.46 385.26 1387.53 386.18C1381.27 387.36 1374.75 383.75 1372.17 377.67C1369.4 371.15 1371.63 363.17 1378.16 359C1377.21 360.34 1376.21 361.64 1375.33 363.01C1370.21 371.01 1372.88 380.77 1381.02 383.91C1387.86 386.55 1395.41 381.77 1395.04 374.61C1394.92 372.31 1393.34 369.41 1391.49 368.09C1390.16 367.14 1386.53 367.6 1385.28 368.83C1383.63 370.45 1382.48 373.45 1382.58 375.8C1382.76 380.24 1386.08 380.59 1391.09 376.9C1391.35 377.27 1391.61 377.63 1391.87 377.99Z" fill="#E9E9E9"/>
<path d="M116.452 267.659C115.422 274.392 104.198 288.689 98 291.161C105.846 284.651 112.043 276.858 116.452 267.659Z" fill="#E9E9E9"/>
<path d="M115.728 285.498C120.489 278.235 123.962 270.513 125.18 261.867C124.986 270.943 121.407 278.677 115.728 285.498Z" fill="#E9E9E9"/>
<path d="M112.172 261.638C109.188 269.165 104.45 275.187 98.4941 280.336C103.014 274.162 107.535 267.982 112.172 261.638Z" fill="#E9E9E9"/>
<defs>
<clipPath id="clip0">
<rect width="41" height="42" fill="white" transform="translate(1182 118)"/>
</clipPath>
<clipPath id="clip1">
<rect width="33" height="29" fill="white" transform="translate(1314 64)"/>
</clipPath>
<clipPath id="clip2">
<rect width="116" height="71" fill="white" transform="translate(1268 181)"/>
</clipPath>
<clipPath id="clip3">
<rect width="49.97" height="47.84" fill="white" transform="translate(1306 173)"/>
</clipPath>
</defs>
</svg>
