<svg width="1440" height="308" viewBox="0 0 1440 308" fill="none" xmlns="http://www.w3.org/2000/svg">
<g opacity="0.3" clip-path="url(#clip0_701_17485)">
<path d="M346.67 203.29C349.34 200.21 352.01 197.12 354.68 194.04C355.06 194.35 355.43 194.67 355.81 194.98C352.25 199.22 348.69 203.46 345.13 207.7C344.76 207.5 344.4 207.3 344.03 207.1C344.03 202.26 344.03 197.43 344.03 191.66C339.43 195.05 335.41 198.02 330.67 201.51C330.13 196.66 329.7 192.77 329.06 187.02C324.25 192.58 320.27 197.19 316.28 201.8C315.8 201.52 315.31 201.23 314.83 200.95C314.59 196.74 314.34 192.52 314.1 188.31C313.68 188 313.26 187.69 312.83 187.38C308.89 191.56 304.95 195.74 301 199.92C303.77 193.27 308.59 188.53 315.23 184C315.71 188.7 316.09 192.52 316.54 196.87C321.12 192.7 325.32 188.88 330.54 184.12C331.1 189.48 331.52 193.46 332.03 198.38C336.81 194.77 340.85 191.72 345.59 188.14C345.59 193.55 345.59 198.18 345.59 202.8C345.95 202.96 346.31 203.13 346.67 203.29Z" fill="#D3D2D3"/>
<path d="M1243.98 284.99C1242.73 283.17 1241.48 281.35 1239.67 278.72C1239.29 281.18 1239.45 283.08 1238.68 284.46C1237.57 286.45 1236.07 288.91 1234.2 289.51C1233.1 289.87 1230.32 287.36 1229.41 285.57C1226.03 278.99 1228.88 272.93 1236.24 270.38C1235.19 265.97 1234.13 261.54 1233.07 257.1C1233.64 256.94 1234.21 256.78 1234.78 256.63C1236.09 261.4 1237.1 266.28 1238.78 270.91C1240.46 275.52 1242.81 279.88 1244.87 284.36C1244.57 284.57 1244.28 284.78 1243.98 284.99ZM1237.39 279.53C1237.77 279.28 1238.15 279.02 1238.53 278.77C1237.11 276.86 1235.33 273.16 1234.35 273.36C1230.24 274.21 1229.41 278.08 1230.15 281.6C1230.63 283.89 1232.65 285.85 1233.98 287.96C1235.12 285.48 1236.27 283.01 1237.38 280.52C1237.5 280.24 1237.39 279.86 1237.39 279.53Z" fill="#D3D2D3"/>
<path d="M1288.82 243.2C1290.47 242.56 1291.61 242.13 1293.2 241.51C1289.86 246.56 1290.46 249.52 1296.59 256.11C1297.85 253.76 1299.07 251.47 1300.3 249.18C1300.87 249.67 1301.44 250.16 1302.01 250.65C1300.73 252.37 1299.76 254.59 1298.07 255.64C1296.84 256.4 1293.46 256.21 1293.07 255.43C1290.65 250.58 1287.26 246.3 1285.58 240.97C1283.91 235.69 1281.08 230.77 1278.76 225.7C1279.24 225.47 1279.72 225.23 1280.2 225C1283.02 230.94 1285.83 236.89 1288.82 243.2Z" fill="#D3D2D3"/>
<path d="M1246.84 268.9C1247.4 266.51 1247.56 264.29 1248.45 262.41C1250.4 258.29 1255.56 257.79 1257.38 261.89C1259.04 265.62 1259.64 270.11 1259.47 274.21C1259.4 276.08 1256.59 278.9 1254.6 279.31C1252.95 279.65 1250.14 277.51 1248.87 275.74C1247.54 273.86 1247.44 271.12 1246.84 268.9ZM1259.47 271.21C1257.66 267.53 1256.32 264.45 1254.59 261.61C1254.31 261.16 1251.36 261.49 1251.23 261.92C1250.31 265.12 1248.94 268.57 1249.44 271.67C1249.81 273.94 1252.79 275.79 1254.61 277.82C1256.14 275.74 1257.66 273.66 1259.47 271.21Z" fill="#D3D2D3"/>
<path d="M1267.06 271.36C1264.84 266.12 1262.62 260.88 1260.4 255.65C1261.61 254.79 1262.82 254.17 1263.73 253.24C1267.88 249.02 1272.01 249.52 1274.69 254.85C1276.23 257.92 1277.41 261.18 1278.18 264.97C1277.18 263.63 1276.04 262.37 1275.23 260.93C1274.51 259.65 1274.27 258.1 1273.62 256.77C1272.38 254.23 1270.98 251.11 1267.5 252.56C1264.18 253.94 1263.37 257.23 1264.46 260.56C1265.6 264.04 1267.14 267.39 1268.5 270.79C1268.02 270.99 1267.54 271.17 1267.06 271.36Z" fill="#D3D2D3"/>
<path d="M1273.07 235.77L1275.07 234.77L1274.07 240.56L1273.07 235.77Z" fill="#D3D2D3"/>
<g clip-path="url(#clip1_701_17485)">
<path d="M1208.98 1C1211.55 1.37465 1214.23 1.39026 1216.66 2.1942C1224.94 4.94165 1230.16 10.6239 1230.9 19.436C1231.63 28.0608 1228.18 34.9528 1220.49 39.3081C1214.63 42.6254 1208.22 43.5776 1201.58 42.6878C1195.66 41.876 1191.8 38.4105 1190.66 32.5566C1189.1 24.6499 1190.33 16.9617 1194.12 9.89797C1197.15 4.25479 1202.82 2.31909 1207.72 4.91823C1203.37 4.28601 1199.14 4.94165 1196.75 8.64914C1194.64 11.9429 1193.2 15.83 1192.25 19.6545C1191.41 22.9952 1191.29 26.6246 1191.51 30.0901C1191.95 36.9353 1196.17 41.3765 1203.04 41.4311C1207.87 41.4702 1212.98 40.7911 1217.51 39.1754C1226.06 36.1236 1230.77 27.6549 1229.69 19.0847C1228.6 10.499 1221.95 3.9816 1212.84 2.61568C1211.56 2.42836 1210.27 2.37372 1208.99 2.26445C1208.98 1.83516 1208.98 1.41368 1208.98 1Z" fill="#D3D2D3"/>
<path d="M1209.78 35.3896C1207.33 29.8635 1205.22 25.0945 1203.11 20.3333C1203.43 20.1694 1203.75 20.0055 1204.07 19.8416C1205.98 23.8691 1207.88 27.8966 1210.09 32.5719C1214.08 26.921 1217.77 21.6992 1221.46 16.4775C1221.79 16.7039 1222.12 16.938 1222.44 17.1644C1218.4 22.9949 1214.35 28.8254 1209.78 35.3896Z" fill="#D3D2D3"/>
</g>
<g clip-path="url(#clip2_701_17485)">
<path d="M324 5.03989C324.548 4.12059 324.996 3.57399 325.233 2.94787C327.301 -2.56292 333.747 -4.20275 338.351 -0.366557C343.197 3.6684 345.758 13.6465 343.549 19.5299C342.296 22.8643 339.871 24.8469 336.419 25.9998C332.278 19.0032 328.096 11.952 324 5.03989ZM343.59 14.0291C343.388 9.69102 341.949 5.6014 339.302 1.95901C337.828 -0.0684075 335.81 -1.38523 333.214 -1.53928C330.491 -1.69829 328.242 -0.644829 326.828 1.64595C325.535 3.73797 325.258 5.80514 326.813 8.18039C329.898 12.8912 332.61 17.8355 335.493 22.6754C336.751 24.7873 337.612 24.9414 339.65 23.4258C342.764 21.1052 343.464 17.7659 343.59 14.0291Z" fill="#D3D2D3"/>
<path d="M345.945 3.95228C346.569 2.02425 346.801 0.513625 347.51 -0.738603C349.121 -3.57599 352.995 -3.80457 354.787 -1.07651C357.137 2.49632 357.68 6.50146 356.105 10.5265C354.817 13.8161 350.907 14.3527 348.99 11.3563C347.525 9.07051 346.866 6.27288 345.945 3.95228ZM347.299 3.65413C347.178 3.70382 347.052 3.75352 346.932 3.80818C347.676 5.96479 348.139 8.27545 349.271 10.2084C349.88 11.247 351.687 12.2309 352.859 12.1315C353.856 12.047 355.159 10.5165 355.541 9.36866C356.543 6.37226 356.231 3.22678 354.621 0.518594C353.936 -0.63425 352.115 -2.01568 351.053 -1.83679C349.77 -1.62311 348.622 0.0316167 347.676 1.25403C347.244 1.81554 347.41 2.83919 347.299 3.65413Z" fill="#D3D2D3"/>
</g>
<g clip-path="url(#clip3_701_17485)">
<g clip-path="url(#clip4_701_17485)">
<path d="M1351.18 72.3797C1351.52 74.9797 1351.59 77.6397 1352.26 80.1497C1353.18 83.6097 1355.25 86.6297 1359.31 85.2397C1363.13 83.9197 1363.38 79.8897 1361.56 77.2997C1358.14 72.4297 1353.77 68.2197 1349.12 63.9997C1347.79 67.4497 1348.33 71.7197 1343.18 70.4797C1339.16 69.5097 1334.91 63.6597 1335.51 59.9397C1336.07 56.4397 1339.11 54.8097 1342.17 56.9897C1348.37 61.4097 1354.53 65.9897 1360.11 71.1497C1362.32 73.1897 1363.85 76.9197 1363.97 79.9397C1364.06 82.3197 1362.08 85.7197 1360 87.0197C1357.04 88.8597 1353.41 87.2097 1352.03 84.0997C1350.48 80.5897 1350.09 76.5597 1349.19 72.7597C1349.85 72.6297 1350.52 72.5097 1351.18 72.3797ZM1345.12 68.7097C1346.14 64.6097 1343.82 59.5697 1340.46 58.5497C1339.79 58.3397 1338.5 58.4297 1338.27 58.8297C1337.75 59.7297 1337.21 61.1097 1337.56 61.9297C1338.99 65.2997 1340.91 68.3297 1345.12 68.7097Z" fill="#D3D2D3"/>
<path d="M1336.89 85.5199C1333.18 83.1699 1329.47 80.8099 1325.47 78.2699C1326.02 77.5599 1326.69 77.0299 1326.9 76.3599C1329.2 69.1099 1330.05 68.7599 1336.88 72.5199C1338.98 73.6699 1341.06 74.8399 1343.15 75.9999C1342.97 76.3899 1342.78 76.7899 1342.6 77.1799C1338.43 75.4099 1334.25 73.6399 1329.78 71.7399C1327.62 79.6299 1334.89 80.7199 1337.72 84.5799C1337.44 84.8899 1337.16 85.1999 1336.89 85.5199Z" fill="#D3D2D3"/>
<path d="M1322.95 92.7203C1320.44 96.4303 1317.94 100.14 1315.43 103.84C1314.96 103.52 1314.48 103.2 1314 102.88C1316.52 99.1803 1319.04 95.4803 1321.56 91.7803C1322.02 92.0903 1322.49 92.4103 1322.95 92.7203Z" fill="#D3D2D3"/>
<path d="M1332.82 91.58C1329.38 88.87 1325.94 86.16 1322.51 83.46C1322.89 82.97 1323.27 82.49 1323.65 82C1327.06 84.74 1330.48 87.48 1333.89 90.22C1333.53 90.67 1333.18 91.13 1332.82 91.58Z" fill="#D3D2D3"/>
</g>
</g>
<path d="M766.764 312.996C762.783 299.837 758.877 287.193 755.154 274.498C754.225 271.339 757.667 265.842 761.058 264.996C783.291 259.441 805.524 253.869 827.816 248.546C837.75 246.175 847.826 244.425 857.802 242.211C860.73 241.565 862.131 242.352 862.82 245.263C865.382 256.133 868.268 266.937 870.656 277.848C871.892 283.495 869.885 286.306 864.321 287.79C839.094 294.514 813.875 301.205 788.632 307.822C781.566 309.671 774.418 311.197 766.764 312.996ZM759.765 266.53C763.894 280.103 767.759 292.823 771.607 305.475C772.494 305.368 772.909 305.359 773.307 305.26C804.247 297.549 835.18 289.78 866.145 282.16C869.213 281.405 869.86 279.963 869.188 277.21C866.709 267.169 864.221 257.128 861.874 247.054C861.153 243.953 859.685 243.231 856.6 243.928C834.79 248.886 812.922 253.587 791.12 258.579C780.654 260.975 770.288 263.844 759.765 266.53ZM867.936 285.037C867.787 284.465 867.646 283.893 867.497 283.321C862.363 284.597 857.23 285.883 852.089 287.16C826.24 293.585 800.391 300.011 774.542 306.446C771.118 307.3 771.126 307.324 770.338 310.649C803.244 302.963 835.793 294.746 867.936 285.037ZM758.886 269.822C758.38 269.864 757.882 269.905 757.376 269.955C757.31 272.052 756.738 274.299 757.268 276.231C759.532 284.473 762.112 292.615 764.591 300.799C765.487 303.751 766.424 306.686 767.344 309.629C767.858 309.605 768.364 309.58 768.878 309.555C769.011 307.581 769.65 305.475 769.177 303.66C767.054 295.526 764.666 287.458 762.261 279.407C761.291 276.157 760.022 273.014 758.886 269.822Z" fill="#D3D2D3"/>
<path d="M827.583 253.022C828.495 257.765 829.399 262.516 830.345 267.433C831.564 267.093 832.459 266.828 833.371 266.596C838.563 265.286 842.776 268.154 843.348 273.511C843.796 277.706 842.087 281.056 838.803 283.585C834.201 287.134 832.07 286.213 831.116 280.517C829.723 272.226 828.197 263.959 826.77 255.676C826.629 254.847 826.754 253.976 826.754 253.13C827.027 253.089 827.301 253.056 827.583 253.022ZM833.43 285.019C835.934 283.353 837.833 282.482 839.218 281.097C842.643 277.698 843.174 272.333 839.948 269.688C838.364 268.395 835.536 268.353 833.264 268.32C832.501 268.312 830.958 270.153 831.049 270.998C831.547 275.318 832.459 279.588 833.43 285.019Z" fill="#D3D2D3"/>
<path d="M805.631 290.36C805.092 290.758 804.544 291.148 804.014 291.554C801.36 293.577 798.565 296.098 795.099 294.124C791.649 292.159 791.234 288.129 792.039 284.888C793.017 280.908 794.925 277.002 797.172 273.545C798.549 271.422 801.849 270.585 803.491 273.221C804.362 274.623 803.848 277.898 802.703 279.316C800.962 281.471 798.3 283.13 795.712 284.291C791.964 285.974 793.349 288.478 794.228 290.808C795.298 293.668 797.545 293.851 799.983 292.499C801.783 291.504 803.491 290.36 805.241 289.282C805.357 289.63 805.49 289.995 805.631 290.36ZM792.959 282.35C793.449 282.781 793.938 283.213 794.427 283.644C797.006 281.745 799.726 280.004 802.065 277.856C802.77 277.21 802.43 275.419 802.571 274.15C801.194 274.183 799.179 273.653 798.565 274.349C796.434 276.787 794.792 279.647 792.959 282.35Z" fill="#D3D2D3"/>
<path d="M849.866 277.326C852.428 279.738 857.238 279.821 859.179 277.035C860.116 275.692 860.655 273.064 859.95 271.853C859.121 270.427 856.807 269.349 855.016 269.134C852.926 268.885 849.99 270.245 849.526 267.334C849.169 265.087 850.015 262.161 851.359 260.278C852.354 258.885 855.016 258.686 857.653 257.691C854.701 260.403 852.171 261.953 850.82 264.209C849.526 266.356 850.621 268.296 853.714 267.716C857.023 267.094 860.199 267.708 861.285 271.024C861.949 273.039 861.691 276.778 860.389 277.707C857.943 279.448 854.477 279.871 851.367 280.443C850.762 280.551 849.824 278.851 849.045 277.989C849.31 277.749 849.592 277.533 849.866 277.326Z" fill="#D3D2D3"/>
<path d="M772.7 279.009C775.644 284.025 778.588 289.041 782.187 295.169C783.365 288.279 784.351 282.491 785.347 276.695C785.753 276.762 786.151 276.828 786.557 276.894C785.488 283.984 784.418 291.081 783.356 298.17C782.991 298.261 782.618 298.353 782.253 298.436C778.679 292.192 775.113 285.94 771.539 279.697C771.921 279.473 772.31 279.241 772.7 279.009Z" fill="#D3D2D3"/>
<path d="M813.832 289.796C813.053 283.204 812.281 276.604 811.502 270.012C811.925 269.946 812.34 269.88 812.762 269.813C813.069 271.198 813.376 272.574 813.559 273.412C816.154 271.745 818.866 269.929 821.702 268.337C821.901 268.23 823.046 269.797 823.576 271.19C820.782 268.205 819.223 269.904 817.647 272.052C814.836 275.858 813.152 279.846 814.645 284.696C815.126 286.263 815.167 287.972 815.408 289.622C814.877 289.68 814.355 289.738 813.832 289.796Z" fill="#D3D2D3"/>
<path d="M158 209.007C163.647 202.337 166.713 194.746 175.316 191.689C186.065 187.868 196.422 182.985 207.188 179.189C216.276 175.983 222.289 179.347 225.296 188.25C227.297 194.181 225.057 198.209 218.269 200.709C206.881 204.912 195.51 209.189 184.029 213.126C181.406 214.023 178.186 214.247 175.461 213.716C169.805 212.595 164.32 210.759 158 209.007ZM205.348 182.038C205.058 182.494 204.394 183.142 204.522 183.375C207.605 188.898 210.774 194.372 214.061 200.078C214.973 199.795 216.318 199.372 218.405 198.716C215.288 193.209 212.434 188.034 209.428 182.935C208.465 181.307 207.128 179.911 205.246 182.137C205.237 182.137 205.348 182.038 205.348 182.038ZM205.987 188.358C195.451 192.204 185.162 195.958 175.452 199.505C175.716 201.822 175.903 203.467 176.108 205.227C179.285 206.44 204.437 198.45 209.36 194.388C208.32 192.528 207.247 190.626 205.987 188.358ZM177.437 210.61C179.532 211.307 181.252 212.528 182.385 212.146C192.231 208.766 201.967 205.103 212.077 201.39C211.421 199.663 210.918 198.317 210.271 196.614C200.093 200.302 190.289 203.807 180.545 207.462C179.532 207.844 178.868 209.123 177.437 210.61ZM204.684 187.22C204.828 186.797 204.965 186.382 205.109 185.958C203.44 185.036 201.319 182.943 200.178 183.367C190.69 186.88 181.38 190.858 171.815 194.779C172.599 196.357 173.11 197.403 173.706 198.608C184.148 194.77 194.42 191 204.684 187.22ZM219.589 197.885C224.682 195.734 225.773 192.644 223.328 187.279C220.27 180.576 215.339 178.092 210.084 180.418C213.252 186.232 216.42 192.063 219.589 197.885ZM169.532 196.614C167.71 199.795 162.923 201.706 163.962 206.141C165.461 212.57 172.181 210.327 176.397 212.744C176.687 210.626 176.9 209.09 177.104 207.553C175.793 206.889 174.575 206.266 173.229 205.576C173.629 204.43 173.979 203.45 173.944 203.533C172.326 201 171.168 199.164 169.532 196.614Z" fill="#D3D2D3"/>
<path d="M1328.46 90.9818C1329.21 91.0618 1330.29 90.8518 1330.65 91.2618C1335.1 96.4618 1338.21 102.352 1339.36 109.192C1335.78 103.072 1332.2 96.9418 1328.61 90.8418C1328.59 90.8618 1328.46 90.9818 1328.46 90.9818Z" fill="#D3D2D3"/>
<path d="M79 55.7901C84.83 59.2501 87.64 58.4001 88.72 51.6201C89.9 44.2301 92.37 38.2001 98.81 33.6101C103.48 30.2901 102.83 22.9201 98.48 19.1001C94.44 15.5601 87.92 16.5401 84.47 21.3001C83.53 22.6001 82.87 24.1001 81.37 26.7801C81.37 24.4801 81.1 23.4101 81.42 22.5701C83.11 18.0901 87.77 15.0201 92.74 15.0001C97.61 14.9801 100.94 17.3401 102.83 21.7601C104.84 26.4601 104.33 32.3001 100.34 35.0101C93.88 39.3901 91.59 45.4401 90.56 52.6201C90.27 54.6301 89.2 56.9201 87.74 58.2601C86.53 59.3701 84.05 59.8901 82.43 59.4901C81.05 59.1401 80.12 57.0901 79 55.7901Z" fill="#D3D2D3"/>
<path d="M121.421 23.5703C126.351 36.5403 114.601 64.9003 102.141 69.9403C115.211 57.2403 121.681 41.8003 121.421 23.5703Z" fill="#D3D2D3"/>
<path d="M111.43 30.0898C113.7 39.8898 105.11 59.5098 97.2598 62.5798C105.36 53.1998 109.89 42.3198 111.43 30.0898Z" fill="#D3D2D3"/>
<path d="M101.509 39.4707C102.999 44.2207 101.229 48.9807 96.5293 52.2407C98.2793 47.7807 99.8693 43.6807 101.509 39.4707Z" fill="#D3D2D3"/>
<path d="M80.5996 44.8999C84.4096 42.9099 86.0896 40.1299 83.7696 35.8799C84.4296 35.8899 85.0896 35.8999 85.7596 35.9099C85.9796 37.9799 86.8596 40.2799 86.2296 42.0499C85.6396 43.6999 83.4496 44.7699 81.9596 46.0899C81.4996 45.6899 81.0496 45.2899 80.5996 44.8999Z" fill="#D3D2D3"/>
<path d="M974.496 33.3189C967.317 23.7997 960.318 14.5304 953 4.82371C959.721 -0.411516 966.31 -5.54953 973.295 -11C980.148 -1.59882 986.904 7.67045 994 17.398C987.515 22.6887 981.141 27.8892 974.496 33.3189ZM954.569 5.01118C961.367 14.0235 967.935 22.7373 974.684 31.6803C980.766 26.7228 986.543 22.0152 992.452 17.1966C985.904 8.21202 979.558 -0.494833 973.094 -9.37527C966.775 -4.46638 960.867 0.123118 954.569 5.01118Z" fill="#D3D2D3"/>
<path d="M967.039 14.8013C970.622 11.9824 974.211 9.15644 978.482 5.7959C977.926 7.20538 977.676 7.83722 977.308 8.76762C978.197 8.87871 979.016 8.81622 979.69 9.10784C981.287 9.78828 983.731 10.3229 984.133 11.4963C984.585 12.8086 983.585 15.1693 982.46 16.3497C979.94 18.9881 976.954 21.1752 974.149 23.5429C973.899 23.2791 973.649 23.0152 973.392 22.7583C974.218 22.0432 975.059 21.3558 975.864 20.6198C978.141 18.5229 980.62 16.5927 982.599 14.2459C984.14 12.4198 983.467 10.802 980.898 10.3507C977.718 9.79523 974.746 9.80217 972.156 12.2531C970.795 13.5446 969.08 14.468 967.525 15.5512C967.358 15.3082 967.199 15.0513 967.039 14.8013Z" fill="#D3D2D3"/>
<path d="M962.971 9.05223C966.213 6.36519 969.456 3.68509 972.698 0.998047C972.927 1.26189 973.156 1.51878 973.379 1.78263C970.157 4.48356 966.928 7.18449 963.707 9.88542C963.457 9.60769 963.214 9.32996 962.971 9.05223Z" fill="#D3D2D3"/>
<path d="M775.011 167.75C777.631 168.36 779.841 169.61 781.551 169.12C785.201 168.07 787.621 165.03 786.881 161.2C786.461 159.05 784.331 156.92 782.441 155.47C781.381 154.65 779.151 155.55 777.601 155.12C775.901 154.64 773.231 153.71 773.051 152.63C772.761 150.92 773.741 148.46 775.031 147.18C776.091 146.13 778.391 146.35 780.141 146C780.261 146.5 780.381 147 780.491 147.49C780.151 147.71 779.821 147.95 779.471 148.16C777.781 149.16 776.081 150.16 774.381 151.15C775.921 151.89 777.441 153.21 779.011 153.28C785.691 153.56 788.651 155.82 788.781 161.27C788.911 166.55 784.811 171.21 779.821 171.42C776.731 171.55 774.761 170.49 775.011 167.75Z" fill="#D3D2D3"/>
<path d="M116.231 280.381C114.261 280.511 113.051 280.591 111.791 280.671C111.791 280.131 111.761 279.561 111.791 279.551C114.941 279.161 118.091 278.811 122.521 278.311C119.681 282.441 117.771 285.201 115.091 289.101C115.331 286.591 115.431 285.451 115.671 282.961C110.991 287.021 107.331 290.561 103.291 293.611C97.7608 297.791 92.2208 302.101 86.1508 305.391C81.5108 307.911 76.0808 308.231 71.0508 304.791C85.2208 308.231 94.2108 299.751 103.301 291.341C107.191 287.741 111.381 284.471 116.231 280.381Z" fill="#D3D2D3"/>
<path d="M68.2695 292.731C68.8395 286.311 69.2895 280.251 70.0295 274.221C70.1295 273.391 71.7195 272.151 72.6495 272.121C78.4395 271.931 84.2295 272.021 90.6495 272.021C89.8695 278.471 89.2195 284.681 88.2595 290.841C88.1395 291.611 86.3495 292.611 85.3095 292.651C79.8695 292.821 74.4195 292.731 68.2695 292.731ZM88.7495 273.881C82.8795 273.881 77.4795 273.881 71.6695 273.881C71.1495 279.651 70.6595 285.141 70.1395 291.011C75.3495 291.011 79.7895 291.131 84.2095 290.911C85.1395 290.861 86.6495 289.651 86.7895 288.791C87.6195 283.951 88.1095 279.041 88.7495 273.881Z" fill="#D3D2D3"/>
<path d="M58.21 302.601C50.81 302.601 43.42 302.601 36.02 302.601C36.01 302.241 36.01 301.881 36 301.521C43.4 301.521 50.79 301.521 58.19 301.521C58.19 301.881 58.2 302.241 58.21 302.601Z" fill="#D3D2D3"/>
<path d="M1399.87 260.99C1398.07 262.11 1396.23 264.15 1394.46 264.1C1392.66 264.04 1389.46 261.92 1389.46 260.7C1389.45 257.33 1389.97 253.33 1391.89 250.8C1393.15 249.14 1397.49 248.6 1399.93 249.31C1403.79 250.44 1405.08 254.23 1404.86 258.2C1404.56 263.51 1400.46 268.26 1395.53 269.18C1389.27 270.36 1382.75 266.75 1380.17 260.67C1377.4 254.15 1379.63 246.17 1386.16 242C1385.21 243.34 1384.21 244.64 1383.33 246.01C1378.21 254.01 1380.88 263.77 1389.02 266.91C1395.86 269.55 1403.41 264.77 1403.04 257.61C1402.92 255.31 1401.34 252.41 1399.49 251.09C1398.16 250.14 1394.53 250.6 1393.28 251.83C1391.63 253.45 1390.48 256.45 1390.58 258.8C1390.76 263.24 1394.08 263.59 1399.09 259.9C1399.35 260.27 1399.61 260.63 1399.87 260.99Z" fill="#D3D2D3"/>
<path d="M124.452 150.659C123.422 157.392 112.198 171.689 106 174.161C113.846 167.651 120.043 159.858 124.452 150.659Z" fill="#D3D2D3"/>
<path d="M123.729 168.498C128.49 161.235 131.963 153.513 133.181 144.867C132.987 153.943 129.408 161.677 123.729 168.498Z" fill="#D3D2D3"/>
<path d="M120.172 144.638C117.188 152.165 112.45 158.187 106.494 163.336C111.014 157.162 115.535 150.982 120.172 144.638Z" fill="#D3D2D3"/>
</g>
<defs>
<clipPath id="clip0_701_17485">
<rect width="1440" height="308" fill="white"/>
</clipPath>
<clipPath id="clip1_701_17485">
<rect width="41" height="42" fill="white" transform="translate(1190 1)"/>
</clipPath>
<clipPath id="clip2_701_17485">
<rect width="33" height="29" fill="white" transform="translate(324 -3)"/>
</clipPath>
<clipPath id="clip3_701_17485">
<rect width="116" height="71" fill="white" transform="translate(1276 64)"/>
</clipPath>
<clipPath id="clip4_701_17485">
<rect width="49.97" height="47.84" fill="white" transform="translate(1314 56)"/>
</clipPath>
</defs>
</svg>
