<svg width="375" height="705" viewBox="0 0 375 705" fill="none" xmlns="http://www.w3.org/2000/svg">
<g clip-path="url(#clip0)">
<path d="M1440 0H-1V578H1440V0Z" fill="url(#paint0_linear)"/>
<path d="M-196 -297.898C-196 -297.898 178.976 -487.954 402.176 -127.737C625.376 232.48 1065.15 166.472 1285.06 -62.755C1524.92 -312.808 1664 -181.006 1664 -181.006V432.078C1664 432.078 1342.42 57.5479 936.194 360.512C373.234 780.367 -196 463.09 -196 463.09V-297.898Z" fill="url(#paint1_linear)"/>
</g>
<circle cx="36.348" cy="497.348" r="13.348" fill="#00C2F3"/>
<circle cx="354.858" cy="560.303" r="10.8227" fill="#92C83E"/>
<circle cx="67.0506" cy="667.051" r="5.05059" fill="#FDCE74"/>
<circle cx="304.972" cy="442.898" r="4.32908" fill="#D2D1E4"/>
<g clip-path="url(#clip1)">
<path d="M57.2083 691.934C56.5439 692.136 55.9259 692.271 55.3285 692.391C54.1223 692.632 52.9757 692.816 51.8796 692.956C49.6988 693.234 47.7483 693.365 46.1012 693.43C42.8162 693.545 40.7776 693.318 40.7296 692.86C40.6796 692.39 42.6233 691.769 45.7977 691.043C47.3824 690.698 49.2704 690.286 51.3619 689.838C52.4077 689.613 53.4967 689.369 54.5929 689.101C55.0845 688.977 55.5853 688.84 56.0501 688.697C54.5802 688.321 52.2336 687.554 48.6932 685.741C45.1332 683.886 40.2365 681.034 34.5862 675.632C31.7743 672.94 28.9209 669.566 26.4073 665.617C25.1494 663.637 24.0367 661.49 23.0021 659.259C22.0427 656.992 21.1367 654.632 20.4941 652.179C19.8288 649.729 19.325 647.204 19.0382 644.651L18.8321 642.737L18.7658 640.822C18.7216 639.545 18.6774 638.268 18.6352 637.002C18.8368 631.919 19.4115 626.897 20.8391 622.328C22.2442 617.763 24.0859 613.61 26.2354 610.126C28.387 606.652 30.6831 603.784 32.7823 601.57C37.0434 597.166 40.3452 595.271 40.5075 595.522C40.679 595.76 37.7911 598.07 34.0337 602.675C32.1873 604.995 30.177 607.894 28.3102 611.327C26.4548 614.759 24.9062 618.789 23.7645 623.13C22.6023 627.488 22.2448 632.225 22.1977 637C22.2728 638.189 22.35 639.39 22.4385 640.589L22.5542 642.391L22.7944 644.169C23.1184 646.541 23.6552 648.861 24.3063 651.103C24.948 653.359 25.8284 655.512 26.751 657.576C27.7395 659.617 28.7948 661.575 29.9726 663.371C32.319 666.977 34.9814 670.07 37.5939 672.564C42.8343 677.573 47.3579 680.364 50.6052 682.3C52.8763 683.618 54.5669 684.503 55.8063 685.155C55.5111 684.04 55.222 682.959 54.9545 681.933C54.3764 679.771 53.8557 677.798 53.4509 676.142C52.6507 672.818 52.3337 670.679 52.7944 670.514C53.2438 670.351 54.3733 672.202 55.7834 675.347C56.4895 676.924 57.2549 678.83 58.0181 680.981C58.3997 682.057 58.7822 683.203 59.1411 684.411C59.3195 685.01 59.4907 685.633 59.6547 686.281C59.7366 686.605 59.8094 686.942 59.8821 687.279L59.9783 687.811L60.0029 687.947L60.0325 688.175L60.0784 688.622C60.1029 688.886 60.0749 689.184 60.0767 689.452C60.0066 689.71 59.9365 689.968 59.8643 690.215C59.6975 690.455 59.5174 690.686 59.3332 690.895C59.1243 691.096 58.8754 691.27 58.6049 691.389C58.3344 691.508 58.0474 691.665 57.7821 691.748C57.5301 691.84 57.3759 691.891 57.2083 691.934Z" fill="#DEEFC5"/>
</g>
<defs>
<linearGradient id="paint0_linear" x1="719.5" y1="0" x2="719.5" y2="578" gradientUnits="userSpaceOnUse">
<stop stop-color="#F0F7E8"/>
<stop offset="1" stop-color="#F2F9EC" stop-opacity="0"/>
</linearGradient>
<linearGradient id="paint1_linear" x1="734" y1="-348" x2="734" y2="578" gradientUnits="userSpaceOnUse">
<stop stop-color="#E8F4D7"/>
<stop offset="1" stop-color="#DFF0C7" stop-opacity="0"/>
</linearGradient>
<clipPath id="clip0">
<rect width="375" height="705" fill="white"/>
</clipPath>
<clipPath id="clip1">
<rect width="98.0281" height="32.6569" fill="white" transform="matrix(0.178086 0.984015 0.984015 -0.178086 11 600.816)"/>
</clipPath>
</defs>
</svg>
