<svg width="375" height="1464" viewBox="0 0 375 1464" fill="none" xmlns="http://www.w3.org/2000/svg">
<rect width="375" height="1464" fill="url(#paint0_linear)"/>
<defs>
<linearGradient id="paint0_linear" x1="139.063" y1="28" x2="674.026" y2="342.238" gradientUnits="userSpaceOnUse">
<stop stop-color="#BEE8F4" stop-opacity="0"/>
<stop offset="1" stop-color="#FAFEFF"/>
</linearGradient>
</defs>
</svg>
