<svg width="1440" height="781" viewBox="0 0 1440 781" fill="none" xmlns="http://www.w3.org/2000/svg">
<path d="M1440 40.2548C1440 40.2548 1149.7 -112.447 976.896 176.971C804.096 466.39 463.622 413.355 293.376 229.182C107.674 28.2756 0 134.172 0 134.172V626.758C0 626.758 248.966 325.84 563.462 569.258C999.302 906.593 1440 651.675 1440 651.675V40.2548Z" fill="url(#paint0_linear)" style="mix-blend-mode:multiply"/>
<path d="M0 77.2548C0 77.2548 290.304 -75.4469 463.104 213.971C635.904 503.39 976.378 450.355 1146.62 266.182C1332.33 65.2756 1440 171.172 1440 171.172V663.758C1440 663.758 1191.03 362.84 876.538 606.258C440.698 943.593 0 688.675 0 688.675V77.2548Z" fill="url(#paint1_linear)" style="mix-blend-mode:multiply"/>
<defs>
<linearGradient id="paint0_linear" x1="720" y1="150" x2="720" y2="744" gradientUnits="userSpaceOnUse">
<stop stop-color="#FCFBFE"/>
<stop offset="1" stop-color="#F0E8F7" stop-opacity="0"/>
</linearGradient>
<linearGradient id="paint1_linear" x1="720" y1="187" x2="720" y2="781" gradientUnits="userSpaceOnUse">
<stop stop-color="#FCFBFE"/>
<stop offset="1" stop-color="#E6D9F2" stop-opacity="0"/>
</linearGradient>
</defs>
</svg>
