<svg width="1440" height="1076" viewBox="0 0 1440 1076" fill="none" xmlns="http://www.w3.org/2000/svg">
<path d="M1440 99.999H0V687.999H1440V99.999Z" fill="url(#paint0_linear)"/>
<path d="M-98.8561 -26.1595C-98.8561 -26.1595 208.491 569.814 724.262 255.18C1240.03 -59.4545 1506.34 277.086 1506.34 277.086L1564.4 154.645L314.263 -889.911L-98.8561 -26.1595Z" fill="url(#paint1_linear)"/>
<defs>
<linearGradient id="paint0_linear" x1="720" y1="99.999" x2="720" y2="687.999" gradientUnits="userSpaceOnUse">
<stop stop-color="#FFF4F5"/>
<stop offset="1" stop-color="#FFF5F5" stop-opacity="0"/>
</linearGradient>
<linearGradient id="paint1_linear" x1="822.077" y1="845.384" x2="1349.91" y2="74.5403" gradientUnits="userSpaceOnUse">
<stop stop-color="white" stop-opacity="0"/>
<stop offset="1" stop-color="#FFF0F0"/>
</linearGradient>
</defs>
</svg>
