<svg width="1439" height="877" viewBox="0 0 1439 877" fill="none" xmlns="http://www.w3.org/2000/svg">
<path d="M0 826.298C0 826.298 290.102 1016.35 462.782 656.138C635.462 295.921 975.7 361.929 1145.83 591.155C1331.4 841.208 1439 709.407 1439 709.407V96.3223C1439 96.3223 1293.5 417.4 876 113.4C569.5 -109.776 0 65.3102 0 65.3102V826.298Z" fill="url(#paint0_linear)"/>
<defs>
<linearGradient id="paint0_linear" x1="719.5" y1="699.707" x2="719.5" y2="0.000589499" gradientUnits="userSpaceOnUse">
<stop stop-color="#FFF5E3" stop-opacity="0"/>
<stop offset="0.510417" stop-color="#FFF5E3"/>
<stop offset="1" stop-color="#FFF5E3" stop-opacity="0"/>
</linearGradient>
</defs>
</svg>
