<svg width="398" height="686" viewBox="0 0 398 686" fill="none" xmlns="http://www.w3.org/2000/svg">
<path d="M66.801 7.00903C148.827 -30.0933 218.383 98.3877 388.186 133.898C535.262 164.638 579.777 87.7099 684.376 140.456C760.801 178.976 824.958 262.688 835.689 362.235C847.531 472 788.641 551.244 773.641 570.149C706.469 654.992 613.945 673.592 581.563 679.587C448.17 704.244 340.62 639.942 289.012 609.121C95.1815 493.279 -29.5307 257.696 6.29406 84.6384C14.5017 63.3088 29.7699 23.7681 66.801 7.00903Z" fill="url(#paint0_linear)"/>
<defs>
<linearGradient id="paint0_linear" x1="640.92" y1="74.3306" x2="176.401" y2="521.816" gradientUnits="userSpaceOnUse">
<stop stop-color="#FFF4F5"/>
<stop offset="1" stop-color="white" stop-opacity="0"/>
</linearGradient>
</defs>
</svg>
