<svg width="1440" height="426" viewBox="0 0 1440 426" fill="none" xmlns="http://www.w3.org/2000/svg">
<g opacity="0.5">
<path d="M346.67 303.29C349.34 300.21 352.01 297.12 354.68 294.04C355.06 294.35 355.43 294.67 355.81 294.98C352.25 299.22 348.69 303.46 345.13 307.7C344.76 307.5 344.4 307.3 344.03 307.1C344.03 302.26 344.03 297.43 344.03 291.66C339.43 295.05 335.41 298.02 330.67 301.51C330.13 296.66 329.7 292.77 329.06 287.02C324.25 292.58 320.27 297.19 316.28 301.8C315.8 301.52 315.31 301.23 314.83 300.95C314.59 296.74 314.34 292.52 314.1 288.31C313.68 288 313.26 287.69 312.83 287.38C308.89 291.56 304.95 295.74 301 299.92C303.77 293.27 308.59 288.53 315.23 284C315.71 288.7 316.09 292.52 316.54 296.87C321.12 292.7 325.32 288.88 330.54 284.12C331.1 289.48 331.52 293.46 332.03 298.38C336.81 294.77 340.85 291.72 345.59 288.14C345.59 293.55 345.59 298.18 345.59 302.8C345.95 302.96 346.31 303.13 346.67 303.29Z" fill="#E9E9E9"/>
<path d="M1243.98 384.99C1242.73 383.17 1241.48 381.35 1239.67 378.72C1239.29 381.18 1239.45 383.08 1238.68 384.46C1237.57 386.45 1236.07 388.91 1234.2 389.51C1233.1 389.87 1230.32 387.36 1229.41 385.57C1226.03 378.99 1228.88 372.93 1236.24 370.38C1235.19 365.97 1234.13 361.54 1233.07 357.1C1233.64 356.94 1234.21 356.78 1234.78 356.63C1236.09 361.4 1237.1 366.28 1238.78 370.91C1240.46 375.52 1242.81 379.88 1244.87 384.36C1244.57 384.57 1244.28 384.78 1243.98 384.99ZM1237.39 379.53C1237.77 379.28 1238.15 379.02 1238.53 378.77C1237.11 376.86 1235.33 373.16 1234.35 373.36C1230.24 374.21 1229.41 378.08 1230.15 381.6C1230.63 383.89 1232.65 385.85 1233.98 387.96C1235.12 385.48 1236.27 383.01 1237.38 380.52C1237.5 380.24 1237.39 379.86 1237.39 379.53Z" fill="#E9E9E9"/>
<path d="M1288.82 343.2C1290.47 342.56 1291.61 342.13 1293.2 341.51C1289.86 346.56 1290.46 349.52 1296.59 356.11C1297.85 353.76 1299.07 351.47 1300.3 349.18C1300.87 349.67 1301.44 350.16 1302.01 350.65C1300.73 352.37 1299.76 354.59 1298.07 355.64C1296.84 356.4 1293.46 356.21 1293.07 355.43C1290.65 350.58 1287.26 346.3 1285.58 340.97C1283.91 335.69 1281.08 330.77 1278.76 325.7C1279.24 325.47 1279.72 325.23 1280.2 325C1283.02 330.94 1285.83 336.89 1288.82 343.2Z" fill="#E9E9E9"/>
<path d="M1246.84 368.9C1247.4 366.51 1247.56 364.29 1248.45 362.41C1250.4 358.29 1255.56 357.79 1257.38 361.89C1259.04 365.62 1259.64 370.11 1259.47 374.21C1259.4 376.08 1256.59 378.9 1254.6 379.31C1252.95 379.65 1250.14 377.51 1248.87 375.74C1247.54 373.86 1247.44 371.12 1246.84 368.9ZM1259.47 371.21C1257.66 367.53 1256.32 364.45 1254.59 361.61C1254.31 361.16 1251.36 361.49 1251.23 361.92C1250.31 365.12 1248.94 368.57 1249.44 371.67C1249.81 373.94 1252.79 375.79 1254.61 377.82C1256.14 375.74 1257.66 373.66 1259.47 371.21Z" fill="#E9E9E9"/>
<path d="M1267.06 371.36C1264.84 366.12 1262.62 360.88 1260.4 355.65C1261.61 354.79 1262.82 354.17 1263.73 353.24C1267.88 349.02 1272.01 349.52 1274.69 354.85C1276.23 357.92 1277.41 361.18 1278.18 364.97C1277.18 363.63 1276.04 362.37 1275.23 360.93C1274.51 359.65 1274.27 358.1 1273.62 356.77C1272.38 354.23 1270.98 351.11 1267.5 352.56C1264.18 353.94 1263.37 357.23 1264.46 360.56C1265.6 364.04 1267.14 367.39 1268.5 370.79C1268.02 370.99 1267.54 371.17 1267.06 371.36Z" fill="#E9E9E9"/>
<path d="M1273.07 335.77L1275.07 334.77L1274.07 340.56L1273.07 335.77Z" fill="#E9E9E9"/>
<g clip-path="url(#clip0)">
<path d="M1208.98 101C1211.55 101.375 1214.23 101.39 1216.66 102.194C1224.94 104.942 1230.16 110.624 1230.9 119.436C1231.63 128.061 1228.18 134.953 1220.49 139.308C1214.63 142.625 1208.22 143.578 1201.58 142.688C1195.66 141.876 1191.8 138.411 1190.66 132.557C1189.1 124.65 1190.33 116.962 1194.12 109.898C1197.15 104.255 1202.82 102.319 1207.72 104.918C1203.37 104.286 1199.14 104.942 1196.75 108.649C1194.64 111.943 1193.2 115.83 1192.25 119.655C1191.41 122.995 1191.29 126.625 1191.51 130.09C1191.95 136.935 1196.17 141.377 1203.04 141.431C1207.87 141.47 1212.98 140.791 1217.51 139.175C1226.06 136.124 1230.77 127.655 1229.69 119.085C1228.6 110.499 1221.95 103.982 1212.84 102.616C1211.56 102.428 1210.27 102.374 1208.99 102.264C1208.98 101.835 1208.98 101.414 1208.98 101Z" fill="#E9E9E9"/>
<path d="M1209.78 135.39C1207.33 129.864 1205.22 125.095 1203.11 120.334C1203.43 120.17 1203.75 120.006 1204.07 119.842C1205.98 123.87 1207.88 127.897 1210.09 132.572C1214.08 126.921 1217.77 121.7 1221.46 116.478C1221.79 116.704 1222.12 116.939 1222.44 117.165C1218.4 122.995 1214.35 128.826 1209.78 135.39Z" fill="#E9E9E9"/>
</g>
<g clip-path="url(#clip1)">
<path d="M324 105.04C324.548 104.121 324.996 103.574 325.233 102.948C327.301 97.4371 333.747 95.7973 338.351 99.6334C343.197 103.668 345.758 113.646 343.549 119.53C342.296 122.864 339.871 124.847 336.419 126C332.278 119.003 328.096 111.952 324 105.04ZM343.59 114.029C343.388 109.691 341.949 105.601 339.302 101.959C337.828 99.9316 335.81 98.6148 333.214 98.4607C330.491 98.3017 328.242 99.3552 326.828 101.646C325.535 103.738 325.258 105.805 326.813 108.18C329.898 112.891 332.61 117.835 335.493 122.675C336.751 124.787 337.612 124.941 339.65 123.426C342.764 121.105 343.464 117.766 343.59 114.029Z" fill="#E9E9E9"/>
<path d="M345.945 103.952C346.569 102.024 346.801 100.513 347.51 99.2609C349.121 96.4235 352.995 96.1949 354.787 98.923C357.137 102.496 357.68 106.501 356.105 110.526C354.817 113.816 350.907 114.352 348.99 111.356C347.525 109.07 346.866 106.272 345.945 103.952ZM347.299 103.654C347.178 103.703 347.052 103.753 346.932 103.808C347.676 105.964 348.139 108.275 349.271 110.208C349.88 111.247 351.687 112.23 352.859 112.131C353.856 112.047 355.159 110.516 355.541 109.368C356.543 106.372 356.231 103.226 354.621 100.518C353.936 99.3653 352.115 97.9838 351.053 98.1627C349.77 98.3764 348.622 100.031 347.676 101.254C347.244 101.815 347.41 102.839 347.299 103.654Z" fill="#E9E9E9"/>
</g>
<g clip-path="url(#clip2)">
<g clip-path="url(#clip3)">
<path d="M1351.18 172.38C1351.52 174.98 1351.59 177.64 1352.26 180.15C1353.18 183.61 1355.25 186.63 1359.31 185.24C1363.13 183.92 1363.38 179.89 1361.56 177.3C1358.14 172.43 1353.77 168.22 1349.12 164C1347.79 167.45 1348.33 171.72 1343.18 170.48C1339.16 169.51 1334.91 163.66 1335.51 159.94C1336.07 156.44 1339.11 154.81 1342.17 156.99C1348.37 161.41 1354.53 165.99 1360.11 171.15C1362.32 173.19 1363.85 176.92 1363.97 179.94C1364.06 182.32 1362.08 185.72 1360 187.02C1357.04 188.86 1353.41 187.21 1352.03 184.1C1350.48 180.59 1350.09 176.56 1349.19 172.76C1349.85 172.63 1350.52 172.51 1351.18 172.38ZM1345.12 168.71C1346.14 164.61 1343.82 159.57 1340.46 158.55C1339.79 158.34 1338.5 158.43 1338.27 158.83C1337.75 159.73 1337.21 161.11 1337.56 161.93C1338.99 165.3 1340.91 168.33 1345.12 168.71Z" fill="#E9E9E9"/>
<path d="M1336.89 185.52C1333.18 183.17 1329.47 180.81 1325.47 178.27C1326.02 177.56 1326.69 177.03 1326.9 176.36C1329.2 169.11 1330.05 168.76 1336.88 172.52C1338.98 173.67 1341.06 174.84 1343.15 176C1342.97 176.39 1342.78 176.79 1342.6 177.18C1338.43 175.41 1334.25 173.64 1329.78 171.74C1327.62 179.63 1334.89 180.72 1337.72 184.58C1337.44 184.89 1337.16 185.2 1336.89 185.52Z" fill="#E9E9E9"/>
<path d="M1322.95 192.72C1320.44 196.43 1317.94 200.14 1315.43 203.84C1314.96 203.52 1314.48 203.2 1314 202.88C1316.52 199.18 1319.04 195.48 1321.56 191.78C1322.02 192.09 1322.49 192.41 1322.95 192.72Z" fill="#E9E9E9"/>
<path d="M1332.82 191.58C1329.38 188.87 1325.94 186.16 1322.51 183.46C1322.89 182.97 1323.27 182.49 1323.65 182C1327.06 184.74 1330.48 187.48 1333.89 190.22C1333.53 190.67 1333.18 191.13 1332.82 191.58Z" fill="#E9E9E9"/>
</g>
</g>
<path d="M766.764 412.996C762.783 399.837 758.877 387.193 755.154 374.498C754.225 371.339 757.667 365.842 761.058 364.996C783.291 359.441 805.524 353.869 827.816 348.546C837.75 346.175 847.826 344.425 857.802 342.211C860.73 341.565 862.131 342.352 862.82 345.263C865.382 356.133 868.268 366.937 870.656 377.848C871.892 383.495 869.885 386.306 864.321 387.79C839.094 394.514 813.875 401.205 788.632 407.822C781.566 409.671 774.418 411.197 766.764 412.996ZM759.765 366.53C763.894 380.103 767.759 392.823 771.607 405.475C772.494 405.368 772.909 405.359 773.307 405.26C804.247 397.549 835.18 389.78 866.145 382.16C869.213 381.405 869.86 379.963 869.188 377.21C866.709 367.169 864.221 357.128 861.874 347.054C861.153 343.953 859.685 343.231 856.6 343.928C834.79 348.886 812.922 353.587 791.12 358.579C780.654 360.975 770.288 363.844 759.765 366.53ZM867.936 385.037C867.787 384.465 867.646 383.893 867.497 383.321C862.363 384.597 857.23 385.883 852.089 387.16C826.24 393.585 800.391 400.011 774.542 406.446C771.118 407.3 771.126 407.324 770.338 410.649C803.244 402.963 835.793 394.746 867.936 385.037ZM758.886 369.822C758.38 369.864 757.882 369.905 757.376 369.955C757.31 372.052 756.738 374.299 757.268 376.231C759.532 384.473 762.112 392.615 764.591 400.799C765.487 403.751 766.424 406.686 767.344 409.629C767.858 409.605 768.364 409.58 768.878 409.555C769.011 407.581 769.65 405.475 769.177 403.66C767.054 395.526 764.666 387.458 762.261 379.407C761.291 376.157 760.022 373.014 758.886 369.822Z" fill="#E9E9E9"/>
<path d="M827.583 353.023C828.495 357.766 829.399 362.517 830.345 367.434C831.564 367.094 832.459 366.828 833.371 366.596C838.563 365.286 842.776 368.155 843.348 373.511C843.796 377.707 842.087 381.056 838.803 383.585C834.201 387.134 832.07 386.214 831.116 380.518C829.723 372.226 828.197 363.959 826.77 355.676C826.629 354.847 826.754 353.976 826.754 353.131C827.027 353.089 827.301 353.056 827.583 353.023ZM833.43 385.02C835.934 383.353 837.833 382.483 839.218 381.098C842.643 377.698 843.174 372.334 839.948 369.689C838.364 368.395 835.536 368.354 833.264 368.321C832.501 368.312 830.958 370.153 831.049 370.999C831.547 375.319 832.459 379.589 833.43 385.02Z" fill="#E9E9E9"/>
<path d="M805.631 390.359C805.092 390.757 804.544 391.147 804.014 391.553C801.36 393.576 798.565 396.097 795.099 394.124C791.649 392.159 791.234 388.129 792.039 384.887C793.017 380.907 794.925 377.002 797.172 373.544C798.549 371.422 801.849 370.584 803.491 373.221C804.362 374.622 803.848 377.897 802.703 379.315C800.962 381.471 798.3 383.129 795.712 384.29C791.964 385.973 793.349 388.477 794.228 390.807C795.298 393.668 797.545 393.85 799.983 392.499C801.783 391.504 803.491 390.359 805.241 389.282C805.357 389.63 805.49 389.995 805.631 390.359ZM792.959 382.35C793.449 382.781 793.938 383.212 794.427 383.643C797.006 381.745 799.726 380.003 802.065 377.856C802.77 377.209 802.43 375.418 802.571 374.15C801.194 374.183 799.179 373.652 798.565 374.349C796.434 376.786 794.792 379.647 792.959 382.35Z" fill="#E9E9E9"/>
<path d="M849.866 377.325C852.428 379.738 857.238 379.821 859.179 377.035C860.116 375.692 860.655 373.063 859.95 371.853C859.121 370.427 856.807 369.349 855.016 369.133C852.926 368.884 849.99 370.244 849.526 367.334C849.169 365.087 850.015 362.16 851.359 360.278C852.354 358.885 855.016 358.686 857.653 357.691C854.701 360.402 852.171 361.953 850.82 364.208C849.526 366.356 850.621 368.296 853.714 367.715C857.023 367.093 860.199 367.707 861.285 371.024C861.949 373.038 861.691 376.778 860.389 377.707C857.943 379.448 854.477 379.871 851.367 380.443C850.762 380.551 849.824 378.851 849.045 377.988C849.31 377.748 849.592 377.532 849.866 377.325Z" fill="#E9E9E9"/>
<path d="M772.7 379.009C775.644 384.025 778.588 389.041 782.187 395.169C783.365 388.279 784.351 382.491 785.347 376.695C785.753 376.762 786.151 376.828 786.557 376.894C785.488 383.984 784.418 391.081 783.356 398.17C782.991 398.261 782.618 398.353 782.253 398.436C778.679 392.192 775.113 385.94 771.539 379.697C771.921 379.473 772.31 379.241 772.7 379.009Z" fill="#E9E9E9"/>
<path d="M813.832 389.796C813.053 383.204 812.281 376.604 811.502 370.012C811.925 369.946 812.34 369.88 812.762 369.813C813.069 371.198 813.376 372.574 813.559 373.412C816.154 371.745 818.866 369.929 821.702 368.337C821.901 368.23 823.046 369.797 823.576 371.19C820.782 368.205 819.223 369.904 817.647 372.052C814.836 375.858 813.152 379.846 814.645 384.696C815.126 386.263 815.167 387.972 815.408 389.622C814.877 389.68 814.355 389.738 813.832 389.796Z" fill="#E9E9E9"/>
<path d="M529 195.007C534.647 188.337 537.713 180.746 546.316 177.689C557.065 173.868 567.422 168.985 578.188 165.189C587.276 161.983 593.289 165.347 596.296 174.25C598.297 180.181 596.057 184.209 589.269 186.709C577.881 190.912 566.51 195.189 555.029 199.126C552.406 200.023 549.186 200.247 546.461 199.716C540.805 198.595 535.32 196.759 529 195.007ZM576.348 168.038C576.058 168.494 575.394 169.142 575.522 169.375C578.605 174.898 581.774 180.372 585.061 186.078C585.973 185.795 587.318 185.372 589.405 184.716C586.288 179.209 583.434 174.034 580.428 168.935C579.465 167.307 578.128 165.911 576.246 168.137C576.237 168.137 576.348 168.038 576.348 168.038ZM576.987 174.358C566.451 178.204 556.162 181.958 546.452 185.505C546.716 187.822 546.903 189.467 547.108 191.227C550.285 192.44 575.437 184.45 580.36 180.388C579.32 178.528 578.247 176.626 576.987 174.358ZM548.437 196.61C550.532 197.307 552.252 198.528 553.385 198.146C563.231 194.766 572.967 191.103 583.077 187.39C582.421 185.663 581.918 184.317 581.271 182.614C571.093 186.302 561.289 189.807 551.545 193.462C550.532 193.844 549.868 195.123 548.437 196.61ZM575.684 173.22C575.828 172.797 575.965 172.382 576.109 171.958C574.44 171.036 572.319 168.943 571.178 169.367C561.69 172.88 552.38 176.858 542.815 180.779C543.599 182.357 544.11 183.403 544.706 184.608C555.148 180.77 565.42 177 575.684 173.22ZM590.589 183.885C595.682 181.734 596.773 178.644 594.328 173.279C591.27 166.576 586.339 164.092 581.084 166.418C584.252 172.232 587.42 178.063 590.589 183.885ZM540.532 182.614C538.71 185.795 533.923 187.706 534.962 192.141C536.461 198.57 543.181 196.327 547.397 198.744C547.687 196.626 547.9 195.09 548.104 193.553C546.793 192.889 545.575 192.266 544.229 191.576C544.629 190.43 544.979 189.45 544.944 189.533C543.326 187 542.168 185.164 540.532 182.614Z" fill="#E9E9E9"/>
<path d="M1328.46 190.981C1329.21 191.061 1330.29 190.851 1330.65 191.261C1335.1 196.461 1338.21 202.351 1339.36 209.191C1335.78 203.071 1332.2 196.941 1328.61 190.841C1328.59 190.861 1328.46 190.981 1328.46 190.981Z" fill="#E9E9E9"/>
<path d="M79 155.79C84.83 159.25 87.64 158.4 88.72 151.62C89.9 144.23 92.37 138.2 98.81 133.61C103.48 130.29 102.83 122.92 98.48 119.1C94.44 115.56 87.92 116.54 84.47 121.3C83.53 122.6 82.87 124.1 81.37 126.78C81.37 124.48 81.1 123.41 81.42 122.57C83.11 118.09 87.77 115.02 92.74 115C97.61 114.98 100.94 117.34 102.83 121.76C104.84 126.46 104.33 132.3 100.34 135.01C93.88 139.39 91.59 145.44 90.56 152.62C90.27 154.63 89.2 156.92 87.74 158.26C86.53 159.37 84.05 159.89 82.43 159.49C81.05 159.14 80.12 157.09 79 155.79Z" fill="#E9E9E9"/>
<path d="M121.421 123.57C126.351 136.54 114.601 164.9 102.141 169.94C115.211 157.24 121.681 141.8 121.421 123.57Z" fill="#E9E9E9"/>
<path d="M111.43 130.09C113.7 139.89 105.11 159.51 97.2598 162.58C105.36 153.2 109.89 142.32 111.43 130.09Z" fill="#E9E9E9"/>
<path d="M101.509 139.47C102.999 144.22 101.229 148.98 96.5293 152.24C98.2793 147.78 99.8693 143.68 101.509 139.47Z" fill="#E9E9E9"/>
<path d="M80.5996 144.9C84.4096 142.91 86.0896 140.13 83.7696 135.88C84.4296 135.89 85.0896 135.9 85.7596 135.91C85.9796 137.98 86.8596 140.28 86.2296 142.05C85.6396 143.7 83.4496 144.77 81.9596 146.09C81.4996 145.69 81.0496 145.29 80.5996 144.9Z" fill="#E9E9E9"/>
<path d="M974.496 133.319C967.317 123.8 960.318 114.53 953 104.824C959.721 99.5885 966.31 94.4505 973.295 89C980.148 98.4012 986.904 107.67 994 117.398C987.515 122.689 981.141 127.889 974.496 133.319ZM954.569 105.011C961.367 114.024 967.935 122.737 974.684 131.68C980.766 126.723 986.543 122.015 992.452 117.197C985.904 108.212 979.558 99.5052 973.094 90.6247C966.775 95.5336 960.867 100.123 954.569 105.011Z" fill="#E9E9E9"/>
<path d="M967.039 114.801C970.622 111.982 974.211 109.156 978.482 105.796C977.926 107.205 977.676 107.837 977.308 108.768C978.197 108.879 979.016 108.816 979.69 109.108C981.287 109.788 983.731 110.323 984.133 111.496C984.585 112.809 983.585 115.169 982.46 116.35C979.94 118.988 976.954 121.175 974.149 123.543C973.899 123.279 973.649 123.015 973.392 122.758C974.218 122.043 975.059 121.356 975.864 120.62C978.141 118.523 980.62 116.593 982.599 114.246C984.14 112.42 983.467 110.802 980.898 110.351C977.718 109.795 974.746 109.802 972.156 112.253C970.795 113.545 969.08 114.468 967.525 115.551C967.358 115.308 967.199 115.051 967.039 114.801Z" fill="#E9E9E9"/>
<path d="M962.971 109.052C966.213 106.365 969.456 103.685 972.698 100.998C972.927 101.262 973.156 101.519 973.379 101.783C970.157 104.484 966.928 107.184 963.707 109.885C963.457 109.608 963.214 109.33 962.971 109.052Z" fill="#E9E9E9"/>
<path d="M775.011 267.75C777.631 268.36 779.841 269.61 781.551 269.12C785.201 268.07 787.621 265.03 786.881 261.2C786.461 259.05 784.331 256.92 782.441 255.47C781.381 254.65 779.151 255.55 777.601 255.12C775.901 254.64 773.231 253.71 773.051 252.63C772.761 250.92 773.741 248.46 775.031 247.18C776.091 246.13 778.391 246.35 780.141 246C780.261 246.5 780.381 247 780.491 247.49C780.151 247.71 779.821 247.95 779.471 248.16C777.781 249.16 776.081 250.16 774.381 251.15C775.921 251.89 777.441 253.21 779.011 253.28C785.691 253.56 788.651 255.82 788.781 261.27C788.911 266.55 784.811 271.21 779.821 271.42C776.731 271.55 774.761 270.49 775.011 267.75Z" fill="#E9E9E9"/>
<path d="M116.231 380.381C114.261 380.511 113.051 380.591 111.791 380.671C111.791 380.131 111.761 379.561 111.791 379.551C114.941 379.161 118.091 378.811 122.521 378.311C119.681 382.441 117.771 385.201 115.091 389.101C115.331 386.591 115.431 385.451 115.671 382.961C110.991 387.021 107.331 390.561 103.291 393.611C97.7608 397.791 92.2208 402.101 86.1508 405.391C81.5108 407.911 76.0808 408.231 71.0508 404.791C85.2208 408.231 94.2108 399.751 103.301 391.341C107.191 387.741 111.381 384.471 116.231 380.381Z" fill="#E9E9E9"/>
<path d="M68.2695 392.731C68.8395 386.311 69.2895 380.251 70.0295 374.221C70.1295 373.391 71.7195 372.151 72.6495 372.121C78.4395 371.931 84.2295 372.021 90.6495 372.021C89.8695 378.471 89.2195 384.681 88.2595 390.841C88.1395 391.611 86.3495 392.611 85.3095 392.651C79.8695 392.821 74.4195 392.731 68.2695 392.731ZM88.7495 373.881C82.8795 373.881 77.4795 373.881 71.6695 373.881C71.1495 379.651 70.6595 385.141 70.1395 391.011C75.3495 391.011 79.7895 391.131 84.2095 390.911C85.1395 390.861 86.6495 389.651 86.7895 388.791C87.6195 383.951 88.1095 379.041 88.7495 373.881Z" fill="#E9E9E9"/>
<path d="M58.21 402.601C50.81 402.601 43.42 402.601 36.02 402.601C36.01 402.241 36.01 401.881 36 401.521C43.4 401.521 50.79 401.521 58.19 401.521C58.19 401.881 58.2 402.241 58.21 402.601Z" fill="#E9E9E9"/>
<path d="M1399.87 360.99C1398.07 362.11 1396.23 364.15 1394.46 364.1C1392.66 364.04 1389.46 361.92 1389.46 360.7C1389.45 357.33 1389.97 353.33 1391.89 350.8C1393.15 349.14 1397.49 348.6 1399.93 349.31C1403.79 350.44 1405.08 354.23 1404.86 358.2C1404.56 363.51 1400.46 368.26 1395.53 369.18C1389.27 370.36 1382.75 366.75 1380.17 360.67C1377.4 354.15 1379.63 346.17 1386.16 342C1385.21 343.34 1384.21 344.64 1383.33 346.01C1378.21 354.01 1380.88 363.77 1389.02 366.91C1395.86 369.55 1403.41 364.77 1403.04 357.61C1402.92 355.31 1401.34 352.41 1399.49 351.09C1398.16 350.14 1394.53 350.6 1393.28 351.83C1391.63 353.45 1390.48 356.45 1390.58 358.8C1390.76 363.24 1394.08 363.59 1399.09 359.9C1399.35 360.27 1399.61 360.63 1399.87 360.99Z" fill="#E9E9E9"/>
<path d="M124.452 250.659C123.422 257.392 112.198 271.688 106 274.16C113.846 267.651 120.043 259.858 124.452 250.659Z" fill="#E9E9E9"/>
<path d="M123.729 268.498C128.49 261.235 131.963 253.513 133.181 244.867C132.987 253.943 129.408 261.677 123.729 268.498Z" fill="#E9E9E9"/>
<path d="M120.172 244.638C117.188 252.165 112.45 258.187 106.494 263.336C111.014 257.162 115.535 250.982 120.172 244.638Z" fill="#E9E9E9"/>
</g>
<defs>
<clipPath id="clip0">
<rect width="41" height="42" fill="white" transform="translate(1190 101)"/>
</clipPath>
<clipPath id="clip1">
<rect width="33" height="29" fill="white" transform="translate(324 97)"/>
</clipPath>
<clipPath id="clip2">
<rect width="116" height="71" fill="white" transform="translate(1276 164)"/>
</clipPath>
<clipPath id="clip3">
<rect width="49.97" height="47.84" fill="white" transform="translate(1314 156)"/>
</clipPath>
</defs>
</svg>
