<svg width="64" height="64" viewBox="0 0 64 64" fill="none" xmlns="http://www.w3.org/2000/svg">
<path d="M49.0689 5.56647V18.5736H14.6562V5.56647C14.6562 4.37926 15.9271 3.62468 16.9697 4.19313L28.1545 10.2939C28.6732 8.74263 30.1365 7.62396 31.8626 7.62396C33.5887 7.62396 35.052 8.74263 35.5714 10.2939L46.7555 4.19313C47.7981 3.62468 49.0689 4.37926 49.0689 5.56647Z" fill="#FEE6BA"/>
<path d="M16.9697 4.19313L17.6941 4.58866C17.5199 4.83704 17.413 5.14013 17.413 5.48095V18.4881L14.6562 18.5736V5.56647C14.6562 4.37926 15.9271 3.62468 16.9697 4.19313ZM30.5188 11.5346C30.5188 9.82483 31.6174 8.37226 33.146 7.84091C32.7442 7.70131 32.3122 7.62396 31.8626 7.62396C29.7032 7.62396 27.952 9.37522 27.952 11.5346C27.952 13.6946 29.7032 15.4452 31.8626 15.4452C32.3122 15.4452 32.7442 15.3679 33.146 15.2283C31.6167 14.6969 30.5188 13.2443 30.5188 11.5346Z" fill="#FDCE74"/>
<path d="M57.6292 59.2425H6.10196C5.21281 59.2425 4.49219 58.5219 4.49219 57.6327V17.0551C4.49219 16.1659 5.21281 15.4453 6.10196 15.4453H57.6292C58.5177 15.4453 59.239 16.1659 59.239 17.0551V57.6327C59.239 58.5219 58.5177 59.2425 57.6292 59.2425Z" fill="#D38C03"/>
<path d="M9.22842 23.2659H59.2371V57.6327C59.2371 58.5218 58.5158 59.2424 57.6273 59.2424H7.61865V24.8756C7.61865 23.9865 8.33928 23.2659 9.22842 23.2659ZM59.1912 12.3169H4.53556C3.64641 12.3169 2.92578 13.0375 2.92578 13.9267V18.5277C2.92578 19.4169 3.64641 20.1375 4.53556 20.1375H59.1912C60.0803 20.1375 60.8009 19.4169 60.8009 18.5277V13.9267C60.8009 13.0375 60.0803 12.3169 59.1912 12.3169Z" fill="#FCBD46"/>
<path d="M36.557 59.2423H27.1719V12.0488H36.557V59.2423Z" fill="#FEE6BA"/>
<path d="M36.557 23.2661H27.1719V20.1377H36.557V23.2661Z" fill="#FDCE74"/>
<path d="M58.9622 36.7998H28.2378C25.8973 36.7998 24 38.6902 24 41.022V57.9109C24 60.2428 25.8973 62.1331 28.2378 62.1331H58.9622C61.3027 62.1331 63.2 60.2428 63.2 57.9109V41.022C63.2 38.6902 61.3027 36.7998 58.9622 36.7998Z" fill="#00C2F3"/>
<path d="M35.7323 41.0664H29.3323C28.7432 41.0664 28.2656 41.544 28.2656 42.1331V52.7997C28.2656 53.3888 28.7432 53.8664 29.3323 53.8664H35.7323C36.3214 53.8664 36.799 53.3888 36.799 52.7997V42.1331C36.799 41.544 36.3214 41.0664 35.7323 41.0664Z" fill="#E9E9E9"/>
<path d="M34.3267 47.5508C34.5481 47.2078 34.6658 46.8082 34.6656 46.4V43.2C34.6656 42.9171 34.5532 42.6458 34.3532 42.4457C34.1532 42.2457 33.8819 42.1333 33.599 42.1333H31.4656C31.1827 42.1333 30.9114 42.2457 30.7114 42.4457C30.5113 42.6458 30.399 42.9171 30.399 43.2V46.4C30.3988 46.8082 30.5164 47.2078 30.7378 47.5508C30.0346 47.715 29.4076 48.1123 28.9588 48.678C28.51 49.2437 28.2657 49.9445 28.2656 50.6666V52.8C28.2656 53.0829 28.378 53.3542 28.578 53.5542C28.7781 53.7543 29.0494 53.8666 29.3323 53.8666H35.7323C36.0152 53.8666 36.2865 53.7543 36.4865 53.5542C36.6866 53.3542 36.799 53.0829 36.799 52.8V50.6666C36.7989 49.9445 36.5546 49.2436 36.1057 48.6779C35.6569 48.1122 35.0299 47.715 34.3267 47.5508Z" fill="#EE202E"/>
<path d="M35.6545 55.8701H29.2977C28.7126 55.8701 28.2383 56.3445 28.2383 56.9296C28.2383 57.5147 28.7126 57.989 29.2977 57.989H35.6545C36.2396 57.989 36.714 57.5147 36.714 56.9296C36.714 56.3445 36.2396 55.8701 35.6545 55.8701Z" fill="#66DAF8"/>
<path d="M58.9609 51.6323H50.4852C49.9001 51.6323 49.4258 52.1067 49.4258 52.6918C49.4258 53.2769 49.9001 53.7512 50.4852 53.7512H58.9609C59.546 53.7512 60.0204 53.2769 60.0204 52.6918C60.0204 52.1067 59.546 51.6323 58.9609 51.6323Z" fill="#66DAF8"/>
<path d="M54.7231 55.8701H50.4852C49.9001 55.8701 49.4258 56.3445 49.4258 56.9296C49.4258 57.5147 49.9001 57.989 50.4852 57.989H54.7231C55.3082 57.989 55.7825 57.5147 55.7825 56.9296C55.7825 56.3445 55.3082 55.8701 54.7231 55.8701Z" fill="#66DAF8"/>
</svg>
