<svg width="167" height="134" viewBox="0 0 167 134" fill="none" xmlns="http://www.w3.org/2000/svg">
<path d="M157.896 42.1165C146.573 27.641 130.402 24.0002 111.5 24.0002C92.9558 24.0002 104.168 -0.0709482 80.5 0.000157223C60.233 0.0611514 68.4409 9.70579 36.0534 14.4842C6.28496 18.8761 -6.21786 36.5859 2.95409 50.9006C11.506 64.2473 10.5804 66.4653 14 82.0002C19.7393 108.072 27.7701 114.926 49.5 129C78.6382 147.872 87.6525 106.524 124.208 103.385C160.797 100.242 177.745 67.4927 157.896 42.1165Z" fill="url(#paint0_linear)"/>
<path d="M11.0557 50.6113C10.1548 50.6113 9.4248 49.8814 9.4248 48.9805C9.4248 47.9915 8.61981 47.1865 7.63086 47.1865C6.72997 47.1865 6 46.4566 6 45.5557C6 44.6548 6.72997 43.9248 7.63086 43.9248C8.61981 43.9248 9.4248 43.1198 9.4248 42.1309C9.4248 41.23 10.1548 40.5 11.0557 40.5C11.9565 40.5 12.6865 41.23 12.6865 42.1309C12.6865 43.1198 13.4915 43.9248 14.4805 43.9248C15.3814 43.9248 16.1113 44.6548 16.1113 45.5557C16.1113 46.4566 15.3814 47.1865 14.4805 47.1865C13.4915 47.1865 12.6865 47.9915 12.6865 48.9805C12.6865 49.8814 11.9565 50.6113 11.0557 50.6113Z" fill="#FF6C6C"/>
<path d="M111.056 15.6113C110.155 15.6113 109.425 14.8814 109.425 13.9805C109.425 12.9915 108.62 12.1865 107.631 12.1865C106.73 12.1865 106 11.4566 106 10.5557C106 9.65478 106.73 8.9248 107.631 8.9248C108.62 8.9248 109.425 8.11981 109.425 7.13086C109.425 6.22997 110.155 5.5 111.056 5.5C111.957 5.5 112.687 6.22997 112.687 7.13086C112.687 8.11981 113.492 8.9248 114.48 8.9248C115.381 8.9248 116.111 9.65478 116.111 10.5557C116.111 11.4566 115.381 12.1865 114.48 12.1865C113.492 12.1865 112.687 12.9915 112.687 13.9805C112.687 14.881 111.956 15.6113 111.056 15.6113Z" fill="#FF9D33"/>
<path d="M130.056 30.6113C129.155 30.6113 128.425 29.8814 128.425 28.9805C128.425 27.9915 127.62 27.1865 126.631 27.1865C125.73 27.1865 125 26.4566 125 25.5557C125 24.6548 125.73 23.9248 126.631 23.9248C127.62 23.9248 128.425 23.1198 128.425 22.1309C128.425 21.23 129.155 20.5 130.056 20.5C130.957 20.5 131.687 21.23 131.687 22.1309C131.687 23.1198 132.492 23.9248 133.48 23.9248C134.381 23.9248 135.111 24.6548 135.111 25.5557C135.111 26.4566 134.381 27.1865 133.48 27.1865C132.492 27.1865 131.687 27.9915 131.687 28.9805C131.687 29.8814 130.957 30.6113 130.056 30.6113Z" fill="#6C6CFF"/>
<path d="M139.631 68.0234C139.214 68.0234 138.796 67.8642 138.478 67.5455C137.841 66.9088 137.841 65.8762 138.478 65.2395L141.739 61.9778C142.376 61.3407 143.409 61.3407 144.046 61.9778C144.683 62.6144 144.683 63.6471 144.046 64.2838L140.784 67.5455C140.465 67.8642 140.048 68.0234 139.631 68.0234Z" fill="#FF9D33"/>
<path d="M50.6308 28.5234C50.2136 28.5234 49.7958 28.3642 49.4778 28.0455C48.8407 27.4088 48.8407 26.3762 49.4778 25.7395L52.7395 22.4778C53.3758 21.8407 54.4092 21.8407 55.0455 22.4778C55.6825 23.1144 55.6825 24.1471 55.0455 24.7838L51.7838 28.0455C51.4655 28.3642 51.048 28.5234 50.6308 28.5234Z" fill="#FF6C6C"/>
<path d="M132.178 64.1866C132.178 70.9948 126.639 76.5332 119.831 76.5332C113.025 76.5332 107.484 70.9948 107.484 64.1866C107.484 57.3804 113.025 51.842 119.831 51.842C126.639 51.842 132.178 57.3806 132.178 64.1866Z" fill="#E99A8B"/>
<path d="M140.97 97.6746V100.198C140.97 102.057 139.461 103.566 137.601 103.566H109.609L102.872 100.198L102.25 85.9305L104.88 82.7239C108.872 78.7313 114.183 76.533 119.828 76.533C131.485 76.533 140.97 86.0181 140.97 97.6746Z" fill="#FDCE74"/>
<path d="M34.7969 64.1866C34.7969 70.9948 40.3352 76.5332 47.1435 76.5332C53.9497 76.5332 59.4901 70.9948 59.4901 64.1866C59.4901 57.3804 53.9497 51.842 47.1435 51.842C40.3352 51.842 34.7969 57.3806 34.7969 64.1866Z" fill="#FFCCBD"/>
<path d="M26 97.6746V100.198C26 102.057 27.509 103.566 29.3683 103.566H57.3611L64.0976 100.198L64.7197 85.9305L62.0901 82.7239C58.0976 78.7313 52.7869 76.533 47.1417 76.533C35.4851 76.533 26 86.0181 26 97.6746Z" fill="#92C83E"/>
<path d="M83.4873 38.4998L89.4842 53.775L83.4873 69.0502C75.0643 69.0502 68.2109 62.1968 68.2109 53.7738C68.2109 45.3531 75.0643 38.4998 83.4873 38.4998Z" fill="#FFDDCC"/>
<path d="M83.4878 69.0503L91.1259 86.3083L83.4878 103.566H57.3633V95.1748C57.3633 92.3162 57.8214 89.5048 58.7286 86.8192C62.3147 76.1911 72.2646 69.0503 83.4878 69.0503Z" fill="#8095FF"/>
<path d="M73.5647 91.3773V103.566H66.8281V91.3773C66.8281 89.518 68.3371 88.009 70.1964 88.009C72.058 88.009 73.5647 89.518 73.5647 91.3773Z" fill="#8066FF"/>
<path d="M98.7607 53.7741C98.7607 62.1971 91.9074 69.0504 83.4844 69.0504V38.5C91.9074 38.5 98.7607 45.3534 98.7607 53.7741Z" fill="#FFDDCC"/>
<path d="M109.609 95.1748V103.566H83.4844V69.0503C90.4635 69.0503 97.0227 71.7674 101.958 76.7008C104.79 79.5347 106.964 83.0332 108.244 86.8169C109.151 89.5048 109.609 92.3162 109.609 95.1748Z" fill="#8066FF"/>
<path d="M100.143 91.3773V103.566H93.4062V91.3773C93.4062 89.518 94.913 88.009 96.7745 88.009C98.6338 88.009 100.143 89.518 100.143 91.3773Z" fill="#7733FF"/>
<circle cx="82.5" cy="101.5" r="11.5" fill="#EE202E"/>
<path d="M80.2371 104.686C80.2371 105.954 81.2429 107 82.5 107C83.7571 107 84.7943 105.954 84.7943 104.686V103.671H85.8629C87.0571 103.671 88 102.72 88 101.516C88 100.28 87.0571 99.3285 85.8629 99.3285H84.7943V98.3141C84.7943 97.0461 83.7571 96 82.5 96C81.2429 96 80.2371 97.0461 80.2371 98.3141V99.3285H79.1371C77.9429 99.3285 77 100.28 77 101.516C77 102.72 77.9429 103.671 79.1371 103.671H80.2371V104.686Z" fill="white"/>
<defs>
<linearGradient id="paint0_linear" x1="75" y1="109.5" x2="106" y2="-5.99988" gradientUnits="userSpaceOnUse">
<stop stop-color="#FFF3EE" stop-opacity="0"/>
<stop offset="1" stop-color="#FDECED"/>
</linearGradient>
</defs>
</svg>
