<svg width="28" height="28" viewBox="0 0 28 28" fill="none" xmlns="http://www.w3.org/2000/svg">
<g clip-path="url(#clip0)">
<path d="M14 6.41699C15.083 6.41699 16.1216 6.8472 16.8874 7.61297C17.6531 8.37875 18.0833 9.41736 18.0833 10.5003C18.0833 11.5833 17.6531 12.6219 16.8874 13.3877C16.1216 14.1535 15.083 14.5837 14 14.5837C12.917 14.5837 11.8784 14.1535 11.1126 13.3877C10.3469 12.6219 9.91667 11.5833 9.91667 10.5003C9.91667 9.41736 10.3469 8.37875 11.1126 7.61297C11.8784 6.8472 12.917 6.41699 14 6.41699ZM5.83333 9.33366C6.48667 9.33366 7.09333 9.50866 7.61833 9.82366C7.44333 11.492 7.93333 13.1487 8.93667 14.4437C8.35333 15.5637 7.18667 16.3337 5.83333 16.3337C4.90508 16.3337 4.01484 15.9649 3.35846 15.3085C2.70208 14.6522 2.33333 13.7619 2.33333 12.8337C2.33333 11.9054 2.70208 11.0152 3.35846 10.3588C4.01484 9.70241 4.90508 9.33366 5.83333 9.33366ZM22.1667 9.33366C23.0949 9.33366 23.9852 9.70241 24.6415 10.3588C25.2979 11.0152 25.6667 11.9054 25.6667 12.8337C25.6667 13.7619 25.2979 14.6522 24.6415 15.3085C23.9852 15.9649 23.0949 16.3337 22.1667 16.3337C20.8133 16.3337 19.6467 15.5637 19.0633 14.4437C20.0805 13.1305 20.5527 11.4759 20.3817 9.82366C20.9067 9.50866 21.5133 9.33366 22.1667 9.33366ZM6.41667 21.292C6.41667 18.877 9.81167 16.917 14 16.917C18.1883 16.917 21.5833 18.877 21.5833 21.292V23.3337H6.41667V21.292ZM0 23.3337V21.5837C0 19.962 2.205 18.597 5.19167 18.2003C4.50333 18.9937 4.08333 20.0903 4.08333 21.292V23.3337H0ZM28 23.3337H23.9167V21.292C23.9167 20.0903 23.4967 18.9937 22.8083 18.2003C25.795 18.597 28 19.962 28 21.5837V23.3337Z" fill="#92C83E"/>
</g>
<defs>
<clipPath id="clip0">
<rect width="28" height="28" fill="white"/>
</clipPath>
</defs>
</svg>
