<svg width="160" height="160" viewBox="0 0 160 160" fill="none" xmlns="http://www.w3.org/2000/svg">
<path fill-rule="evenodd" clip-rule="evenodd" d="M77.8448 135.862L73.75 125.625L103.996 131.875C103.629 133.393 103.438 134.963 103.438 136.562V141.25V158C103.438 159.105 102.542 160 101.438 160H80L73.75 135L77.8448 135.862Z" fill="#ECE6F2"/>
<path fill-rule="evenodd" clip-rule="evenodd" d="M56.5644 136.562C56.5644 134.962 56.3731 133.392 56.0078 131.875L80.0019 125.625V135L80.002 135V160H58.5645C57.4599 160 56.5645 159.105 56.5645 158V141.25H56.5644V136.562Z" fill="#FFF5F5"/>
<path fill-rule="evenodd" clip-rule="evenodd" d="M28.4376 79.8066C28.3739 51.5169 51.332 28.3334 79.6154 28.1262C79.7435 28.1253 79.8722 28.125 80 28.125C80 28.125 80.0001 28.125 80.0001 28.125H80.0034C93.7075 28.125 106.593 33.4316 116.326 43.0934C126.152 52.8472 131.562 65.8434 131.562 79.6875C131.562 95.8275 124.214 110.734 111.403 120.584C107.633 123.482 105.064 127.451 103.996 131.875H80.0001H80H56.0061C54.9408 127.451 52.3773 123.487 48.617 120.599C35.8292 110.777 28.4739 95.9088 28.4376 79.8066Z" fill="#FDCE74"/>
<path d="M45.9494 9.69132C45.5265 8.67094 46.0108 7.50088 47.0312 7.07793L51.9985 5.01895C53.0189 4.59599 54.189 5.08031 54.6119 6.1007L60.2615 19.7305C60.6845 20.7509 60.2002 21.921 59.1798 22.3439L54.2124 24.4029C53.192 24.8259 52.022 24.3416 51.599 23.3212L45.9494 9.69132Z" fill="#FDCE74"/>
<path d="M21.7462 28.0685C20.9652 27.2875 20.9652 26.0211 21.7462 25.2401L25.5459 21.4404C26.327 20.6593 27.5933 20.6593 28.3744 21.4404L38.8022 31.8682C39.5832 32.6493 39.5832 33.9156 38.8022 34.6966L35.0025 38.4963C34.2214 39.2774 32.9551 39.2774 32.1741 38.4963L21.7462 28.0685Z" fill="#FDCE74"/>
<path d="M6.44132 54.301C5.42094 53.878 4.93662 52.708 5.35957 51.6876L7.41855 46.7202C7.8415 45.6998 9.01156 45.2155 10.0319 45.6385L23.6618 51.2881C24.6822 51.711 25.1665 52.8811 24.7435 53.9015L22.6846 58.8688C22.2616 59.8892 21.0916 60.3735 20.0712 59.9506L6.44132 54.301Z" fill="#FDCE74"/>
<path d="M0.3125 77C0.3125 75.8954 1.20793 75 2.3125 75H17.0625C18.1671 75 19.0625 75.8954 19.0625 77V82.375C19.0625 83.4796 18.1671 84.375 17.0625 84.375H2.3125C1.20793 84.375 0.3125 83.4796 0.3125 82.375V77Z" fill="#FDCE74"/>
<path d="M5.38301 107.709C4.96006 106.689 5.44437 105.518 6.46476 105.096L20.0946 99.4459C21.115 99.023 22.2851 99.5073 22.708 100.528L24.767 105.495C25.1899 106.515 24.7056 107.685 23.6852 108.108L10.0554 113.758C9.035 114.181 7.86494 113.697 7.44199 112.676L5.38301 107.709Z" fill="#FDCE74"/>
<path d="M21.7384 134.123C20.9574 133.342 20.9574 132.076 21.7384 131.295L32.1662 120.867C32.9473 120.086 34.2136 120.086 34.9947 120.867L38.7944 124.667C39.5754 125.448 39.5754 126.714 38.7944 127.495L28.3666 137.923C27.5855 138.704 26.3192 138.704 25.5381 137.923L21.7384 134.123Z" fill="#FDCE74"/>
<path d="M121.164 127.506C120.383 126.725 120.383 125.459 121.164 124.678L124.964 120.878C125.745 120.097 127.011 120.097 127.792 120.878L138.22 131.306C139.001 132.087 139.001 133.353 138.22 134.134L134.42 137.934C133.639 138.715 132.373 138.715 131.592 137.934L121.164 127.506Z" fill="#FDCE74"/>
<path d="M136.41 108.117C135.39 107.694 134.905 106.524 135.328 105.504L137.387 100.537C137.81 99.5163 138.98 99.0319 140.001 99.4549L153.631 105.104C154.651 105.527 155.135 106.697 154.712 107.718L152.653 112.685C152.23 113.706 151.06 114.19 150.04 113.767L136.41 108.117Z" fill="#FDCE74"/>
<path d="M140.938 77C140.938 75.8954 141.833 75 142.938 75H157.687C158.792 75 159.688 75.8954 159.688 77V82.375C159.688 83.4796 158.792 84.375 157.687 84.375H142.938C141.833 84.375 140.938 83.4796 140.938 82.375V77Z" fill="#FDCE74"/>
<path d="M135.301 53.8456C134.878 52.8252 135.362 51.6552 136.383 51.2322L150.013 45.5826C151.033 45.1597 152.203 45.644 152.626 46.6644L154.685 51.6317C155.108 52.6521 154.624 53.8222 153.603 54.2451L139.973 59.8947C138.953 60.3177 137.783 59.8334 137.36 58.813L135.301 53.8456Z" fill="#FDCE74"/>
<path d="M121.172 34.7072C120.391 33.9261 120.391 32.6598 121.172 31.8788L131.6 21.4509C132.381 20.6699 133.647 20.6699 134.428 21.4509L138.228 25.2506C139.009 26.0317 139.009 27.298 138.228 28.0791L127.8 38.5069C127.019 39.2879 125.753 39.2879 124.972 38.5069L121.172 34.7072Z" fill="#FDCE74"/>
<path d="M100.871 22.3518C99.8506 21.9288 99.3663 20.7588 99.7893 19.7384L105.439 6.10851C105.862 5.08812 107.032 4.60381 108.052 5.02676L113.02 7.08574C114.04 7.50869 114.524 8.67875 114.101 9.69913L108.452 23.329C108.029 24.3494 106.859 24.8337 105.838 24.4107L100.871 22.3518Z" fill="#FDCE74"/>
<path d="M94.0625 62.9375C94.0625 61.8329 94.9579 60.9375 96.0625 60.9375H101.438C102.542 60.9375 103.438 61.8329 103.438 62.9375V96.4375C103.438 97.5421 102.542 98.4375 101.437 98.4375H96.0625C94.9579 98.4375 94.0625 97.5421 94.0625 96.4375V62.9375Z" fill="#663595"/>
<path fill-rule="evenodd" clip-rule="evenodd" d="M58.5625 98.4375C57.4579 98.4375 56.5625 97.5421 56.5625 96.4375V62.9375C56.5625 61.8329 57.4579 60.9375 58.5625 60.9375H80H82.6875C83.7921 60.9375 84.6875 61.8329 84.6875 62.9375V96.4375C84.6875 97.5421 83.7921 98.4375 82.6875 98.4375H80H77.3125C76.2079 98.4375 75.3125 97.5421 75.3125 96.4375V91.0625C75.3125 89.9579 74.4171 89.0625 73.3125 89.0625H67.9375C66.8329 89.0625 65.9375 89.9579 65.9375 91.0625V96.4375C65.9375 97.5421 65.0421 98.4375 63.9375 98.4375H58.5625ZM67.9375 70.3125C66.8329 70.3125 65.9375 71.2079 65.9375 72.3125V77.6875C65.9375 78.7921 66.8329 79.6875 67.9375 79.6875H73.3125C74.4171 79.6875 75.3125 78.7921 75.3125 77.6875V72.3125C75.3125 71.2079 74.4171 70.3125 73.3125 70.3125H67.9375Z" fill="#663595"/>
<path fill-rule="evenodd" clip-rule="evenodd" d="M80 0H77.3125C76.2079 0 75.3125 0.895431 75.3125 2V16.75C75.3125 17.8546 76.2079 18.75 77.3125 18.75H80H82.6875C83.7921 18.75 84.6875 17.8546 84.6875 16.75V2C84.6875 0.895431 83.7921 0 82.6875 0H80Z" fill="#FDCE74"/>
</svg>
