<svg width="20" height="20" viewBox="0 0 20 20" fill="none" xmlns="http://www.w3.org/2000/svg">
<path d="M17.8993 4.74375L17.7243 3.3625L9.99925 0.625L2.27425 3.3625L2.09925 4.7375C2.03675 5.2 0.761749 16.0437 9.2305 19.1125L9.99925 19.375L10.7617 19.1C19.2055 16.0625 17.9618 5.20625 17.8993 4.74375ZM9.99925 3.125L15.4368 5.13125C15.5618 6.38125 16.2493 14.3375 9.99925 16.6062V3.125Z" fill="#4E4C50"/>
</svg>
