<svg width="28" height="28" viewBox="0 0 28 28" fill="none" xmlns="http://www.w3.org/2000/svg">
<path d="M14 1.4873C10.519 1.4873 7.18064 2.87011 4.71922 5.33153C2.25781 7.79294 0.875 11.1313 0.875 14.6123C0.879041 15.6266 1.00239 16.6369 1.2425 17.6223C1.64483 16.116 2.44233 14.7445 3.5525 13.6498C3.80219 11.0508 5.01122 8.63813 6.94369 6.88241C8.87617 5.1267 11.3934 4.15395 14.0044 4.15395C16.6153 4.15395 19.1326 5.1267 21.0651 6.88241C22.9975 8.63813 24.2066 11.0508 24.4563 13.6498C25.5664 14.7445 26.3639 16.116 26.7663 17.6223C27.0036 16.6365 27.124 15.6262 27.125 14.6123C27.125 11.1313 25.7422 7.79294 23.2808 5.33153C20.8194 2.87011 17.481 1.4873 14 1.4873ZM7.97125 14.1748H7.5075C5.01375 14.1748 3.00125 17.1148 3.00125 20.7373C3.00125 24.3598 5.0225 27.2998 7.5075 27.2998H7.97125C8.20354 27.2876 8.43106 27.2292 8.64052 27.1281C8.84997 27.0269 9.03717 26.885 9.19114 26.7107C9.34512 26.5363 9.4628 26.333 9.53729 26.1127C9.61178 25.8923 9.6416 25.6593 9.625 25.4273V16.0561C9.64282 15.8233 9.61391 15.5894 9.53997 15.368C9.46603 15.1467 9.34856 14.9423 9.19446 14.767C9.04037 14.5917 8.85276 14.449 8.64269 14.3473C8.43262 14.2456 8.20433 14.187 7.97125 14.1748ZM20.4925 14.1748H20.0287C19.7957 14.187 19.5674 14.2456 19.3573 14.3473C19.1472 14.449 18.9596 14.5917 18.8055 14.767C18.6514 14.9423 18.534 15.1467 18.46 15.368C18.3861 15.5894 18.3572 15.8233 18.375 16.0561V25.4273C18.3584 25.6593 18.3882 25.8923 18.4627 26.1127C18.5372 26.333 18.6549 26.5363 18.8089 26.7107C18.9628 26.885 19.15 27.0269 19.3595 27.1281C19.5689 27.2292 19.7965 27.2876 20.0287 27.2998H20.4925C22.9862 27.2998 24.9987 24.3598 24.9987 20.7373C24.9987 17.1148 22.9775 14.1748 20.4925 14.1748Z" fill="white"/>
</svg>
