<svg width="160" height="160" viewBox="0 0 160 160" fill="none" xmlns="http://www.w3.org/2000/svg">
<path d="M73.7489 155.543H15.9258C12.4739 155.543 9.67578 152.745 9.67578 149.293V59.5977C9.67578 57.872 11.0752 56.4727 12.8008 56.4727H73.7489C77.2008 56.4727 79.9989 59.2708 79.9989 62.7227V149.293C79.9989 152.744 77.2008 155.543 73.7489 155.543Z" fill="#663595"/>
<path d="M144.074 155.543H86.25C82.7981 155.543 80 152.745 80 149.293V62.7227C80 59.2708 82.7981 56.4727 86.25 56.4727H144.074C147.526 56.4727 150.324 59.2708 150.324 62.7227V149.293C150.324 152.744 147.525 155.543 144.074 155.543Z" fill="#663595"/>
<path d="M73.7489 149.734H15.9258C12.4739 149.734 9.67578 146.936 9.67578 143.484V56.9141C9.67578 53.4622 12.4739 50.6641 15.9258 50.6641H73.7489C77.2008 50.6641 79.9989 53.4622 79.9989 56.9141V143.484C79.9989 146.935 77.2008 149.734 73.7489 149.734Z" fill="#8862AC"/>
<path d="M144.074 149.734H86.25C82.7981 149.734 80 146.936 80 143.484V56.9141C80 53.4622 82.7981 50.6641 86.25 50.6641H144.074C147.526 50.6641 150.324 53.4622 150.324 56.9141V143.484C150.324 146.935 147.525 149.734 144.074 149.734Z" fill="#8862AC"/>
<path d="M73.7492 142.598H21.3086C17.8567 142.598 15.0586 139.8 15.0586 136.348V51.4141C15.0586 47.9622 17.8567 45.1641 21.3086 45.1641H73.7492C77.2011 45.1641 79.9992 47.9622 79.9992 51.4141V136.348C79.9992 139.799 77.2011 142.598 73.7492 142.598Z" fill="#F9F9F9"/>
<path d="M138.691 142.598H86.25C82.7981 142.598 80 139.8 80 136.348V51.4141C80 47.9622 82.7981 45.1641 86.25 45.1641H138.691C142.142 45.1641 144.941 47.9622 144.941 51.4141V136.348C144.941 139.799 142.142 142.598 138.691 142.598Z" fill="#E6E7E8"/>
<path d="M138.691 142.598H86.25C82.7981 142.598 80 139.8 80 136.348V51.4141C80 47.9622 82.7981 45.1641 86.25 45.1641H138.691C142.142 45.1641 144.941 47.9622 144.941 51.4141V136.348C144.941 139.799 142.142 142.598 138.691 142.598Z" fill="#F9F9F9"/>
<path d="M133.182 60.5293H114.609C113.919 60.5293 113.359 59.9693 113.359 59.2793C113.359 58.5893 113.919 58.0293 114.609 58.0293H133.182C133.872 58.0293 134.432 58.5893 134.432 59.2793C134.432 59.9693 133.872 60.5293 133.182 60.5293Z" fill="#939598"/>
<path d="M133.182 77.1914H98.9844C98.2944 77.1914 97.7344 76.6314 97.7344 75.9414C97.7344 75.2514 98.2944 74.6914 98.9844 74.6914H133.182C133.872 74.6914 134.432 75.2514 134.432 75.9414C134.432 76.6314 133.872 77.1914 133.182 77.1914Z" fill="#939598"/>
<path d="M133.182 93.8535H92.7344C92.0444 93.8535 91.4844 93.2935 91.4844 92.6035C91.4844 91.9135 92.0444 91.3535 92.7344 91.3535H133.182C133.872 91.3535 134.432 91.9135 134.432 92.6035C134.432 93.2935 133.872 93.8535 133.182 93.8535Z" fill="#939598"/>
<path d="M133.182 110.516H92.7344C92.0444 110.516 91.4844 109.956 91.4844 109.266C91.4844 108.576 92.0444 108.016 92.7344 108.016H133.182C133.872 108.016 134.432 108.576 134.432 109.266C134.432 109.956 133.872 110.516 133.182 110.516Z" fill="#939598"/>
<path d="M133.182 127.18H92.7344C92.0444 127.18 91.4844 126.62 91.4844 125.93C91.4844 125.24 92.0444 124.68 92.7344 124.68H133.182C133.872 124.68 134.432 125.24 134.432 125.93C134.432 126.62 133.872 127.18 133.182 127.18Z" fill="#939598"/>
<path d="M45.3889 60.5293H26.8164C26.1264 60.5293 25.5664 59.9693 25.5664 59.2793C25.5664 58.5893 26.1264 58.0293 26.8164 58.0293H45.3889C46.0789 58.0293 46.6389 58.5893 46.6389 59.2793C46.6389 59.9693 46.0789 60.5293 45.3889 60.5293Z" fill="#939598"/>
<path d="M61.0139 77.1914H26.8164C26.1264 77.1914 25.5664 76.6314 25.5664 75.9414C25.5664 75.2514 26.1264 74.6914 26.8164 74.6914H61.0139C61.7039 74.6914 62.2639 75.2514 62.2639 75.9414C62.2639 76.6314 61.7039 77.1914 61.0139 77.1914Z" fill="#939598"/>
<path d="M67.2639 93.8535H26.8164C26.1264 93.8535 25.5664 93.2935 25.5664 92.6035C25.5664 91.9135 26.1264 91.3535 26.8164 91.3535H67.2639C67.9539 91.3535 68.5139 91.9135 68.5139 92.6035C68.5139 93.2935 67.9539 93.8535 67.2639 93.8535Z" fill="#939598"/>
<path d="M67.2639 110.516H26.8164C26.1264 110.516 25.5664 109.956 25.5664 109.266C25.5664 108.576 26.1264 108.016 26.8164 108.016H67.2639C67.9539 108.016 68.5139 108.576 68.5139 109.266C68.5139 109.956 67.9539 110.516 67.2639 110.516Z" fill="#939598"/>
<path d="M67.2639 127.18H26.8164C26.1264 127.18 25.5664 126.62 25.5664 125.93C25.5664 125.24 26.1264 124.68 26.8164 124.68H67.2639C67.9539 124.68 68.5139 125.24 68.5139 125.93C68.5139 126.62 67.9539 127.18 67.2639 127.18Z" fill="#939598"/>
<path d="M114.375 38.832C114.375 19.847 98.985 4.45703 80 4.45703C61.015 4.45703 45.625 19.847 45.625 38.832C45.625 54.4727 56.0744 67.6639 70.37 71.8295L78.9706 84.3227C79.4675 85.0445 80.5331 85.0445 81.03 84.3227L89.6306 71.8295C103.926 67.6645 114.375 54.4727 114.375 38.832Z" fill="#FBAC17"/>
<path d="M82.4297 32.1973V45.4666C86.0941 45.4666 89.0641 42.496 89.0641 38.8323C89.0641 35.1679 86.0934 32.1973 82.4297 32.1973Z" fill="#4E4C50"/>
<path d="M65.5563 49.4281H59.6875C56.2356 49.4281 53.4375 46.63 53.4375 43.1781V34.4844C53.4375 31.0325 56.2356 28.2344 59.6875 28.2344H65.5563V49.4281Z" fill="#663595"/>
<path d="M62.4297 28.2344V45.0531C62.4297 45.7437 61.8703 46.3031 61.1797 46.3031H56.5609C55.6447 46.3031 54.7766 46.1012 53.9922 45.7469C54.9728 47.9162 57.1503 49.4281 59.6859 49.4281H65.5547V28.2344H62.4297Z" fill="#663595"/>
<path d="M65.5547 49.4283L78.2353 57.8321C80.0303 59.0214 82.4266 57.7346 82.4266 55.5814V22.0814C82.4266 19.9283 80.0297 18.6414 78.2353 19.8308L65.5547 28.2352V49.4283Z" fill="#B171F4"/>
<path d="M91.0196 42.5348C91.0196 42.1292 91.1783 41.7242 91.4946 41.4211C92.1264 40.8154 92.5039 39.8473 92.5039 38.8323C92.5039 37.8173 92.1264 36.8492 91.4946 36.2435C90.8796 35.6542 90.8589 34.6779 91.4489 34.0629C92.0383 33.4479 93.0146 33.4273 93.6296 34.0173C94.8746 35.211 95.589 36.966 95.589 38.8329C95.589 40.6998 94.8746 42.4548 93.6296 43.6485C93.0146 44.2379 92.0383 44.2173 91.4489 43.6029C91.1621 43.3029 91.0196 42.9185 91.0196 42.5348Z" fill="white"/>
<path d="M95.2658 46.0343C95.2658 45.6462 95.4115 45.2581 95.7033 44.9581C97.1821 43.4406 98.0302 41.2075 98.0302 38.8325C98.0302 36.4568 97.1821 34.2243 95.7033 32.7068C95.109 32.0968 95.1215 31.12 95.7315 30.5256C96.3415 29.9312 97.3183 29.9437 97.9127 30.5537C99.9477 32.6425 101.115 35.66 101.115 38.8325C101.115 42.005 99.9477 45.0225 97.9127 47.1112C97.3183 47.7212 96.3415 47.7343 95.7315 47.1393C95.4221 46.8368 95.2658 46.4356 95.2658 46.0343Z" fill="white"/>
<path d="M99.5117 49.531C99.5117 49.1485 99.653 48.766 99.9373 48.4673C102.239 46.0516 103.559 42.5391 103.559 38.8316C103.559 35.1241 102.239 31.6116 99.9373 29.196C99.3498 28.5791 99.3736 27.6029 99.9905 27.0154C100.607 26.4279 101.584 26.4516 102.171 27.0685C105.014 30.0523 106.644 34.3398 106.644 38.8316C106.644 43.3235 105.014 47.611 102.171 50.5948C101.584 51.2116 100.607 51.2354 99.9905 50.6479C99.6723 50.3448 99.5117 49.9385 99.5117 49.531Z" fill="white"/>
</svg>
