<svg width="56" height="56" viewBox="0 0 56 56" fill="none" xmlns="http://www.w3.org/2000/svg">
<path d="M50.1578 4.19922H5.8406C4.93409 4.19922 4.19922 4.93409 4.19922 5.8406V35.3854C4.19922 36.2919 4.93409 37.0268 5.8406 37.0268H50.1578C51.0644 37.0268 51.7992 36.2919 51.7992 35.3854V5.8406C51.7992 4.93409 51.0644 4.19922 50.1578 4.19922Z" fill="#00C2F3"/>
<path d="M49.336 6.66211H6.66016V30.4621H49.336V6.66211Z" fill="#B3EDFB"/>
<path d="M25.5391 46.8756H36.208L32.1046 37.0273H25.5391V46.8756Z" fill="#FBAC17"/>
<path d="M49.3377 27.2845C49.0704 27.2113 48.7942 27.1754 48.517 27.1779H46.8756V28.8192C46.8756 29.0369 46.7892 29.2456 46.6353 29.3996C46.4813 29.5535 46.2726 29.6399 46.0549 29.6399H42.7722C42.5545 29.6399 42.3458 29.5535 42.1919 29.3996C42.0379 29.2456 41.9515 29.0369 41.9515 28.8192V27.1779H40.3101C39.4395 27.1779 38.6045 27.5237 37.9888 28.1394C37.3732 28.755 37.0273 29.59 37.0273 30.4606V48.5158C37.0273 49.3864 37.3732 50.2214 37.9888 50.837C38.6045 51.4527 39.4395 51.7985 40.3101 51.7985H48.517C49.3876 51.7985 50.2226 51.4527 50.8383 50.837C51.4539 50.2214 51.7998 49.3864 51.7998 48.5158V30.4606C51.8004 29.733 51.5587 29.0258 51.1129 28.4508C50.6671 27.8757 50.0425 27.4654 49.3377 27.2845V27.2845Z" fill="#EE202E"/>
<path d="M41.9492 28.8191C41.9492 29.0368 42.0357 29.2455 42.1896 29.3994C42.3435 29.5533 42.5522 29.6398 42.7699 29.6398H46.0527C46.2703 29.6398 46.4791 29.5533 46.633 29.3994C46.7869 29.2455 46.8734 29.0368 46.8734 28.8191V27.1777H41.9492V28.8191Z" fill="#F78F97"/>
<path d="M22.2544 20.6134H18.9716V22.2548C18.9703 22.6897 18.797 23.1064 18.4895 23.414C18.1819 23.7215 17.7652 23.8949 17.3303 23.8962H12.4061C11.9712 23.8949 11.5545 23.7215 11.2469 23.414C10.9394 23.1064 10.766 22.6897 10.7647 22.2548V20.6134H7.48198C7.2048 20.6109 6.92861 20.6468 6.66129 20.7201C5.95647 20.9009 5.3319 21.3112 4.8861 21.8863C4.4403 22.4614 4.19863 23.1685 4.19922 23.8962V48.5168C4.19922 49.3875 4.54508 50.2225 5.16072 50.8381C5.77635 51.4537 6.61134 51.7996 7.48198 51.7996H22.2544C23.125 51.7996 23.96 51.4537 24.5757 50.8381C25.1913 50.2225 25.5372 49.3875 25.5372 48.5168V23.8962C25.5372 23.0255 25.1913 22.1905 24.5757 21.5749C23.96 20.9593 23.125 20.6134 22.2544 20.6134Z" fill="#92C83E"/>
<path d="M10.7656 22.2547C10.7669 22.6896 10.9403 23.1063 11.2478 23.4139C11.5553 23.7214 11.9721 23.8947 12.407 23.896H17.3311C17.7661 23.8947 18.1828 23.7214 18.4903 23.4139C18.7979 23.1063 18.9712 22.6896 18.9725 22.2547V20.6133H10.7656V22.2547Z" fill="#FDCE74"/>
<path d="M37.0287 46.0547H25.5391V47.6961H37.0287V46.0547Z" fill="#FDCE74"/>
</svg>
