<svg width="88" height="88" viewBox="0 0 88 88" fill="none" xmlns="http://www.w3.org/2000/svg">
<path fill-rule="evenodd" clip-rule="evenodd" d="M18.1812 57.9917V52.8291C18.1812 51.9369 17.4516 51.2119 16.5641 51.2119H10.2772C9.38496 51.2119 8.66016 51.9369 8.66016 52.8291V57.9917L14.0024 61.2122L18.1812 57.9917Z" fill="#00C2F3"/>
<path fill-rule="evenodd" clip-rule="evenodd" d="M69.8203 36.7837L74.581 40.148L79.3416 36.7837V31.6814C79.3416 30.7613 78.5842 30.0039 77.6642 30.0039H71.4933C70.5733 30.0039 69.8205 30.7613 69.8205 31.6814V36.7837H69.8203Z" fill="#92C83E"/>
<path fill-rule="evenodd" clip-rule="evenodd" d="M45.8359 15.5794L50.5966 19.2467L55.3573 15.5794V10.4773C55.3573 9.55262 54.6044 8.7998 53.6798 8.7998H47.5136C46.5935 8.7998 45.8361 9.55262 45.8361 10.4773V15.5794H45.8359Z" fill="#FBAC17"/>
<path fill-rule="evenodd" clip-rule="evenodd" d="M36.7673 15.5796V10.4867C36.7673 9.55723 36.0052 8.7998 35.0805 8.7998H28.9376C28.0083 8.7998 27.2461 9.55723 27.2461 10.4867V15.5796L32.0068 18.5094L36.7673 15.5796Z" fill="#FBAC17"/>
<path fill-rule="evenodd" clip-rule="evenodd" d="M18.1815 15.5796V10.4262C18.1815 9.52939 17.4473 8.7998 16.5551 8.7998H10.2866C9.39435 8.7998 8.66016 9.52939 8.66016 10.4262V15.5796L13.4208 20.3126L18.1815 15.5796Z" fill="#FBAC17"/>
<path fill-rule="evenodd" clip-rule="evenodd" d="M3.26562 18.0382V34.3255C3.26562 35.6777 4.37153 36.7836 5.72377 36.7836H29.7056L44.5615 44.0002L58.2923 36.7836C59.6446 36.7836 60.7505 35.6777 60.7505 34.3255V18.0382C60.7505 16.686 59.6446 15.5801 58.2923 15.5801H55.3555H45.8344H36.7686H27.2475H18.1817H8.66055H5.72377C4.37153 15.5799 3.26563 16.686 3.26563 18.0382H3.26562Z" fill="#FBAC17"/>
<path fill-rule="evenodd" clip-rule="evenodd" d="M29.7042 36.7832C28.352 36.7832 27.2461 37.8891 27.2461 39.2413V55.5332C27.2461 56.8855 28.352 57.9914 29.7042 57.9914L42.863 66.2252L58.2909 57.9914H82.2774C83.6296 57.9914 84.7355 56.8855 84.7355 55.5332V39.2413C84.7355 37.8891 83.6296 36.7832 82.2774 36.7832H79.3406H69.8195H58.2909H29.7042Z" fill="#92C83E"/>
<path fill-rule="evenodd" clip-rule="evenodd" d="M58.2923 57.9912H29.7056H18.1817H8.66055H5.72377C4.37153 57.9912 3.26562 59.0971 3.26562 60.4494V76.7366C3.26562 78.0935 4.37153 79.1995 5.72377 79.1995H58.2923C59.6446 79.1995 60.7505 78.0936 60.7505 76.7366V60.4494C60.7505 59.0971 59.6446 57.9912 58.2923 57.9912Z" fill="#00C2F3"/>
<path fill-rule="evenodd" clip-rule="evenodd" d="M14.8139 10.4262V15.5796H18.1829V10.4262C18.1829 9.52939 17.4487 8.7998 16.5565 8.7998H13.1875C14.0843 8.7998 14.8139 9.52939 14.8139 10.4262Z" fill="#FDCE74"/>
<path fill-rule="evenodd" clip-rule="evenodd" d="M33.4016 10.4867V15.5796H36.7705V10.4867C36.7705 9.55723 36.0085 8.7998 35.0838 8.7998H31.7148C32.6443 8.7998 33.4016 9.55723 33.4016 10.4867Z" fill="#FDCE74"/>
<path fill-rule="evenodd" clip-rule="evenodd" d="M51.99 10.4773V15.5796H55.3542V10.4773C55.3542 9.55262 54.6014 8.7998 53.6767 8.7998H50.3125C51.2326 8.79965 51.99 9.55246 51.99 10.4773Z" fill="#FDCE74"/>
<path fill-rule="evenodd" clip-rule="evenodd" d="M75.9745 31.6814V36.7837H79.3433V31.6814C79.3433 30.7613 78.5859 30.0039 77.6658 30.0039H74.2969C75.2217 30.0039 75.9745 30.7613 75.9745 31.6814Z" fill="#BEDE8B"/>
<path fill-rule="evenodd" clip-rule="evenodd" d="M18.1813 57.9917V52.8291C18.1813 51.9369 17.4517 51.2119 16.5643 51.2119H13.1953C14.0875 51.2119 14.8123 51.9369 14.8123 52.8291V57.9917H18.1813Z" fill="#66DAF8"/>
</svg>
