<svg width="36" height="36" viewBox="0 0 36 36" fill="none" xmlns="http://www.w3.org/2000/svg">
<path d="M31.6687 15.2212C30.8829 14.6902 30.2702 13.9403 29.9062 13.0645C29.5423 12.1887 29.4432 11.2253 29.6213 10.2937C30.1388 7.61625 30.5888 6.73875 29.925 6.06375C29.2612 5.38875 28.3838 5.85 25.695 6.3675C24.7634 6.54553 23.8001 6.44645 22.9243 6.08253C22.0484 5.7186 21.2986 5.1058 20.7675 4.32C19.2487 2.07 18.945 1.125 18 1.125C17.055 1.125 16.7512 2.07 15.2212 4.33125C14.6887 5.115 13.9382 5.72555 13.0625 6.08744C12.1868 6.44932 11.2242 6.54669 10.2937 6.3675C7.61625 5.85 6.75 5.4 6.06375 6.06375C5.3775 6.7275 5.85 7.605 6.3675 10.2937C6.54553 11.2253 6.44645 12.1887 6.08253 13.0645C5.7186 13.9403 5.1058 14.6902 4.32 15.2212C2.07 16.7512 1.125 17.055 1.125 18C1.125 18.945 2.07 19.2487 4.33125 20.7787C5.115 21.3113 5.72555 22.0618 6.08744 22.9375C6.44932 23.8132 6.54669 24.7758 6.3675 25.7063C5.85 28.3838 5.4 29.25 6.06375 29.9363C6.7275 30.6225 7.605 30.15 10.2937 29.6325C11.2253 29.4545 12.1887 29.5535 13.0645 29.9175C13.9403 30.2814 14.6902 30.8942 15.2212 31.68C16.7512 33.93 17.055 34.875 18 34.875C18.945 34.875 19.2487 33.93 20.7787 31.68C21.3098 30.8942 22.0597 30.2814 22.9355 29.9175C23.8113 29.5535 24.7747 29.4545 25.7063 29.6325C28.3838 30.15 29.2613 30.6 29.9363 29.9363C30.6112 29.2725 30.15 28.395 29.6325 25.7063C29.4533 24.7758 29.5507 23.8132 29.9126 22.9375C30.2745 22.0618 30.885 21.3113 31.6687 20.7787C33.93 19.2487 34.875 18.945 34.875 18C34.875 17.055 33.93 16.7512 31.6687 15.2212ZM18 26.4375C16.3312 26.4375 14.6999 25.9426 13.3124 25.0155C11.9248 24.0884 10.8434 22.7706 10.2048 21.2289C9.56615 19.6871 9.39906 17.9906 9.72462 16.3539C10.0502 14.7172 10.8538 13.2138 12.0338 12.0338C13.2138 10.8538 14.7172 10.0502 16.3539 9.72462C17.9906 9.39906 19.6871 9.56615 21.2289 10.2048C22.7706 10.8434 24.0884 11.9248 25.0155 13.3124C25.9426 14.6999 26.4375 16.3312 26.4375 18C26.4375 20.2378 25.5486 22.3839 23.9662 23.9662C22.3839 25.5486 20.2378 26.4375 18 26.4375ZM18 12.375C16.8875 12.375 15.7999 12.7049 14.8749 13.323C13.9499 13.9411 13.2289 14.8196 12.8032 15.8474C12.3774 16.8752 12.266 18.0062 12.4831 19.0974C12.7001 20.1885 13.2359 21.1908 14.0225 21.9775C14.8092 22.7641 15.8115 23.2999 16.9026 23.5169C17.9938 23.734 19.1248 23.6226 20.1526 23.1968C21.1804 22.7711 22.0589 22.0501 22.677 21.1251C23.2951 20.2001 23.625 19.1125 23.625 18C23.625 16.5082 23.0324 15.0774 21.9775 14.0225C20.9226 12.9676 19.4918 12.375 18 12.375Z" fill="#EE202E"/>
</svg>
