<svg width="45" height="109" viewBox="0 0 45 109" fill="none" xmlns="http://www.w3.org/2000/svg">
<g clip-path="url(#clip0)">
<path d="M14.9968 100.04C16.2129 98.537 17.4039 96.5659 18.9256 94.2815C20.3315 91.9189 21.9426 89.1625 23.5386 85.8071C26.8117 79.146 29.8196 70.3491 31.5111 60.8758C33.195 51.3905 33.4955 41.2954 32.6963 32.2482C31.9091 23.1935 30.1103 15.2071 28.4177 9.59675C26.7176 3.97441 25.15 0.703455 24.9107 0.801714C24.6736 0.890232 25.7663 4.29699 27.012 9.96748C28.2622 15.6185 29.6194 23.5533 30.0652 32.4361C30.5231 41.3115 29.9401 51.1148 28.131 60.2527C26.3023 69.3859 23.3196 77.8089 20.1687 84.2109C18.6436 87.4391 17.1041 90.1095 15.7945 92.4124C14.3692 94.637 13.2775 96.58 12.1735 98.0889C11.1064 99.6166 10.3322 100.905 9.60126 101.874C9.27796 102.333 7.03124 105.074 8.40988 105.971C9.52696 106.662 11.7042 104.13 12.053 103.739C12.914 102.831 13.8176 101.562 14.9968 100.04Z" fill="#DEEFC5"/>
</g>
<defs>
<clipPath id="clip0">
<rect width="20.2186" height="106.2" fill="white" transform="translate(20.4805 108.803) rotate(-166.887)"/>
</clipPath>
</defs>
</svg>
