<svg width="74" height="79" viewBox="0 0 74 79" fill="none" xmlns="http://www.w3.org/2000/svg">
<path d="M64.1672 77.0541C62.3211 76.4791 60.236 75.5012 57.702 74.4464C55.2208 73.2622 52.3504 71.8645 49.1598 69.9602C42.7388 66.2381 35.3524 60.5923 28.6852 53.6531C22.0176 46.6997 16.1619 38.4709 11.8027 30.503C7.4293 22.5355 4.49049 14.8947 2.78277 9.28898C1.07463 3.66907 0.561963 0.0783017 0.815586 0.0271069C1.06191 -0.0309291 2.04492 3.40909 4.15774 8.81669C6.25598 14.2106 9.53339 21.5633 14.0952 29.1983C18.6429 36.8337 24.5715 44.663 31.1502 51.2579C37.7428 57.8381 44.9005 63.1869 51.076 66.7614C54.137 68.5993 56.9001 69.9652 59.2681 71.1533C61.6888 72.2119 63.6756 73.2216 65.4316 73.8634C67.1674 74.5414 68.5265 75.1826 69.6727 75.583C70.1962 75.7848 73.5872 76.8174 72.9383 78.3283C72.3932 79.5237 69.1765 78.6269 68.6692 78.4954C67.4488 78.218 65.9932 77.6652 64.1672 77.0541Z" fill="#DEEFC5"/>
</svg>
