<svg width="197" height="137" viewBox="0 0 197 137" fill="none" xmlns="http://www.w3.org/2000/svg">
<path d="M161.988 100.345C161.988 100.59 161.798 100.779 161.552 100.779C161.317 100.779 161.126 100.59 161.126 100.345V97.8723H160.5C160.276 97.8723 160.097 97.6941 160.097 97.4713C160.097 97.2485 160.276 97.0703 160.5 97.0703H162.593C162.817 97.0703 162.996 97.2485 162.996 97.4713C162.996 97.7052 162.817 97.8723 162.593 97.8723H161.977V100.345H161.988Z" fill="white"/>
<path d="M164.495 99.7435L164.081 99.0752V100.356C164.081 100.59 163.891 100.779 163.656 100.779C163.421 100.779 163.23 100.59 163.23 100.356V97.3822C163.23 97.204 163.365 97.0703 163.544 97.0703C163.656 97.0703 163.757 97.1372 163.813 97.2263L164.977 99.1198L166.141 97.2263C166.197 97.1372 166.297 97.0703 166.409 97.0703C166.588 97.0703 166.723 97.204 166.723 97.3822V100.356C166.723 100.59 166.532 100.779 166.297 100.779C166.062 100.779 165.872 100.59 165.872 100.356V99.0752L165.458 99.7435C165.346 99.9106 165.178 100.022 164.965 100.022C164.775 100.022 164.607 99.9106 164.495 99.7435Z" fill="white"/>
<path d="M100.582 68.8014C99.9664 68.8014 99.3171 68.7792 98.6679 68.7346L98.5448 68.7235C98.1195 68.6901 97.7053 68.6566 97.28 68.6121L96.9442 68.5787C96.5748 68.5341 96.1942 68.4784 95.8137 68.4227L95.3883 68.3559C95.019 68.3002 94.6272 68.2222 94.2354 68.1554C94.2354 68.1554 93.922 68.0997 93.8213 68.0775C93.3176 67.9772 92.8027 67.8658 92.2654 67.7433C91.2581 67.5317 84.1504 65.8164 79.2702 59.6124C79.2366 59.579 79.203 59.5344 79.1806 59.501C79.1582 59.4788 79.1358 59.4453 79.1135 59.4231C78.4083 58.5097 77.7703 57.5073 77.2218 56.4603C77.0763 56.3935 76.9196 56.3155 76.7741 56.2264C76.7069 56.193 76.6398 56.1484 76.5726 56.1039C76.4831 56.0482 76.3935 55.9925 76.304 55.9368C76.192 55.87 76.0913 55.8031 76.0017 55.7252C75.9122 55.6583 75.7891 55.5581 75.6771 55.4579C75.5652 55.3576 75.4645 55.2685 75.3637 55.1683C75.2294 55.0346 75.1287 54.9121 75.0279 54.7896C74.9384 54.6782 74.8265 54.5445 74.7033 54.3663C74.569 54.177 74.4683 53.9876 74.4011 53.8651C74.334 53.7537 74.2556 53.6089 74.1884 53.4196C74.0765 53.1523 73.987 52.8849 73.9198 52.5953C73.8974 52.5174 73.8862 52.4394 73.8638 52.3726C73.8638 52.3503 73.8527 52.328 73.8527 52.3169C73.64 51.2142 73.7743 50.0892 74.222 48.942C74.2892 48.7749 74.3675 48.6079 74.4571 48.4519C74.5019 48.374 74.5578 48.2849 74.6026 48.2069C74.5802 47.9953 74.5578 47.7836 74.5578 47.572C74.5578 47.5275 74.5578 47.4718 74.5578 47.4161C74.5578 47.2156 74.569 47.004 74.5802 46.8035C74.5914 46.7255 74.5914 46.6475 74.6026 46.5696C74.625 46.4025 74.6586 46.202 74.7033 46.0015C74.7257 45.9235 74.7369 45.8344 74.7593 45.7565C74.8488 45.4335 74.9496 45.1661 75.0615 44.91C75.1958 44.6092 75.3525 44.3196 75.5316 44.0523C75.554 44.0189 75.5652 43.9966 75.5876 43.9632C75.61 43.9298 75.6324 43.9075 75.6548 43.8741C75.8227 43.6402 76.0129 43.4174 76.2144 43.217C76.2256 43.2058 76.2368 43.1947 76.248 43.1835C76.3263 43.1056 76.4271 43.0165 76.5278 42.9385C76.6845 42.8049 76.8524 42.6712 77.0763 42.5375C77.0763 42.5375 77.0875 42.5375 77.0875 42.5264C74.6026 37.6479 75.0056 33.7383 75.8786 31.1988C75.8898 31.1654 75.901 31.132 75.9122 31.0986C77.7927 26.0418 82.102 24.1149 85.2137 23.9924C85.2697 23.9924 85.3145 23.9924 85.3704 23.9924C85.404 23.9924 85.4488 23.9924 85.4824 23.9924C85.7958 24.0035 86.1092 24.0258 86.4226 24.0592C86.1987 23.5803 86.0644 23.1682 85.9973 22.8452C85.5271 20.9071 86.0756 18.9579 87.4412 17.7773C87.8217 17.4431 88.2807 17.1535 88.7844 16.9531C89.3776 16.708 90.0044 16.5855 90.6648 16.5855C91.0342 16.5855 91.3924 16.6189 91.7617 16.6969C91.9073 16.5632 92.0528 16.4407 92.2095 16.3293C92.3214 16.2514 92.4221 16.1734 92.5341 16.1066C92.5453 16.0954 92.5677 16.0843 92.5788 16.0843C92.9146 15.8838 93.2728 15.7167 93.631 15.6053C93.6982 15.5831 93.7541 15.5608 93.8101 15.5496C93.7989 15.5385 93.284 14.9482 93.284 14.937C93.284 14.937 93.0602 14.6697 93.049 14.6475C92.0975 13.4334 91.9408 11.7738 92.646 10.4038C93.2952 9.06721 94.6832 8.2207 96.1942 8.2207C96.2278 8.2207 96.2614 8.2207 96.295 8.2207C99.3731 8.29867 118.827 13.6116 119.017 13.6673C120.752 14.1796 121.972 15.4383 122.521 16.0954C122.946 16.5632 123.785 17.5434 126.058 20.417L127.289 21.9875C127.345 22.0544 127.39 22.1101 127.434 22.1769L127.916 22.7783C127.961 22.8452 128.016 22.9009 128.061 22.9677L129.147 24.36C129.169 24.3934 129.192 24.4268 129.225 24.4602C132.203 28.2918 135.068 32.0342 135.102 32.0788C136.008 33.2594 136.165 34.8299 135.561 36.1442C137.464 38.1268 138.919 41.1118 138.672 45.0214C138.672 45.0548 138.672 45.0882 138.661 45.1216C138.639 45.4001 138.605 45.7008 138.549 45.9904C138.538 46.0683 138.527 46.1352 138.516 46.202C138.471 46.4693 138.426 46.6921 138.37 46.9149L138.314 47.1488C138.247 47.4161 138.18 47.6722 138.09 47.9284C138.068 47.9841 138.057 48.0398 138.034 48.1066C136.859 51.7154 134.173 54.9009 130.054 57.5518C129.931 57.6298 129.796 57.7078 129.662 57.7746C126.595 59.2894 123.271 60.1248 120.293 60.1248C119.901 60.1248 119.51 60.1136 119.129 60.0802C118.737 60.5035 118.334 60.9156 117.931 61.3054C117.931 61.3054 117.898 61.3388 117.887 61.35C117.528 61.6953 117.159 62.0405 116.79 62.3635L116.622 62.5083C116.297 62.7868 115.973 63.0541 115.659 63.2992C115.659 63.2992 115.469 63.444 115.402 63.4996C115.234 63.6333 115.055 63.767 114.876 63.8895C114.719 64.0009 114.573 64.1122 114.417 64.2236C114.193 64.3796 113.98 64.5244 113.768 64.6692C113.611 64.7694 113.454 64.8696 113.309 64.9699C113.107 65.0924 112.917 65.2149 112.727 65.3263C112.536 65.4377 112.346 65.5491 112.156 65.6493C112.033 65.7162 111.887 65.7941 111.753 65.8721C111.529 65.9946 111.294 66.1171 111.07 66.2285C111.036 66.2396 111.003 66.2619 110.969 66.2731C109.436 67.0305 107.824 67.6319 106.19 68.0663C105.608 68.2334 105.003 68.367 104.399 68.4673L104.231 68.5007C104.085 68.523 103.94 68.5453 103.806 68.5564C102.776 68.7235 101.701 68.8014 100.582 68.8014Z" fill="white"/>
<path d="M85.3379 27.9805C85.9871 28.0027 86.6252 28.103 87.252 28.2812C88.3153 28.5485 89.2891 29.072 90.151 29.7849C90.1622 29.7849 90.1622 29.796 90.1734 29.8071C93.2963 32.3801 95.0312 37.3477 94.9977 41.3352C94.9977 41.3352 90.8786 41.4466 89.569 47.5726C86.905 47.2607 83.9052 45.2001 81.7449 42.6049C78.8459 38.2053 78.8459 34.8305 79.6518 32.4914C81.2188 28.2812 84.8678 28.0027 85.3379 27.9805Z" fill="#FCD9B7"/>
<path d="M82.9538 43.1953C80.0548 38.7957 80.0548 35.4208 80.8607 33.0818C82.4277 28.8715 86.0767 28.5931 86.558 28.5708C87.2072 28.5931 87.8452 28.6933 88.472 28.8715C88.7071 28.9272 88.931 29.0052 89.1548 29.0832C88.5616 28.7267 87.9348 28.4483 87.2632 28.2812C86.6363 28.103 85.9871 28.0027 85.3491 27.9805C84.8678 28.0027 81.2188 28.2812 79.6518 32.4914C78.8459 34.8305 78.8459 38.2053 81.7449 42.6049C83.3679 44.5541 85.4499 46.1914 87.5206 47.0268C85.864 46.1135 84.2634 44.7546 82.9538 43.1953Z" fill="url(#paint0_radial_5181_35888)"/>
<path d="M87.4413 41.1677C87.4413 41.1677 88.3592 41.0563 88.2137 40.0094C88.0681 38.9624 87.5533 37.8708 88.4039 37.7817C89.2546 37.6926 91.2022 38.6839 90.0381 36.033C88.8629 33.371 85.0124 30.7312 83.2103 32.6693C81.4082 34.6185 83.4566 41.5241 87.4413 41.1677Z" fill="#E08E62"/>
<path opacity="0.33" d="M85.3379 27.9805C85.9871 28.0027 86.6252 28.103 87.252 28.2812C88.3153 28.5485 89.2891 29.072 90.151 29.7849C90.1622 29.7849 90.1622 29.796 90.1734 29.8071C93.2963 32.3801 95.0312 37.3477 94.9977 41.3352C94.9977 41.3352 90.8786 41.4466 89.569 47.5726C86.905 47.2607 83.9052 45.2001 81.7449 42.6049C78.8459 38.2053 78.8459 34.8305 79.6518 32.4914C81.2188 28.2812 84.8678 28.0027 85.3379 27.9805Z" fill="url(#paint1_linear_5181_35888)"/>
<path d="M112.615 26.2537C108.418 24.0261 105.037 23.135 101.444 23.3689C101.433 23.3689 101.411 23.3689 101.399 23.3689C99.3399 23.5805 98.9929 22.8788 98.1646 21.7761C97.3363 20.6846 95.2768 18.1562 94.135 20.0274C93.0045 21.8987 96.6871 24.26 96.6871 24.26C96.6871 24.26 96.2506 24.0372 95.7581 23.781C94.941 23.3355 93.7657 22.6449 93.0605 21.9655C91.874 20.8628 90.6764 20.2391 90.0495 20.796C89.4339 21.3306 89.7697 23.9704 94.1127 25.0396C94.0007 25.0842 93.8888 25.1399 93.7881 25.1956C93.7433 25.2178 93.6985 25.2401 93.6426 25.2624C93.1948 25.474 92.512 25.8305 91.7061 26.3539C91.6166 26.4208 91.5606 26.4542 91.5606 26.4542C90.251 27.3564 88.6728 28.7152 87.3632 30.6867C86.714 31.7226 86.1879 32.7918 85.7625 33.85C84.8559 36.3115 84.4194 39.3745 84.9231 43.1838C82.9866 43.8409 81.4756 46.5141 81.4756 46.5141C81.2629 46.18 79.416 44.9102 78.7108 46.503C77.9945 48.0957 79.6623 49.8778 79.6623 49.8778C78.5206 49.3209 77.9161 50.3679 77.9161 50.3679C76.9423 52.8072 80.0764 53.1413 80.0764 53.1413C83.7366 62.0074 93.1277 63.8229 93.1277 63.8229C97.437 64.8365 100.784 64.9924 103.403 64.5914C103.414 64.5914 103.437 64.5914 103.459 64.5914C103.537 64.5803 103.616 64.558 103.694 64.5469C103.851 64.5135 103.996 64.4912 104.153 64.4578C104.231 64.4466 104.31 64.4244 104.399 64.4132C104.545 64.3798 104.69 64.3464 104.825 64.313C109.112 63.2771 114.395 60.526 119.062 53.8096C119.32 53.3864 119.566 52.952 119.79 52.5065C123.741 44.654 122.902 31.7114 112.615 26.2537Z" fill="#EB2227"/>
<path d="M109.269 62.6867C112.056 61.2945 114.999 59.0557 117.798 55.5249L117.988 50.9805C117.988 50.9805 114.44 58.8886 110.142 61.8179C109.627 62.1855 109.358 62.464 109.269 62.6867Z" fill="url(#paint2_linear_5181_35888)"/>
<path d="M81.99 45.7454C82.3482 45.9348 82.628 46.1575 82.7064 46.28C82.7064 46.28 84.2174 43.6069 86.1539 42.9609C85.639 39.1516 86.0867 36.0774 86.9934 33.6159C87.4187 32.5578 87.9448 31.4996 88.594 30.4527C89.9036 28.4812 91.4818 27.1112 92.7914 26.2201C92.7914 26.2201 92.8474 26.1756 92.9481 26.1199C93.7428 25.5853 94.4256 25.2288 94.8734 25.0172C94.9181 24.9949 94.9629 24.9727 95.0189 24.9504C95.1308 24.8947 95.2427 24.8501 95.3547 24.7944C91.3139 23.8031 90.7431 21.453 91.1796 20.6956C90.7319 20.5508 90.3513 20.5508 90.0715 20.7958C89.4559 21.3305 89.7916 23.9702 94.1346 25.0395C94.0227 25.084 93.9107 25.1397 93.81 25.1954C93.7652 25.2177 93.7205 25.24 93.6645 25.2622C93.2168 25.4739 92.534 25.8303 91.7281 26.3538C91.6385 26.4206 91.5826 26.454 91.5826 26.454C90.273 27.3562 88.6947 28.7151 87.3851 30.6866C86.7359 31.7224 86.2098 32.7917 85.7845 33.8498C84.8778 36.3114 84.4413 39.3744 84.945 43.1836C83.669 43.618 82.5832 44.8989 81.99 45.7454ZM104.634 64.3574C102.003 64.7583 98.6567 64.6024 94.3473 63.5888C94.3473 63.5888 84.9674 61.7733 81.3072 52.9073C81.3072 52.9073 78.1731 52.5731 79.1469 50.1339C79.1469 50.1339 79.2477 49.9668 79.438 49.7997C78.4418 49.4879 77.9269 50.3789 77.9269 50.3789C76.9531 52.8182 80.0872 53.1523 80.0872 53.1523C83.7473 62.0183 93.1384 63.8339 93.1384 63.8339C97.4478 64.8474 100.795 65.0034 103.414 64.6024C103.425 64.6024 103.447 64.6024 103.47 64.6024C103.548 64.5913 103.626 64.569 103.705 64.5579C103.861 64.5244 104.007 64.5022 104.164 64.4687C104.242 64.4576 104.32 64.4353 104.41 64.4242C104.488 64.4131 104.578 64.3908 104.656 64.3685C104.656 64.3574 104.645 64.3574 104.634 64.3574ZM94.2801 21.7314C94.9965 22.3997 96.1606 23.0903 96.9777 23.5358C97.4814 23.792 97.9067 24.0259 97.9067 24.0259C97.9067 24.0259 94.2241 21.6535 95.3547 19.7934C95.4442 19.6597 95.5338 19.5483 95.6233 19.4592C95.0748 19.2588 94.5487 19.359 94.1346 20.0273C93.8324 20.5174 93.8772 21.052 94.101 21.5644C94.1682 21.6201 94.2241 21.6646 94.2801 21.7314ZM79.5387 49.7218C79.8297 49.5101 80.2774 49.3431 80.8931 49.6327C80.8931 49.6327 79.2253 47.8505 79.9305 46.2578C80.02 46.0462 80.1319 45.9014 80.2551 45.7788C79.6842 45.634 79.0574 45.712 78.7104 46.5028C78.1172 47.8283 79.1581 49.2651 79.5387 49.7218Z" fill="url(#paint3_radial_5181_35888)"/>
<path d="M110.253 47.3173C110.667 46.1812 115.178 38.0725 107.399 34.3635C102.698 32.1136 99.7653 33.4168 98.1871 34.7868C96.9334 35.6555 96.5305 34.7422 96.5305 34.7422C96.0604 32.8153 94.7396 31.7795 93.7098 31.2671C92.3778 30.6211 90.0272 30.8216 88.2251 34.486C86.423 38.1616 86.1656 42.9622 86.1656 42.9622L85.4492 43.0513C83.2777 43.3409 81.498 46.5042 81.498 46.5042C81.2854 46.17 79.4385 44.9003 78.7333 46.493C78.0169 48.0858 79.6847 49.8679 79.6847 49.8679C78.543 49.311 77.9386 50.358 77.9386 50.358C76.9648 52.7973 80.0989 53.1314 80.0989 53.1314C83.759 61.9974 93.1501 63.8129 93.1501 63.8129C107.668 67.2212 111.35 60.9504 112.839 56.239C114.328 51.5498 110.253 47.3173 110.253 47.3173Z" fill="#FCD9B7"/>
<path d="M107.398 34.3748C102.697 32.1248 99.7646 33.428 98.1864 34.798C97.9177 34.9874 97.6827 35.0876 97.4812 35.1322C97.5819 35.3772 97.6603 35.6445 97.7162 35.923C97.7162 35.923 98.0856 36.8474 99.3728 36.0121C100.996 34.6866 103.962 33.4837 108.596 35.8895C109.704 36.4687 110.555 37.1259 111.193 37.8387C110.544 36.5244 109.357 35.3104 107.398 34.3748ZM111.215 48.5426C111.137 48.7096 111.07 48.8433 111.036 48.9324C111.036 48.9324 111.965 49.9683 112.726 51.5499C112.323 50.3135 111.73 49.2777 111.215 48.5426ZM80.3332 53.7107C80.9041 54.9693 81.5981 56.0831 82.3592 57.0633C81.7212 56.0831 81.1615 55.0027 80.7026 53.7887C80.7026 53.7775 80.5571 53.7552 80.3332 53.7107ZM88.2132 34.4973C86.4111 38.1729 86.1537 42.9735 86.1537 42.9735L85.4373 43.0626C83.2659 43.3522 81.4861 46.5154 81.4861 46.5154C81.2735 46.1813 79.4266 44.9115 78.7214 46.5043C78.0051 48.097 79.6728 49.8791 79.6728 49.8791C78.5311 49.3222 77.9267 50.3692 77.9267 50.3692C77.4454 51.5944 77.9939 52.285 78.6655 52.6748C78.3856 52.2627 78.2961 51.6947 78.6319 50.9261C78.6319 50.9261 79.2587 49.8903 80.3892 50.4806C80.3892 50.4806 78.7774 48.6428 79.5385 47.0723C80.2997 45.5018 81.3182 46.883 81.5085 47.2171C81.5085 47.2171 83.8591 43.8868 86.3552 43.8422L87.0827 43.7754C87.0827 43.7754 87.4969 38.986 89.4221 35.3772C91.3473 31.7684 93.6979 31.6348 95.0075 32.3253C95.1306 32.3921 95.2649 32.4701 95.3993 32.5481C94.862 31.9355 94.2464 31.5122 93.6979 31.2449C92.3659 30.6323 90.0265 30.8328 88.2132 34.4973Z" fill="url(#paint4_radial_5181_35888)"/>
<path d="M121.928 41.5696C121.603 35.9893 119.174 30.3868 113.802 26.9785C112.011 27.2124 110.444 28.4822 112.75 30.5427C119.421 36.4905 114.373 47.0941 114.373 47.0941C114.373 47.0941 119.533 42.7279 121.928 41.5696Z" fill="url(#paint5_linear_5181_35888)"/>
<path d="M130.871 37.5706C130.2 37.3033 129.495 37.114 128.767 37.0137C127.547 36.8132 126.316 36.9023 125.107 37.2476C125.096 37.2476 125.085 37.2476 125.073 37.2476C120.686 38.484 116.634 42.8056 114.843 46.9045C114.854 46.9045 119.029 48.8871 117.574 55.7705C120.451 56.6615 124.48 55.893 127.883 54.2111C132.875 51.0033 134.42 47.5393 134.655 44.7771C134.979 39.7537 131.353 37.8157 130.871 37.5706Z" fill="#FCD9B7"/>
<path d="M122.7 50.1685C122.7 50.1685 121.816 49.645 122.432 48.6314C123.047 47.6178 124.088 46.7379 123.249 46.2589C122.409 45.7911 119.958 45.9248 122.364 43.7194C124.782 41.5252 129.953 40.545 130.916 43.3519C131.879 46.1698 126.618 52.3404 122.7 50.1685Z" fill="#E08E62"/>
<path d="M126.136 46.9713C125.51 48.4972 124.614 49.6667 123.73 50.5466C123.383 50.4798 123.036 50.3573 122.7 50.1679C122.7 50.1679 121.816 49.6444 122.432 48.6309C123.047 47.6173 124.088 46.7374 123.249 46.2584C122.409 45.7906 119.958 45.9243 122.364 43.7189C122.846 43.2845 123.45 42.8947 124.099 42.5605C125.498 43.0618 127.256 44.2313 126.136 46.9713Z" fill="#603A17"/>
<path d="M124.536 39.0297C124.547 39.0297 124.547 39.0297 124.558 39.0186C125.767 38.6845 126.998 38.5842 128.218 38.7847C128.946 38.8961 129.651 39.0743 130.322 39.3416C130.804 39.5755 134.43 41.5247 134.117 46.548C134.083 46.8822 134.039 47.2163 133.971 47.5728C134.374 46.5926 134.587 45.6458 134.654 44.7771C134.968 39.7426 131.352 37.8045 130.86 37.5706C130.188 37.3033 129.483 37.114 128.755 37.0137C127.535 36.8132 126.304 36.9023 125.095 37.2476C125.084 37.2476 125.073 37.2476 125.062 37.2476C120.674 38.484 116.622 42.8056 114.831 46.9045C114.831 46.9045 114.943 46.9602 115.111 47.0715C117.17 43.5073 120.73 40.1102 124.536 39.0297Z" fill="url(#paint6_radial_5181_35888)"/>
<path opacity="0.43" d="M130.871 37.5706C130.2 37.3033 129.495 37.114 128.767 37.0137C127.547 36.8132 126.316 36.9023 125.107 37.2476C125.096 37.2476 125.085 37.2476 125.073 37.2476C120.686 38.484 116.645 42.8056 114.843 46.9045C114.854 46.9045 119.029 48.8871 117.574 55.7705C120.451 56.6615 124.48 55.893 127.883 54.2111C132.875 51.0033 134.42 47.5393 134.655 44.7771C134.979 39.7537 131.353 37.8157 130.871 37.5706Z" fill="url(#paint7_radial_5181_35888)"/>
<path d="M96.1943 12.209C96.1943 12.209 101.209 18.4575 109.078 23.3249C116.946 28.1812 124.188 31.8122 131.901 34.4965C131.901 34.4965 121.267 20.5961 119.476 18.7137C119.476 18.7137 118.715 17.7447 117.876 17.4996C117.047 17.2546 98.4218 12.2647 96.1943 12.209Z" fill="#49494B"/>
<path d="M116.678 18.6135C116.678 18.6135 124.368 25.6305 126.114 27.5463C126.416 27.8805 126.316 27.5574 125.969 26.8112C123.204 23.2581 120.327 19.6159 119.477 18.7137C119.477 18.7137 118.715 17.7447 117.876 17.4996C117.048 17.2546 98.411 12.2647 96.1836 12.209C96.1836 12.209 97.6723 14.0579 100.291 16.5306C100.549 16.642 100.694 16.72 100.694 16.72C100.694 16.72 99.7542 14.9156 99.6199 14.6705C99.4968 14.4366 112.414 17.5108 116.678 18.6135Z" fill="url(#paint8_linear_5181_35888)"/>
<path d="M107.836 19.3926L100.516 23.4469C100.516 23.4469 102.183 28.2475 108.709 31.0988C115.235 33.9614 119.981 33.8388 119.981 33.8388L120.898 26.7883C120.91 26.7772 115.671 20.2948 107.836 19.3926Z" fill="#4E4C50"/>
<path d="M118.134 24.395C118.134 24.395 117.596 23.7379 116.533 22.8579C114.306 21.3097 111.328 19.7949 107.836 19.3828L100.516 23.4371C100.516 23.4371 101.344 25.8096 104.109 28.2043C104.254 28.2266 104.344 28.2377 104.344 28.2377L102.575 24.4396L107.937 21.2986C107.926 21.2986 113.5 21.4879 118.134 24.395Z" fill="url(#paint9_linear_5181_35888)"/>
<path opacity="0.78" d="M119.991 33.8273L120.909 26.7768C120.909 26.7768 120.148 25.8301 118.771 24.616L118.637 24.5938L115.984 30.4413C114.943 32.7135 111.798 32.2457 111.798 32.2457L114.529 33.1033C114.529 33.1033 115.055 33.237 116.074 33.3818C118.503 33.8607 119.991 33.8273 119.991 33.8273Z" fill="url(#paint10_linear_5181_35888)"/>
<path opacity="0.78" d="M121.279 26.6777L126.036 27.5688L130.894 33.7616C130.894 33.7616 122.857 30.732 120.921 29.4734L121.279 26.6777Z" fill="url(#paint11_linear_5181_35888)"/>
<path opacity="0.65" d="M111.999 56.082C111.999 56.082 110.398 63.8342 101.31 63.8342C101.31 63.8342 107.802 62.9654 111.999 56.082Z" fill="url(#paint12_radial_5181_35888)"/>
<path d="M100.437 51.0597C100.437 51.0597 103.47 46.8494 109.29 49.8122C109.29 49.8011 104.802 48.7986 100.437 51.0597Z" fill="url(#paint13_radial_5181_35888)"/>
<path opacity="0.43" d="M110.253 47.3173C110.667 46.1812 115.178 38.0725 107.399 34.3635C102.698 32.1136 99.7653 33.4168 98.1871 34.7868C96.9334 35.6555 96.5305 34.7422 96.5305 34.7422C96.0604 32.8153 94.7396 31.7795 93.7098 31.2671C92.3778 30.6211 90.0272 30.8216 88.2251 34.486C86.423 38.1616 86.1656 42.9622 86.1656 42.9622L85.4492 43.0513C83.2777 43.3409 81.498 46.5042 81.498 46.5042C81.2854 46.17 79.4385 44.9003 78.7333 46.493C78.0169 48.0858 79.6847 49.8679 79.6847 49.8679C78.543 49.311 77.9386 50.358 77.9386 50.358C76.9648 52.7973 80.0989 53.1314 80.0989 53.1314C83.759 61.9974 93.1501 63.8129 93.1501 63.8129C107.668 67.2212 111.35 60.9504 112.839 56.239C114.328 51.5498 110.253 47.3173 110.253 47.3173Z" fill="url(#paint14_radial_5181_35888)"/>
<path d="M105.048 37.1803C104.5 36.4675 103.839 36.267 103.291 36.2559C102.227 36.2559 101.791 36.8239 101.701 36.9687C101.679 37.0133 101.657 37.0467 101.645 37.0912C101.422 37.7484 101.936 38.0937 102.272 37.7707C102.496 37.559 102.888 37.4031 103.28 37.3474C103.526 37.3363 104.153 37.3697 104.567 37.9266C104.589 37.9489 104.612 37.9711 104.623 37.9934C104.645 38.0157 104.668 38.0491 104.69 38.0714C104.903 38.361 105.071 38.6394 105.115 38.684C105.216 38.7954 105.328 38.6506 105.328 38.6506C105.44 38.038 105.306 37.559 105.048 37.1803Z" fill="#603A17"/>
<path d="M91.37 34.3063C92.0528 33.8608 92.6348 33.9165 93.0602 34.1058C93.8773 34.5068 93.9892 35.1751 94.0116 35.3533C94.0116 35.3979 94.0228 35.4424 94.0116 35.487C93.9332 36.1776 93.4183 36.3001 93.2728 35.888C93.1721 35.6095 92.937 35.3199 92.6572 35.1194C92.4781 35.0192 91.9856 34.8187 91.4595 35.1751C91.4371 35.1863 91.4036 35.1974 91.3924 35.2197C91.37 35.2419 91.3364 35.2531 91.314 35.2754C91.0454 35.4647 90.8103 35.6541 90.7544 35.6875C90.6312 35.7432 90.5977 35.5761 90.5977 35.5761C90.7544 34.9412 91.0342 34.5514 91.37 34.3063Z" fill="#603A17"/>
<path d="M105.362 46.0573C104.455 48.374 102.172 49.6438 100.269 48.9086C98.3663 48.1735 97.5604 45.7008 98.467 43.3841C99.3737 41.0673 101.657 39.7976 103.56 40.5327C105.463 41.279 106.269 43.7516 105.362 46.0573Z" fill="url(#paint15_radial_5181_35888)"/>
<path opacity="0.13" d="M105.552 46.0578C104.578 48.5082 102.16 49.8559 100.134 49.0874C98.1084 48.3077 97.2577 45.6902 98.2203 43.2398C99.183 40.7894 101.612 39.4306 103.638 40.2102C105.664 40.9899 106.526 43.6074 105.552 46.0578Z" fill="url(#paint16_linear_5181_35888)"/>
<path opacity="0.13" d="M93.956 43.0289C92.9038 44.978 90.8666 45.6686 89.4115 44.5993C87.9564 43.5189 87.6318 41.0797 88.684 39.1305C89.7361 37.1813 91.7733 36.4796 93.2284 37.56C94.6723 38.6404 95.0081 41.0908 93.956 43.0289Z" fill="url(#paint17_linear_5181_35888)"/>
<path d="M94.2343 41.7811C93.7642 43.8973 92.074 45.3453 90.451 45.0223C88.828 44.6881 87.899 42.7055 88.3691 40.5893C88.8392 38.4619 90.5294 37.0251 92.1524 37.3481C93.7754 37.6711 94.7044 39.6537 94.2343 41.7811Z" fill="url(#paint18_radial_5181_35888)"/>
<path d="M93.407 42.3267C93.06 43.3292 92.1534 43.9306 91.3699 43.6633C90.5975 43.396 90.2506 42.3601 90.5975 41.3688C90.9445 40.3664 91.8512 39.7649 92.6347 40.0323C93.407 40.2884 93.754 41.3132 93.407 42.3267Z" fill="url(#paint19_radial_5181_35888)"/>
<path d="M93.0048 42.3602C92.7362 43.1287 92.0646 43.5854 91.5049 43.396C90.9341 43.2067 90.699 42.4159 90.9565 41.6585C91.2139 40.8899 91.8855 40.4221 92.4563 40.6226C93.016 40.812 93.2622 41.5916 93.0048 42.3602Z" fill="#341718"/>
<path d="M91.785 41.2582C91.6506 41.5144 91.3708 41.6258 91.1693 41.5144C90.9678 41.403 90.8895 41.1023 91.0238 40.8461C91.1581 40.59 91.438 40.4786 91.6394 40.5899C91.8521 40.7125 91.9193 41.0021 91.785 41.2582Z" fill="white"/>
<path d="M92.7023 43.1185C92.6015 43.319 92.4 43.4081 92.2433 43.3301C92.0866 43.2522 92.053 43.0183 92.1426 42.8178C92.2433 42.6173 92.456 42.5282 92.6127 42.6062C92.7582 42.6953 92.803 42.918 92.7023 43.1185Z" fill="white"/>
<path d="M95.579 50.837C95.8812 50.3804 96.3177 49.5895 95.8252 49.3668C95.3439 49.144 94.7171 49.9348 94.3701 50.4472L95.579 50.837Z" fill="#603A17"/>
<path d="M91.292 49.4444C91.3144 48.8875 91.4375 48.0076 91.9636 48.119C92.4785 48.2193 92.5232 49.2217 92.5008 49.8454L91.292 49.4444Z" fill="#603A17"/>
<path d="M105.362 46.0573C104.455 48.374 102.172 49.6438 100.269 48.9086C98.3663 48.1735 97.5604 45.7008 98.467 43.3841C99.3737 41.0673 101.657 39.7976 103.56 40.5327C105.463 41.279 106.269 43.7516 105.362 46.0573Z" fill="url(#paint20_radial_5181_35888)"/>
<path d="M104.276 46.5036C103.694 47.5728 102.497 48.0518 101.601 47.5728C100.706 47.105 100.448 45.8464 101.03 44.7771C101.612 43.7079 102.81 43.2289 103.706 43.6967C104.601 44.1757 104.858 45.4343 104.276 46.5036Z" fill="url(#paint21_radial_5181_35888)"/>
<path d="M103.952 46.4026C103.515 47.2046 102.62 47.561 101.948 47.2046C101.288 46.8482 101.097 45.9237 101.523 45.1218C101.959 44.3198 102.843 43.9634 103.515 44.3198C104.187 44.6651 104.377 45.6118 103.952 46.4026Z" fill="#341718"/>
<path d="M102.485 44.9225C102.283 45.1898 101.925 45.2567 101.701 45.0785C101.466 44.9003 101.433 44.555 101.634 44.2876C101.836 44.0315 102.183 43.9535 102.418 44.1317C102.653 44.3099 102.686 44.6663 102.485 44.9225Z" fill="white"/>
<path d="M103.291 47.2491C103.134 47.4496 102.865 47.5164 102.697 47.3828C102.53 47.2491 102.518 46.9818 102.664 46.7813C102.821 46.5808 103.089 46.514 103.257 46.6477C103.436 46.7813 103.447 47.0486 103.291 47.2491Z" fill="white"/>
<path d="M131.901 34.4965C131.901 34.4965 121.268 20.5961 119.477 18.7137C119.477 18.7137 118.715 17.7447 117.876 17.4996C117.048 17.2546 98.411 12.2647 96.1836 12.209C96.1836 12.209 99.6535 16.5195 105.328 20.7631L100.504 23.4363C100.504 23.4363 102.172 28.2369 108.698 31.0883C115.223 33.9508 119.969 33.8283 119.969 33.8283L120.506 29.7183C124.29 31.5672 128.039 33.1488 131.901 34.4965Z" fill="url(#paint22_radial_5181_35888)"/>
<path opacity="0.43" d="M122.7 50.1685C122.7 50.1685 121.816 49.645 122.432 48.6314C123.047 47.6178 124.088 46.7379 123.249 46.2589C122.409 45.7911 119.958 45.9248 122.364 43.7194C124.782 41.5252 129.953 40.545 130.916 43.3519C131.879 46.1698 126.618 52.3404 122.7 50.1685Z" fill="url(#paint23_linear_5181_35888)"/>
<path opacity="0.9" d="M90.6875 46.4247C88.7176 43.9742 87.7437 43.9074 86.4453 43.5176L85.2812 44.0745C87.9564 43.8963 90.6875 46.4247 90.6875 46.4247Z" fill="url(#paint24_linear_5181_35888)"/>
<path opacity="0.42" d="M119.13 54.2213C119.085 54.4887 119.062 54.9342 118.872 55.3018C123.596 55.8364 126.752 53.2969 126.752 53.2969C123.999 54.2325 121.29 54.3327 119.13 54.2213Z" fill="url(#paint25_linear_5181_35888)"/>
<path opacity="0.27" d="M80.457 50.7129C80.457 50.7129 88.7064 60.0801 99.4183 57.3401C99.4183 57.3401 88.5833 57.73 80.457 50.7129Z" fill="url(#paint26_linear_5181_35888)"/>
<path d="M124.063 24.3828C123.806 27.6018 123.761 31.1326 124.612 32.937L125.451 33.0929C125.451 33.0929 124.388 31.5113 124.768 25.2627L124.063 24.3828Z" fill="url(#paint27_linear_5181_35888)"/>
<path d="M124.289 36.2013L123.875 33.5503C123.875 33.5503 124.009 32.96 124.267 32.8709C124.535 32.7818 125.285 32.2806 125.285 32.2806C125.285 32.2806 125.923 32.0801 126.114 32.4811C126.304 32.8821 127.401 34.6419 127.401 34.6419C127.401 34.6419 127.423 35.0986 127.177 35.2434C126.931 35.3882 124.569 36.6134 124.289 36.2013Z" fill="url(#paint28_linear_5181_35888)"/>
<path d="M124.591 36.3115L124.267 39.9537C124.267 39.9537 125.699 40.544 127.076 40.0539C128.442 39.5527 129.371 38.7953 129.248 38.5057C129.124 38.2272 127.188 35.2422 127.188 35.2422L124.591 36.3115Z" fill="url(#paint29_linear_5181_35888)"/>
<path d="M124.222 32.9473L125.587 35.5313L124.446 36.0103L124.076 33.3928L124.222 32.9473Z" fill="url(#paint30_linear_5181_35888)"/>
<path d="M125.319 40.1666L125.375 40.2111C125.543 40.2334 125.722 40.2446 125.913 40.2446L125.331 36.5355L125.319 40.1666ZM126.696 40.1555C126.819 40.1332 126.942 40.0998 127.065 40.0552C127.155 40.0218 127.256 39.9772 127.345 39.9438L127.39 39.8547L125.857 36.5467L126.696 40.1555ZM127.2 36.168L128.509 39.0973L128.532 39.3312C128.767 39.1753 128.946 39.0194 129.069 38.8857L127.2 36.168ZM127.804 39.7433C128.006 39.6431 128.207 39.5429 128.375 39.4315L126.573 36.5021L127.804 39.7433Z" fill="url(#paint31_radial_5181_35888)"/>
<path opacity="0.88" d="M124.197 24.5508C124.197 24.5508 123.817 28.7722 124.287 30.5543C124.287 30.5543 124.186 26.2326 124.41 24.8627L124.197 24.5508Z" fill="url(#paint32_linear_5181_35888)"/>
<path opacity="0.43" d="M129.247 38.5069C129.124 38.2284 127.188 35.2434 127.188 35.2434C127.434 35.0986 127.412 34.6419 127.412 34.6419C127.412 34.6419 126.315 32.8821 126.124 32.4811C125.934 32.0801 125.296 32.2806 125.296 32.2806C125.296 32.2806 124.546 32.7818 124.278 32.8709C124.009 32.96 123.886 33.5503 123.886 33.5503L124.3 36.2012C124.356 36.2903 124.513 36.2903 124.703 36.2681L124.591 36.3126L124.266 39.9548C124.266 39.9548 125.699 40.5451 127.076 40.0551C128.441 39.5538 129.359 38.7964 129.247 38.5069Z" fill="url(#paint33_radial_5181_35888)"/>
<path d="M107.275 55.3811C102.16 57.4751 97.2462 57.4863 92.9928 56.5841C92.2877 56.4393 91.6161 56.2499 90.9445 56.0606C89.8699 55.7376 88.8737 55.3923 87.9447 55.0247C87.9335 55.0136 87.9223 55.0136 87.9111 55.0136C87.497 54.8465 87.1164 54.6794 86.7358 54.5012C86.6575 54.4678 86.5679 54.4232 86.4896 54.3898C82.6727 52.6189 80.4453 50.6363 79.4715 49.6227C79.4267 49.5893 79.4043 49.5781 79.4043 49.5781C79.4043 49.5781 81.5534 52.5075 86.8254 54.969C86.9037 55.0024 86.9821 55.047 87.0604 55.0804C87.4298 55.2475 87.8104 55.4145 88.2133 55.5816C88.2245 55.5816 88.2357 55.5928 88.2469 55.5928C89.1424 55.9603 90.1162 56.3056 91.1683 56.6175C91.8175 56.8068 92.4779 56.985 93.1607 57.1187C97.3134 57.9986 102.115 57.9541 107.141 55.8267C107.331 55.7487 107.41 55.5371 107.331 55.3477C107.32 55.3477 107.298 55.37 107.275 55.3811Z" fill="#603A17"/>
<path d="M107.287 53.7988C107.287 53.7988 105.709 56.071 108.709 56.717C108.709 56.717 106.75 55.7591 107.287 53.7988Z" fill="#603A17"/>
<path d="M68.0885 94.2971C68.0773 94.208 68.055 94.1189 68.0214 94.0298C68.0102 93.9964 67.999 93.963 67.9878 93.9407C67.9766 93.8961 67.9542 93.8516 67.9318 93.807C67.8871 93.6956 67.8311 93.6065 67.7751 93.5174C67.7751 93.5174 67.7639 93.5063 67.7527 93.484C67.6968 93.3949 67.6408 93.3169 67.596 93.2613C67.5848 93.2501 67.5736 93.2278 67.5625 93.2167C67.5513 93.2056 67.5513 93.1944 67.5401 93.1944C67.5289 93.1833 67.5289 93.1833 67.5177 93.1721C67.0811 92.5707 66.2081 91.3343 65.7156 90.4656C65.7044 90.4433 65.6932 90.421 65.6708 90.3987C65.6596 90.3765 65.6484 90.343 65.626 90.3208C65.2231 89.5856 64.932 89.0065 64.932 89.0065C64.8761 88.8728 64.8089 88.728 64.753 88.6055C64.2828 87.5808 63.9023 86.5895 63.5889 85.6761C62.783 83.1255 62.2009 79.1491 62.2009 79.1491C62.1338 78.6368 62.1002 78.2581 62.089 78.1467C62.033 77.69 61.9659 77.2779 61.8875 76.8769C61.3502 74.1703 60.2421 72.689 58.5072 72.3882C58.3057 72.3548 58.1154 72.3325 57.9139 72.3325C56.4812 72.3325 55.0485 73.3127 53.6829 75.2508C52.474 76.9883 51.1644 80.1516 50.4928 81.878L48.7019 86.6117C48.646 86.7677 48.4781 87.2132 48.0863 87.2132C47.896 87.2132 47.6386 87.1018 47.4595 86.556C47.2468 85.7986 47.0677 85.0413 46.9558 84.373C46.9446 84.3284 46.1499 79.6392 44.8851 71.4749C44.1911 66.9416 42.4338 64.5024 39.6914 64.4355C36.132 64.4355 33.3337 69.1136 31.3861 78.3249C28.3639 92.6486 32.0241 101.86 32.1808 102.25C32.5054 103.029 33.2218 103.575 34.0724 103.675C34.162 103.687 34.2403 103.687 34.3299 103.687C34.6209 103.687 34.9231 103.631 35.203 103.52C36.3782 103.041 36.9491 101.693 36.479 100.523C36.4678 100.434 33.2442 92.0917 35.9529 79.2605C36.9603 74.4711 38.0572 71.8647 38.8184 70.5059C38.9863 70.2608 39.1765 70.1383 39.3892 70.1383C39.8146 70.1383 39.9936 70.6284 40.0608 70.8177C40.1503 71.1964 40.2511 71.642 40.3294 72.1766C41.5943 80.3409 42.4002 85.1081 42.4114 85.1415C43.0494 88.8505 44.4597 93.3392 47.605 93.6734C47.7281 93.6845 47.8401 93.6956 47.9632 93.6956C50.9518 93.6956 52.4852 89.7416 53.0561 88.2602L54.9142 83.3482C55.4738 81.8891 56.0782 80.5748 56.4924 79.7283C56.6827 79.3385 56.8842 79.1603 57.1192 79.1603C57.4102 79.1603 57.5781 79.3942 57.6117 79.862C57.6341 80.0959 57.6565 80.3186 57.6677 80.5748L57.6789 80.6862C57.7013 80.909 58.1266 84.8742 60.1973 89.7082C60.2197 89.7861 60.2533 89.8641 60.2869 89.9421C60.2869 89.9532 60.2869 89.9532 60.2981 89.9532C60.4548 90.3319 60.6786 90.8443 60.9585 91.4123C61.7644 93.0942 62.9956 95.5446 64.3276 96.5693H64.3388C64.5067 96.6918 64.6634 96.8032 64.8313 96.8923C65.1223 97.0148 65.4357 97.0928 65.7827 97.0928C67.0923 97.0928 68.1557 96.0347 68.1557 94.7315C68.1557 94.6201 68.1445 94.4976 68.1333 94.3862C68.0997 94.3417 68.0885 94.3194 68.0885 94.2971ZM77.7482 77.5786C72.3307 77.5786 67.943 81.9448 67.943 87.3357C67.943 92.7266 72.3307 97.0928 77.7482 97.0928C83.1657 97.0928 87.5535 92.7266 87.5535 87.3357C87.5535 81.9448 83.1657 77.5786 77.7482 77.5786ZM81.8897 88.9285C80.4346 90.6995 78.6437 91.8467 77.7482 92.3591C76.8528 91.8467 75.0619 90.6883 73.6068 88.9285C71.5808 86.4669 72.812 83.6044 74.9276 83.649C76.9088 83.6935 77.7482 85.6093 77.7482 85.6093C77.7482 85.6093 77.7482 85.6093 77.7482 85.5982C77.7482 85.6093 77.7482 85.6093 77.7482 85.6093C77.7482 85.6093 78.5877 83.6935 80.5689 83.649C82.6956 83.6044 83.9157 86.4669 81.8897 88.9285ZM144.225 92.2365C144.202 91.5682 143.922 90.9445 143.441 90.4767C143.116 90.1648 142.713 89.9532 142.288 89.853C142.109 89.8084 141.93 89.7861 141.74 89.7861C141.046 89.7861 140.385 90.0757 139.915 90.5769C139.031 91.5237 137.777 92.0695 136.49 92.0695C136.154 92.0695 135.807 92.0249 135.46 91.9581C134.24 91.6796 133.199 90.9334 132.539 89.8641C131.878 88.7948 131.655 87.5362 131.934 86.311C132.416 84.1836 134.341 82.6465 136.501 82.6465C136.859 82.6465 137.206 82.6911 137.542 82.7691C138.135 82.9027 138.717 83.17 139.266 83.5599C139.411 83.6824 139.859 84.1502 139.702 84.6069C139.49 85.2083 138.348 85.5759 136.311 85.6873L136.221 85.6984L135.998 85.743C135.27 85.9323 134.755 86.5895 134.755 87.3469C134.755 88.2268 135.438 88.9619 136.311 89.0176H136.356L136.602 89.0065C136.949 88.9842 144.963 88.4607 145.131 84.8408V84.6737C145.198 83.972 145.098 83.2703 144.863 82.6131C144.829 82.524 144.795 82.4349 144.762 82.3458L144.639 82.1008C144.628 82.0673 144.605 82.0339 144.56 81.9671C144.448 81.7778 144.348 81.633 144.281 81.5438L144.18 81.4436C142.803 79.6169 140.833 78.336 138.639 77.8348C137.945 77.6677 137.218 77.5898 136.49 77.5898C132.024 77.5898 128.05 80.7753 127.065 85.1749C126.495 87.7144 126.931 90.3208 128.308 92.5261C129.685 94.7315 131.823 96.2686 134.341 96.8478C135.046 97.0037 135.763 97.0928 136.479 97.0928C139.154 97.0928 141.728 95.9678 143.542 94.0187C144.001 93.5397 144.247 92.9048 144.225 92.2365ZM164.596 77.6455C164.495 77.6343 164.395 77.6343 164.238 77.6343C164.227 77.6343 164.204 77.6343 164.182 77.6343C162.996 77.69 162.022 78.5811 161.876 79.7729C161.809 80.2741 161.104 84.7962 157.488 89.5968L157.018 90.1982L156.627 90.5547L156.47 90.0534C155.518 87.1018 153.683 82.7134 150.347 78.5254C149.888 77.9462 149.194 77.6121 148.444 77.6232C147.907 77.6232 147.403 77.8014 146.978 78.1356C146.474 78.5365 146.161 79.1046 146.083 79.7283C146.004 80.3632 146.183 80.9869 146.586 81.4882C150.896 86.8902 152.284 92.76 152.44 93.4395L152.619 94.5199L151.903 95.0545L151.702 95.2216L151.679 95.2104C148.187 97.7054 143.967 99.5321 139.143 100.635C138.505 100.78 137.968 101.158 137.621 101.715C137.274 102.261 137.162 102.918 137.307 103.542C137.565 104.667 138.55 105.435 139.702 105.424H139.803C139.949 105.413 140.094 105.402 140.24 105.368C164.171 99.8996 166.622 81.1317 166.723 80.3409C166.88 79.0155 165.917 77.8125 164.596 77.6455ZM118.827 86.5449L119.096 86.2999C120.976 84.5623 122.98 83.0921 125.062 81.9337C126.215 81.2877 126.629 79.8286 125.991 78.6925C125.566 77.9351 124.76 77.4673 123.887 77.4673C123.484 77.4673 123.081 77.5675 122.722 77.768C119.98 79.2939 117.372 81.2654 114.977 83.6156L114.932 83.6601L114.865 83.6824L114.372 83.9274V80.0625C114.372 78.7259 113.275 77.6343 111.932 77.6343C110.589 77.6343 109.492 78.7259 109.492 80.0625V94.6424C109.492 95.979 110.589 97.0705 111.932 97.0705C113.275 97.0705 114.372 95.979 114.372 94.6424V90.1426L114.417 89.9421L114.551 89.8418L114.764 89.7193H114.854C114.999 89.7193 115.145 89.7973 115.301 89.9309L123.797 97.8948C124.256 98.318 124.849 98.5519 125.465 98.5519C126.136 98.5519 126.786 98.2735 127.244 97.7834C127.692 97.3156 127.927 96.703 127.905 96.0458C127.882 95.3998 127.614 94.7983 127.144 94.3528L118.827 86.5449ZM104.444 77.6343C103.101 77.6343 102.004 78.7259 102.004 80.0625V89.3406L101.377 88.327C99.7876 85.7652 96.9781 81.2765 96.0939 79.9956C95.6909 79.4053 94.482 77.6232 92.7023 77.6232C92.4225 77.6232 92.1427 77.6677 91.8628 77.7569C89.5906 78.4474 89.5682 81.1429 89.5682 82.8582L89.5459 94.6313C89.5459 95.9678 90.6428 97.0594 91.986 97.0594C93.3292 97.0594 94.4261 95.9678 94.4261 94.6313V86.4112L95.0529 87.4137C96.855 90.2873 98.825 93.4729 98.881 93.5508C100.325 95.8565 101.903 97.0705 103.459 97.0705C103.716 97.0705 103.996 97.0371 104.276 96.9591C105.933 96.5025 106.817 94.9431 106.884 92.3368V80.0625C106.884 78.7147 105.787 77.6343 104.444 77.6343Z" fill="white"/>
<path d="M62.3611 123.778C62.3611 124.654 63.064 125.356 63.9426 125.356C64.8212 125.356 65.5461 124.654 65.5461 123.778V115.514H67.4351C68.2917 115.514 68.9946 114.812 68.9946 113.957C68.9946 113.103 68.2917 112.423 67.4351 112.423H60.4941C59.6375 112.423 58.9346 113.103 58.9346 113.957C58.9346 114.812 59.6375 115.514 60.4941 115.514H62.3611V123.778Z" fill="white"/>
<path d="M73.6083 118.254V115.514H76.0904C76.6395 115.514 77.2985 115.777 77.2985 116.873C77.2985 118.166 76.5956 118.254 76.0904 118.254H73.6083ZM77.2545 124.326C77.4522 124.939 78.0233 125.356 78.7262 125.356C79.6268 125.356 80.3297 124.676 80.3297 123.8C80.3297 123.58 80.2857 123.383 80.2198 123.186L79.8904 122.243C79.6048 121.41 79.2753 120.49 78.7042 119.942C79.9123 119.437 80.4834 118.21 80.4834 116.807C80.4834 113.607 78.0453 112.423 76.1563 112.423H72.0049C71.1263 112.423 70.4234 113.146 70.4234 114.023V123.756C70.4234 124.632 71.1263 125.356 72.0049 125.356C72.8835 125.356 73.6083 124.632 73.6083 123.756V121.344H75.4095C75.9366 121.344 76.3759 121.783 76.7493 122.857L77.2545 124.326Z" fill="white"/>
<path d="M88.1935 122.397C87.0294 122.397 85.1623 121.827 85.1623 118.78C85.1623 116.084 86.7438 115.382 88.1935 115.382C89.6872 115.382 91.2687 116.084 91.2687 118.78C91.2687 121.827 89.4016 122.397 88.1935 122.397ZM88.1935 125.487C90.5877 125.487 94.4536 124.238 94.4536 118.714C94.4536 114.001 91.071 112.292 88.2155 112.292C85.36 112.292 81.9774 114.001 81.9774 118.714C81.9774 124.238 85.8433 125.487 88.1935 125.487ZM88.1935 126.123C89.0282 126.123 89.6872 126.781 89.6872 127.592C89.6872 128.403 89.0282 129.038 88.1935 129.038C87.3808 129.038 86.7438 128.403 86.7438 127.592C86.7438 126.781 87.3808 126.123 88.1935 126.123Z" fill="white"/>
<path d="M103.765 124.523C104.117 125.027 104.71 125.356 105.369 125.356C106.445 125.356 107.192 124.479 107.192 123.405V114.023C107.192 113.146 106.489 112.423 105.61 112.423C104.732 112.423 104.007 113.146 104.007 114.023V119.437L99.6358 113.256C99.2844 112.752 98.6913 112.423 98.0324 112.423C96.9561 112.423 96.0994 113.3 96.0994 114.374V123.756C96.0994 124.632 96.8023 125.356 97.6809 125.356C98.5595 125.356 99.2844 124.632 99.2844 123.756V118.254L103.765 124.523Z" fill="white"/>
<path d="M116.573 117.377V115.514H118.506C119.055 115.514 119.714 115.711 119.714 116.391C119.714 117.289 119.033 117.377 118.506 117.377H116.573ZM116.573 122.265V120.402H119.077C119.649 120.402 120.285 120.599 120.285 121.279C120.285 122.156 119.605 122.265 119.077 122.265H116.573ZM114.97 112.423C114.091 112.423 113.388 113.146 113.388 114.023V123.756C113.388 124.632 114.091 125.356 114.97 125.356H118.946C122.482 125.356 123.47 122.988 123.47 121.476C123.47 120.073 122.877 119.043 122.043 118.626C122.658 118.035 122.899 117.114 122.899 116.347C122.899 113.146 120.461 112.423 118.572 112.423H114.97Z" fill="white"/>
<path d="M130.901 122.397C129.737 122.397 127.87 121.827 127.87 118.78C127.87 116.084 129.451 115.382 130.901 115.382C132.395 115.382 133.976 116.084 133.976 118.78C133.976 121.827 132.109 122.397 130.901 122.397ZM130.901 125.487C133.295 125.487 137.161 124.238 137.161 118.714C137.161 114.001 133.779 112.292 130.923 112.292C128.068 112.292 124.685 114.001 124.685 118.714C124.685 124.238 128.551 125.487 130.901 125.487ZM131.648 111.305C131.824 111.634 132.109 111.831 132.461 111.831C132.9 111.831 133.295 111.459 133.295 110.998C133.295 110.867 133.251 110.735 133.208 110.626L132.505 109.376C132.197 108.828 131.648 108.434 130.989 108.434C130.352 108.434 129.803 108.828 129.495 109.376L128.793 110.626C128.749 110.735 128.705 110.867 128.705 110.998C128.705 111.459 129.1 111.831 129.539 111.831C129.891 111.831 130.176 111.634 130.352 111.305L130.989 110.121L131.648 111.305ZM130.901 126.123C130.088 126.123 129.451 126.781 129.451 127.592C129.451 128.403 130.088 129.038 130.901 129.038C131.736 129.038 132.395 128.403 132.395 127.592C132.395 126.781 131.736 126.123 130.901 126.123Z" fill="white"/>
<defs>
<radialGradient id="paint0_radial_5181_35888" cx="0" cy="0" r="1" gradientUnits="userSpaceOnUse" gradientTransform="translate(81.3106 35.39) rotate(85.343) scale(7.32568 4.35792)">
<stop offset="0.3939" stop-color="white"/>
<stop offset="0.4187" stop-color="#FFFAF6"/>
<stop offset="0.567" stop-color="#FEEBD9"/>
<stop offset="0.7146" stop-color="#FDE1C6"/>
<stop offset="0.8598" stop-color="#FDDBBB"/>
<stop offset="1" stop-color="#FCD9B7"/>
</radialGradient>
<linearGradient id="paint1_linear_5181_35888" x1="67.36" y1="31.6571" x2="88.0919" y2="37.9439" gradientUnits="userSpaceOnUse">
<stop offset="0.635" stop-color="white" stop-opacity="0"/>
<stop offset="0.6659" stop-color="#FFF1E9" stop-opacity="0.0893"/>
<stop offset="0.7256" stop-color="#FDD5C0" stop-opacity="0.2616"/>
<stop offset="0.8072" stop-color="#F9AA85" stop-opacity="0.4972"/>
<stop offset="0.8606" stop-color="#F68D62" stop-opacity="0.6512"/>
<stop offset="0.8954" stop-color="#DC7B4D" stop-opacity="0.7259"/>
<stop offset="0.9329" stop-color="#CC703E" stop-opacity="0.8063"/>
<stop offset="0.9685" stop-color="#C26A36" stop-opacity="0.8826"/>
<stop offset="1" stop-color="#BF6834" stop-opacity="0.95"/>
</linearGradient>
<linearGradient id="paint2_linear_5181_35888" x1="118.737" y1="52.1954" x2="112.655" y2="59.8995" gradientUnits="userSpaceOnUse">
<stop stop-color="#A91F27"/>
<stop offset="0.1913" stop-color="#AE1F27"/>
<stop offset="0.3892" stop-color="#BC2028"/>
<stop offset="0.5791" stop-color="#D42029"/>
<stop offset="0.7394" stop-color="#EB2227"/>
</linearGradient>
<radialGradient id="paint3_radial_5181_35888" cx="0" cy="0" r="1" gradientUnits="userSpaceOnUse" gradientTransform="translate(89.1141 22.5728) rotate(16.7136) scale(24.1955 24.0964)">
<stop stop-color="white"/>
<stop offset="0.1049" stop-color="#FCD4C4"/>
<stop offset="0.2345" stop-color="#F7A990"/>
<stop offset="0.3658" stop-color="#F3876B"/>
<stop offset="0.4961" stop-color="#F06A50"/>
<stop offset="0.6254" stop-color="#EE503B"/>
<stop offset="0.7531" stop-color="#EC3A2F"/>
<stop offset="0.8788" stop-color="#EB2929"/>
<stop offset="1" stop-color="#EB2227"/>
</radialGradient>
<radialGradient id="paint4_radial_5181_35888" cx="0" cy="0" r="1" gradientUnits="userSpaceOnUse" gradientTransform="translate(89.2933 42.8529) rotate(16.7136) scale(20.3661 20.2826)">
<stop offset="0.3939" stop-color="white"/>
<stop offset="0.4187" stop-color="#FFFAF6"/>
<stop offset="0.567" stop-color="#FEEBD9"/>
<stop offset="0.7146" stop-color="#FDE1C6"/>
<stop offset="0.8598" stop-color="#FDDBBB"/>
<stop offset="1" stop-color="#FCD9B7"/>
</radialGradient>
<linearGradient id="paint5_linear_5181_35888" x1="121.685" y1="38.2376" x2="113.963" y2="37.0049" gradientUnits="userSpaceOnUse">
<stop stop-color="#AE1F28"/>
<stop offset="0.2066" stop-color="#B21F28"/>
<stop offset="0.4204" stop-color="#C12029"/>
<stop offset="0.5791" stop-color="#D42029"/>
<stop offset="0.7394" stop-color="#EB2227"/>
</linearGradient>
<radialGradient id="paint6_radial_5181_35888" cx="0" cy="0" r="1" gradientUnits="userSpaceOnUse" gradientTransform="translate(125.692 43.1128) rotate(16.7136) scale(11.9406 11.8917)">
<stop offset="0.3939" stop-color="white"/>
<stop offset="0.4187" stop-color="#FFFAF6"/>
<stop offset="0.567" stop-color="#FEEBD9"/>
<stop offset="0.7146" stop-color="#FDE1C6"/>
<stop offset="0.8598" stop-color="#FDDBBB"/>
<stop offset="1" stop-color="#FCD9B7"/>
</radialGradient>
<radialGradient id="paint7_radial_5181_35888" cx="0" cy="0" r="1" gradientUnits="userSpaceOnUse" gradientTransform="translate(123.091 44.86) rotate(16.7136) scale(11.591 11.5436)">
<stop offset="0.635" stop-color="white" stop-opacity="0"/>
<stop offset="0.6659" stop-color="#FFF1E9" stop-opacity="0.0893"/>
<stop offset="0.7256" stop-color="#FDD5C0" stop-opacity="0.2616"/>
<stop offset="0.8072" stop-color="#F9AA85" stop-opacity="0.4972"/>
<stop offset="0.8606" stop-color="#F68D62" stop-opacity="0.6512"/>
<stop offset="0.8954" stop-color="#DC7B4D" stop-opacity="0.7259"/>
<stop offset="0.9329" stop-color="#CC703E" stop-opacity="0.8063"/>
<stop offset="0.9685" stop-color="#C26A36" stop-opacity="0.8826"/>
<stop offset="1" stop-color="#BF6834" stop-opacity="0.95"/>
</radialGradient>
<linearGradient id="paint8_linear_5181_35888" x1="95.1857" y1="14.5168" x2="127.053" y2="24.1805" gradientUnits="userSpaceOnUse">
<stop stop-color="#929497"/>
<stop offset="0.0471" stop-color="#8A8B8D"/>
<stop offset="0.2414" stop-color="#6E6E6F"/>
<stop offset="0.4358" stop-color="#5A595A"/>
<stop offset="0.6281" stop-color="#4C4B4C"/>
<stop offset="0.8174" stop-color="#444444"/>
<stop offset="1" stop-color="#414142"/>
</linearGradient>
<linearGradient id="paint9_linear_5181_35888" x1="105.603" y1="20.3323" x2="108.244" y2="23.255" gradientUnits="userSpaceOnUse">
<stop stop-color="white"/>
<stop offset="0.0432" stop-color="#E7E6E6"/>
<stop offset="0.2054" stop-color="#B3B0B1"/>
<stop offset="0.3687" stop-color="#8F8C8D"/>
<stop offset="0.5305" stop-color="#767475"/>
<stop offset="0.6906" stop-color="#656566"/>
<stop offset="0.848" stop-color="#5C5C5E"/>
<stop offset="1" stop-color="#595A5C"/>
</linearGradient>
<linearGradient id="paint10_linear_5181_35888" x1="116.925" y1="30.1616" x2="124.899" y2="26.9747" gradientUnits="userSpaceOnUse">
<stop stop-color="#414142"/>
<stop offset="0.121" stop-color="#464647"/>
<stop offset="0.4199" stop-color="#515153"/>
<stop offset="0.7151" stop-color="#57585A"/>
<stop offset="1" stop-color="#595A5C"/>
</linearGradient>
<linearGradient id="paint11_linear_5181_35888" x1="127.979" y1="32.4137" x2="118.461" y2="24.1058" gradientUnits="userSpaceOnUse">
<stop stop-color="#414142"/>
<stop offset="0.121" stop-color="#464647"/>
<stop offset="0.4199" stop-color="#515153"/>
<stop offset="0.7151" stop-color="#57585A"/>
<stop offset="1" stop-color="#595A5C"/>
</linearGradient>
<radialGradient id="paint12_radial_5181_35888" cx="0" cy="0" r="1" gradientUnits="userSpaceOnUse" gradientTransform="translate(106.465 59.8836) rotate(16.8453) scale(6.32491 6.23453)">
<stop offset="0.3939" stop-color="white"/>
<stop offset="0.4187" stop-color="#FFFAF6"/>
<stop offset="0.567" stop-color="#FEEBD9"/>
<stop offset="0.7146" stop-color="#FDE1C6"/>
<stop offset="0.8598" stop-color="#FDDBBB"/>
<stop offset="1" stop-color="#FCD9B7"/>
</radialGradient>
<radialGradient id="paint13_radial_5181_35888" cx="0" cy="0" r="1" gradientUnits="userSpaceOnUse" gradientTransform="translate(104.718 51.5144) rotate(-140.996) scale(4.81484 3.87815)">
<stop offset="0.3939" stop-color="white"/>
<stop offset="0.4187" stop-color="#FFFAF6"/>
<stop offset="0.567" stop-color="#FEEBD9"/>
<stop offset="0.7146" stop-color="#FDE1C6"/>
<stop offset="0.8598" stop-color="#FDDBBB"/>
<stop offset="1" stop-color="#FCD9B7"/>
</radialGradient>
<radialGradient id="paint14_radial_5181_35888" cx="0" cy="0" r="1" gradientUnits="userSpaceOnUse" gradientTransform="translate(96.006 47.6626) rotate(16.8453) scale(19.3367 19.2778)">
<stop offset="0.635" stop-color="white" stop-opacity="0"/>
<stop offset="0.6659" stop-color="#FFF1E9" stop-opacity="0.0893"/>
<stop offset="0.7256" stop-color="#FDD5C0" stop-opacity="0.2616"/>
<stop offset="0.8072" stop-color="#F9AA85" stop-opacity="0.4972"/>
<stop offset="0.8606" stop-color="#F68D62" stop-opacity="0.6512"/>
<stop offset="0.8954" stop-color="#DC7B4D" stop-opacity="0.7259"/>
<stop offset="0.9329" stop-color="#CC703E" stop-opacity="0.8063"/>
<stop offset="0.9685" stop-color="#C26A36" stop-opacity="0.8826"/>
<stop offset="1" stop-color="#BF6834" stop-opacity="0.95"/>
</radialGradient>
<radialGradient id="paint15_radial_5181_35888" cx="0" cy="0" r="1" gradientUnits="userSpaceOnUse" gradientTransform="translate(102.402 44.9674) rotate(16.7136) scale(4.23337 4.94918)">
<stop offset="0.8061" stop-color="white"/>
<stop offset="0.828" stop-color="#F8F8F8"/>
<stop offset="0.9154" stop-color="#EBEBEB"/>
<stop offset="1" stop-color="#E7E7E7"/>
</radialGradient>
<linearGradient id="paint16_linear_5181_35888" x1="98.125" y1="43.5034" x2="105.664" y2="45.7666" gradientUnits="userSpaceOnUse">
<stop stop-color="#914F37"/>
<stop offset="0.162" stop-color="#93523A"/>
<stop offset="0.3298" stop-color="#9A5C42"/>
<stop offset="0.5004" stop-color="#A76C51"/>
<stop offset="0.6728" stop-color="#BA8467"/>
<stop offset="0.845" stop-color="#D6A888"/>
<stop offset="1" stop-color="#FCD9B7"/>
</linearGradient>
<linearGradient id="paint17_linear_5181_35888" x1="88.5636" y1="39.3459" x2="94.4558" y2="41.9365" gradientUnits="userSpaceOnUse">
<stop stop-color="#914F37"/>
<stop offset="0.162" stop-color="#93523A"/>
<stop offset="0.3298" stop-color="#9A5C42"/>
<stop offset="0.5004" stop-color="#A76C51"/>
<stop offset="0.6728" stop-color="#BA8467"/>
<stop offset="0.845" stop-color="#D6A888"/>
<stop offset="1" stop-color="#FCD9B7"/>
</linearGradient>
<radialGradient id="paint18_radial_5181_35888" cx="0" cy="0" r="1" gradientUnits="userSpaceOnUse" gradientTransform="translate(91.7464 41.3212) rotate(6.74797) scale(3.42918 4.31357)">
<stop offset="0.8061" stop-color="white"/>
<stop offset="0.828" stop-color="#F8F8F8"/>
<stop offset="0.9154" stop-color="#EBEBEB"/>
<stop offset="1" stop-color="#E7E7E7"/>
</radialGradient>
<radialGradient id="paint19_radial_5181_35888" cx="0" cy="0" r="1" gradientUnits="userSpaceOnUse" gradientTransform="translate(92.0576 41.8521) rotate(110.815) scale(2.60444 1.81004)">
<stop offset="0.6485" stop-color="#914F37"/>
<stop offset="0.6844" stop-color="#7C4533"/>
<stop offset="0.7487" stop-color="#60352B"/>
<stop offset="0.8131" stop-color="#4D2924"/>
<stop offset="0.8768" stop-color="#3F201E"/>
<stop offset="0.9395" stop-color="#371A1A"/>
<stop offset="1" stop-color="#341718"/>
</radialGradient>
<radialGradient id="paint20_radial_5181_35888" cx="0" cy="0" r="1" gradientUnits="userSpaceOnUse" gradientTransform="translate(102.402 44.9674) rotate(16.7136) scale(4.23337 4.94918)">
<stop offset="0.8061" stop-color="white"/>
<stop offset="0.828" stop-color="#F8F8F8"/>
<stop offset="0.9154" stop-color="#EBEBEB"/>
<stop offset="1" stop-color="#E7E7E7"/>
</radialGradient>
<radialGradient id="paint21_radial_5181_35888" cx="0" cy="0" r="1" gradientUnits="userSpaceOnUse" gradientTransform="translate(102.665 45.6123) rotate(120.434) scale(2.98246 2.23703)">
<stop offset="0.6485" stop-color="#914F37"/>
<stop offset="0.6844" stop-color="#7C4533"/>
<stop offset="0.7487" stop-color="#60352B"/>
<stop offset="0.8131" stop-color="#4D2924"/>
<stop offset="0.8768" stop-color="#3F201E"/>
<stop offset="0.9395" stop-color="#371A1A"/>
<stop offset="1" stop-color="#341718"/>
</radialGradient>
<radialGradient id="paint22_radial_5181_35888" cx="0" cy="0" r="1" gradientUnits="userSpaceOnUse" gradientTransform="translate(110.962 18.6416) rotate(16.7136) scale(23.8399 23.7423)">
<stop stop-color="white" stop-opacity="0"/>
<stop offset="0.1876" stop-color="#ECECEC" stop-opacity="0.142"/>
<stop offset="0.5474" stop-color="#C8C8C9" stop-opacity="0.4142"/>
<stop offset="0.8606" stop-color="#A6A8AC" stop-opacity="0.6512"/>
<stop offset="0.8713" stop-color="#909092" stop-opacity="0.6742"/>
<stop offset="0.8946" stop-color="#6B696A" stop-opacity="0.724"/>
<stop offset="0.9176" stop-color="#4F4C4D" stop-opacity="0.7734"/>
<stop offset="0.94" stop-color="#3C3839" stop-opacity="0.8214"/>
<stop offset="0.9616" stop-color="#2E2B2B" stop-opacity="0.8677"/>
<stop offset="0.982" stop-color="#262223" stop-opacity="0.9114"/>
<stop offset="1" stop-color="#231F20" stop-opacity="0.95"/>
</radialGradient>
<linearGradient id="paint23_linear_5181_35888" x1="120.722" y1="44.4647" x2="129.468" y2="47.117" gradientUnits="userSpaceOnUse">
<stop offset="0.635" stop-color="white" stop-opacity="0"/>
<stop offset="0.6659" stop-color="#FFF1E9" stop-opacity="0.0893"/>
<stop offset="0.7256" stop-color="#FDD5C0" stop-opacity="0.2616"/>
<stop offset="0.8072" stop-color="#F9AA85" stop-opacity="0.4972"/>
<stop offset="0.8606" stop-color="#F68D62" stop-opacity="0.6512"/>
<stop offset="0.8954" stop-color="#DC7B4D" stop-opacity="0.7259"/>
<stop offset="0.9329" stop-color="#CC703E" stop-opacity="0.8063"/>
<stop offset="0.9685" stop-color="#C26A36" stop-opacity="0.8826"/>
<stop offset="1" stop-color="#BF6834" stop-opacity="0.95"/>
</linearGradient>
<linearGradient id="paint24_linear_5181_35888" x1="85.221" y1="44.4856" x2="90.8545" y2="45.3112" gradientUnits="userSpaceOnUse">
<stop offset="0.3939" stop-color="white"/>
<stop offset="0.4187" stop-color="#FFFAF6"/>
<stop offset="0.567" stop-color="#FEEBD9"/>
<stop offset="0.7146" stop-color="#FDE1C6"/>
<stop offset="0.8598" stop-color="#FDDBBB"/>
<stop offset="1" stop-color="#FCD9B7"/>
</linearGradient>
<linearGradient id="paint25_linear_5181_35888" x1="123.007" y1="53.6181" x2="121.533" y2="56.7831" gradientUnits="userSpaceOnUse">
<stop offset="0.3939" stop-color="white"/>
<stop offset="0.4062" stop-color="#FFFAF7"/>
<stop offset="0.5273" stop-color="#FDE3D0"/>
<stop offset="0.6484" stop-color="#FCD2B5"/>
<stop offset="0.7683" stop-color="#FBC6A2"/>
<stop offset="0.8862" stop-color="#FABF97"/>
<stop offset="1" stop-color="#FABC93"/>
</linearGradient>
<linearGradient id="paint26_linear_5181_35888" x1="89.3592" y1="55.6451" x2="88.515" y2="57.978" gradientUnits="userSpaceOnUse">
<stop stop-color="#914F37"/>
<stop offset="0.162" stop-color="#93523A"/>
<stop offset="0.3298" stop-color="#9A5C42"/>
<stop offset="0.5004" stop-color="#A76C51"/>
<stop offset="0.6728" stop-color="#BA8467"/>
<stop offset="0.845" stop-color="#D6A888"/>
<stop offset="1" stop-color="#FCD9B7"/>
</linearGradient>
<linearGradient id="paint27_linear_5181_35888" x1="122.897" y1="28.2269" x2="126.589" y2="29.3464" gradientUnits="userSpaceOnUse">
<stop stop-color="#FECF0A"/>
<stop offset="0.0671" stop-color="#FDC810"/>
<stop offset="0.3051" stop-color="#FAB31A"/>
<stop offset="0.5419" stop-color="#F8A41E"/>
<stop offset="0.775" stop-color="#F79B20"/>
<stop offset="1" stop-color="#F79820"/>
</linearGradient>
<linearGradient id="paint28_linear_5181_35888" x1="125.355" y1="34.1966" x2="127.574" y2="33.7117" gradientUnits="userSpaceOnUse">
<stop stop-color="#FECF0A"/>
<stop offset="0.0671" stop-color="#FDC810"/>
<stop offset="0.3051" stop-color="#FAB31A"/>
<stop offset="0.5419" stop-color="#F8A41E"/>
<stop offset="0.775" stop-color="#F79B20"/>
<stop offset="1" stop-color="#F79820"/>
</linearGradient>
<linearGradient id="paint29_linear_5181_35888" x1="124.322" y1="37.1847" x2="129.229" y2="38.6726" gradientUnits="userSpaceOnUse">
<stop offset="0.00606061" stop-color="white"/>
<stop offset="0.3152" stop-color="#FECF0A"/>
<stop offset="0.3611" stop-color="#FDC810"/>
<stop offset="0.5241" stop-color="#FAB31A"/>
<stop offset="0.6863" stop-color="#F8A41E"/>
<stop offset="0.8459" stop-color="#F79B20"/>
<stop offset="1" stop-color="#F79820"/>
</linearGradient>
<linearGradient id="paint30_linear_5181_35888" x1="124.144" y1="34.4209" x2="126.117" y2="35.0194" gradientUnits="userSpaceOnUse">
<stop stop-color="white"/>
<stop offset="0.1067" stop-color="#FFF2D1"/>
<stop offset="0.236" stop-color="#FFE7A6"/>
<stop offset="0.3671" stop-color="#FFDE82"/>
<stop offset="0.4972" stop-color="#FFD761"/>
<stop offset="0.6261" stop-color="#FFD242"/>
<stop offset="0.7536" stop-color="#FFCE28"/>
<stop offset="0.8791" stop-color="#FFCC12"/>
<stop offset="1" stop-color="#FFCB09"/>
</linearGradient>
<radialGradient id="paint31_radial_5181_35888" cx="0" cy="0" r="1" gradientUnits="userSpaceOnUse" gradientTransform="translate(125.693 37.8038) rotate(16.7136) scale(7.17117 7.1418)">
<stop offset="0.103" stop-color="white"/>
<stop offset="0.1418" stop-color="#FFF2D1"/>
<stop offset="0.1888" stop-color="#FFE7A6"/>
<stop offset="0.2365" stop-color="#FFDE82"/>
<stop offset="0.2838" stop-color="#FFD761"/>
<stop offset="0.3307" stop-color="#FFD242"/>
<stop offset="0.3771" stop-color="#FFCE28"/>
<stop offset="0.4227" stop-color="#FFCC12"/>
<stop offset="0.4667" stop-color="#FFCB09"/>
</radialGradient>
<linearGradient id="paint32_linear_5181_35888" x1="123.367" y1="27.2847" x2="125.119" y2="27.8158" gradientUnits="userSpaceOnUse">
<stop stop-color="white"/>
<stop offset="0.1067" stop-color="#FFF2D1"/>
<stop offset="0.236" stop-color="#FFE7A6"/>
<stop offset="0.3671" stop-color="#FFDE82"/>
<stop offset="0.4972" stop-color="#FFD761"/>
<stop offset="0.6261" stop-color="#FFD242"/>
<stop offset="0.7536" stop-color="#FFCE28"/>
<stop offset="0.8791" stop-color="#FFCC12"/>
<stop offset="1" stop-color="#FFCB09"/>
</linearGradient>
<radialGradient id="paint33_radial_5181_35888" cx="0" cy="0" r="1" gradientUnits="userSpaceOnUse" gradientTransform="translate(124.425 36.86) rotate(16.7136) scale(4.26895 4.25147)">
<stop offset="0.635" stop-color="white" stop-opacity="0"/>
<stop offset="0.6565" stop-color="#FFF5EB" stop-opacity="0.0621"/>
<stop offset="0.698" stop-color="#FEE2C6" stop-opacity="0.1819"/>
<stop offset="0.7553" stop-color="#FDC48E" stop-opacity="0.3474"/>
<stop offset="0.8255" stop-color="#F99D47" stop-opacity="0.55"/>
<stop offset="0.8606" stop-color="#F68A20" stop-opacity="0.6512"/>
<stop offset="0.89" stop-color="#F47B22" stop-opacity="0.7143"/>
<stop offset="0.9295" stop-color="#F26A24" stop-opacity="0.7988"/>
<stop offset="0.9669" stop-color="#F15E24" stop-opacity="0.8791"/>
<stop offset="1" stop-color="#F15A25" stop-opacity="0.95"/>
</radialGradient>
</defs>
</svg>
