<svg width="140" height="98" viewBox="0 0 140 98" fill="none" xmlns="http://www.w3.org/2000/svg">
<g clip-path="url(#clip0)">
<path d="M71.5698 50.591C71.1057 50.591 70.6306 50.5798 70.1443 50.5464L70.0559 50.5352C69.7355 50.5129 69.4261 50.4795 69.1056 50.446L68.8514 50.4126C68.5752 50.3791 68.2989 50.3457 68.0116 50.3011L67.6912 50.2565C67.4149 50.2119 67.1276 50.1562 66.8292 50.1004C66.8292 50.1004 66.5972 50.0558 66.5198 50.0447C66.1441 49.9666 65.7573 49.8886 65.3595 49.7883C64.6081 49.621 59.3039 48.3278 55.6683 43.6342C55.6462 43.6008 55.6241 43.5785 55.602 43.545C55.591 43.5227 55.5689 43.5004 55.5578 43.4781C55.0385 42.7869 54.5523 42.0288 54.1434 41.2373C54.0329 41.1815 53.9224 41.1258 53.8008 41.0589C53.7456 41.0254 53.7014 41.0031 53.6461 40.9697C53.5798 40.9251 53.5135 40.8805 53.4472 40.8359C53.3699 40.7802 53.2925 40.7356 53.2152 40.6798C53.1489 40.6241 53.0605 40.5572 52.9721 40.4792C52.8836 40.4123 52.8063 40.3342 52.74 40.2562C52.6405 40.1558 52.5632 40.0667 52.4858 39.9663C52.4195 39.8883 52.3311 39.7768 52.2427 39.643C52.1433 39.4981 52.0659 39.3531 52.0217 39.264C51.9775 39.1748 51.9112 39.0633 51.856 38.9295C51.7676 38.7288 51.7013 38.5281 51.6571 38.3052C51.646 38.2494 51.6239 38.1937 51.6129 38.1379C51.6129 38.1268 51.6018 38.1045 51.6018 38.0933C51.4471 37.2572 51.5355 36.4099 51.8781 35.5403C51.9223 35.4177 51.9886 35.295 52.0549 35.1724C52.088 35.1055 52.1322 35.0498 52.1654 34.9829C52.1433 34.8268 52.1322 34.6596 52.1322 34.5035C52.1322 34.47 52.1322 34.4254 52.1322 34.392C52.1322 34.2359 52.1433 34.0798 52.1543 33.9238C52.1654 33.8569 52.1654 33.8011 52.1764 33.7454C52.1875 33.6116 52.2206 33.4667 52.2538 33.3217C52.2648 33.2548 52.2869 33.1991 52.298 33.1322C52.3643 32.8869 52.4416 32.6863 52.519 32.4967C52.6184 32.2738 52.74 32.0508 52.8726 31.8501C52.8836 31.8278 52.9058 31.8055 52.9168 31.7832C52.9279 31.7609 52.95 31.7386 52.961 31.7163C53.0936 31.538 53.2262 31.3707 53.3809 31.2146C53.392 31.2035 53.403 31.1923 53.403 31.1923C53.4693 31.1366 53.5356 31.0697 53.613 31.0028C53.7235 30.9025 53.8561 30.8021 54.0218 30.7018C54.0218 30.7018 54.0329 30.7018 54.0329 30.6907C52.1764 27.0005 52.4748 24.0461 53.1268 22.1285C53.1378 22.1062 53.1489 22.0839 53.1489 22.0505C54.5523 18.2265 57.7679 16.766 60.0885 16.6768C60.1216 16.6768 60.1658 16.6768 60.199 16.6768C60.2322 16.6768 60.2543 16.6768 60.2874 16.6768C60.5195 16.688 60.7515 16.6991 60.9946 16.7214C60.8289 16.3647 60.7294 16.0414 60.6742 15.8072C60.3206 14.3356 60.7294 12.8752 61.7461 11.9721C62.0334 11.7157 62.3759 11.5039 62.7516 11.3478C63.1937 11.1694 63.6688 11.0691 64.155 11.0691C64.4313 11.0691 64.6965 11.1025 64.9728 11.1583C65.0833 11.0579 65.1938 10.9687 65.3043 10.8795C65.3816 10.8238 65.47 10.7681 65.5474 10.7123C65.5584 10.7012 65.5695 10.7012 65.5805 10.69C65.8347 10.5339 66.0999 10.4113 66.3651 10.3221C66.4093 10.3556 66.4535 10.3444 66.4977 10.3333C66.4867 10.3221 66.111 9.87617 66.0999 9.86502C66.0999 9.86502 65.9341 9.66435 65.9231 9.64205C65.2159 8.71672 65.0943 7.46807 65.6247 6.43125C66.1331 5.41672 67.1607 4.78125 68.2879 4.78125C68.31 4.78125 68.3321 4.78125 68.3542 4.78125C70.6527 4.83699 85.1729 8.86165 85.3055 8.90624C86.5984 9.29644 87.5155 10.2441 87.9244 10.7458C88.2449 11.0914 88.8637 11.8383 90.5654 14.0123L91.4826 15.1941C91.5158 15.2387 91.56 15.2833 91.5931 15.339L91.9467 15.7961C91.9909 15.8407 92.0241 15.8853 92.0572 15.9299L92.875 16.989C92.8971 17.0113 92.9081 17.0336 92.9302 17.067C95.1513 19.9657 97.2841 22.7974 97.3062 22.8197C97.9802 23.7116 98.1018 24.8934 97.6487 25.8967C99.0632 27.3907 100.157 29.6538 99.9693 32.6082C99.9693 32.6305 99.9693 32.664 99.9583 32.6863C99.9362 32.8981 99.9141 33.1211 99.8809 33.344C99.8699 33.3998 99.8588 33.4555 99.8588 33.5001C99.8257 33.7008 99.7925 33.868 99.7483 34.0464L99.7041 34.2248C99.6599 34.4254 99.6047 34.6261 99.5384 34.8157C99.5273 34.8602 99.5163 34.9048 99.4942 34.9494C98.6212 37.6808 96.61 40.089 93.549 42.0957C93.4606 42.1626 93.3612 42.2183 93.2617 42.2629C90.9743 43.4112 88.499 44.0467 86.2779 44.0467C85.9795 44.0467 85.6922 44.0356 85.416 44.0133C85.1176 44.3366 84.8192 44.6487 84.5209 44.9386L84.4877 44.972C84.2225 45.2396 83.9463 45.496 83.67 45.7413L83.5374 45.8528C83.2943 46.0646 83.0512 46.2653 82.8191 46.4548C82.8191 46.4548 82.6755 46.5663 82.6202 46.6109C82.4987 46.7112 82.3661 46.8116 82.2335 46.9119C82.123 47.0011 82.0014 47.0791 81.8909 47.1572C81.7251 47.2798 81.5594 47.3913 81.4047 47.4916C81.2942 47.5697 81.1726 47.6477 81.0621 47.7146C80.9185 47.8038 80.7748 47.893 80.6311 47.9822C80.4875 48.0714 80.3438 48.1494 80.2112 48.2275C80.1118 48.2832 80.0123 48.3389 79.9129 48.3947C79.7471 48.4839 79.5703 48.5731 79.4046 48.6622C79.3825 48.6734 79.3604 48.6845 79.3272 48.6957C78.178 49.2754 76.9845 49.7214 75.7579 50.0447C75.327 50.1673 74.8739 50.2676 74.4208 50.3457L74.2882 50.368C74.1777 50.3903 74.0783 50.4014 73.9678 50.4126C73.2053 50.5352 72.3986 50.591 71.5698 50.591Z" fill="white"/>
<path d="M60.199 19.7207C60.6852 19.7319 61.1604 19.8099 61.6245 19.9437C62.4201 20.1444 63.1494 20.5457 63.7904 21.0808C63.8014 21.0808 63.8014 21.092 63.8014 21.092C66.122 23.043 67.4259 26.8001 67.4038 29.8102C67.4038 29.8102 64.3318 29.8883 63.3483 34.5261C61.3593 34.292 59.1271 32.7311 57.5137 30.769C55.3479 27.4356 55.3479 24.8937 55.9446 23.121C57.127 19.9548 59.8454 19.743 60.199 19.7207Z" fill="#FCD9B7"/>
<path d="M58.4193 31.2267C56.2534 27.9044 56.2534 25.3513 56.8612 23.5787C58.0325 20.4013 60.7509 20.1784 61.1156 20.1672C61.5907 20.1784 62.0769 20.2564 62.541 20.3902C62.7179 20.4348 62.8836 20.4905 63.0494 20.5574C62.6074 20.2899 62.1432 20.078 61.6349 19.9554C61.1598 19.8216 60.6846 19.7436 60.2094 19.7324C59.8558 19.7436 57.1264 19.9554 55.9661 23.1439C55.3694 24.9165 55.3694 27.4584 57.5352 30.7919C58.7397 32.2635 60.2978 33.501 61.8449 34.1364C60.5962 33.4341 59.3917 32.4084 58.4193 31.2267Z" fill="url(#paint0_radial)"/>
<path d="M61.7678 29.6977C61.7678 29.6977 62.453 29.6197 62.3425 28.8281C62.232 28.0366 61.8452 27.2116 62.4861 27.1447C63.116 27.0778 64.5746 27.8248 63.7017 25.818C62.8287 23.8113 59.9445 21.8045 58.6074 23.2761C57.2703 24.7477 58.7953 29.9653 61.7678 29.6977Z" fill="#E08E62"/>
<path opacity="0.33" d="M60.199 19.7207C60.6852 19.7319 61.1604 19.8099 61.6245 19.9437C62.4201 20.1444 63.1494 20.5457 63.7904 21.0808C63.8014 21.0808 63.8014 21.092 63.8014 21.092C66.122 23.043 67.4259 26.8001 67.4038 29.8102C67.4038 29.8102 64.3318 29.8883 63.3483 34.5261C61.3593 34.292 59.1271 32.7311 57.5137 30.769C55.3479 27.4356 55.3479 24.8937 55.9446 23.121C57.127 19.9548 59.8454 19.743 60.199 19.7207Z" fill="url(#paint1_linear)"/>
<path d="M80.5421 18.4166C77.4038 16.7332 74.8954 16.0643 72.2101 16.2315C72.1991 16.2315 72.188 16.2315 72.177 16.2315C70.641 16.3876 70.3758 15.8636 69.768 15.0274C69.1492 14.2024 67.6132 12.296 66.7623 13.7007C65.9225 15.1166 68.663 16.9004 68.663 16.9004C68.663 16.9004 68.3425 16.7332 67.9668 16.5325C67.359 16.198 66.486 15.6741 65.9556 15.1612C65.0716 14.3251 64.1765 13.8568 63.7124 14.2693C63.2483 14.6707 63.5024 16.6774 66.7402 17.4801C66.6518 17.5136 66.5744 17.5582 66.4971 17.5916C66.4639 17.6028 66.4308 17.6251 66.3866 17.6474C66.0551 17.8034 65.5468 18.071 64.95 18.4724C64.8837 18.517 64.8395 18.5504 64.8395 18.5504C63.8671 19.2305 62.6847 20.2561 61.7123 21.7501C61.2261 22.5305 60.8393 23.3443 60.5188 24.1359C59.8448 25.9977 59.5132 28.3166 59.889 31.1929C58.4524 31.6835 57.3142 33.7125 57.3142 33.7125C57.1595 33.4561 55.7782 32.4973 55.2478 33.7014C54.7174 34.9054 55.955 36.2544 55.955 36.2544C55.1041 35.8308 54.6511 36.6335 54.6511 36.6335C53.9328 38.473 56.2644 38.7294 56.2644 38.7294C58.9939 45.4409 65.9998 46.8122 65.9998 46.8122C69.2044 47.5814 71.7129 47.6929 73.6688 47.3919C73.6798 47.3919 73.7019 47.3919 73.713 47.3919C73.7682 47.3808 73.8235 47.3696 73.8898 47.3585C74.0003 47.3362 74.1218 47.3139 74.2323 47.2916C74.2876 47.2804 74.3539 47.2693 74.4092 47.2581C74.5197 47.2358 74.6191 47.2135 74.7296 47.1801C77.9232 46.3997 81.8682 44.3149 85.349 39.2311C85.5369 38.9078 85.7247 38.5845 85.8905 38.25C88.841 32.3301 88.2111 22.5528 80.5421 18.4166Z" fill="#EB2227"/>
<path d="M78.0449 45.9653C80.1224 44.9062 82.3214 43.2116 84.3989 40.5471L84.5425 37.1133C84.5425 37.1133 81.8905 43.0889 78.6969 45.3075C78.3101 45.5862 78.1112 45.7981 78.0449 45.9653Z" fill="url(#paint2_linear)"/>
<path d="M57.7013 33.1539C57.9665 33.2988 58.1765 33.466 58.2318 33.5552C58.2318 33.5552 59.3589 31.5373 60.7954 31.0468C60.4197 28.1593 60.7402 25.8404 61.4253 23.9786C61.7458 23.1759 62.1325 22.3732 62.6188 21.5928C63.6022 20.0988 64.7736 19.0732 65.746 18.3931C65.746 18.3931 65.7902 18.3597 65.8565 18.3151C66.4532 17.9137 66.9616 17.6461 67.2931 17.4789C67.3262 17.4678 67.3594 17.4455 67.4036 17.4232C67.4809 17.3897 67.5693 17.3451 67.6467 17.3117C64.6299 16.5647 64.21 14.7809 64.5305 14.2124C64.199 14.1009 63.9117 14.1009 63.7017 14.2904C63.2376 14.6918 63.4917 16.6985 66.7295 17.5012C66.6411 17.5347 66.5637 17.5793 66.4864 17.6127C66.4532 17.6238 66.4201 17.6461 66.3759 17.6684C66.0444 17.8245 65.5361 18.0921 64.9393 18.4934C64.873 18.538 64.8288 18.5715 64.8288 18.5715C63.8564 19.2515 62.674 20.2772 61.7016 21.7711C61.2154 22.5515 60.8286 23.3654 60.5081 24.1569C59.8341 26.0188 59.5026 28.3377 59.8783 31.214C58.95 31.5485 58.1434 32.5184 57.7013 33.1539ZM74.5974 47.2346C72.6415 47.5356 70.1441 47.413 66.9284 46.6549C66.9284 46.6549 59.9335 45.2836 57.2041 38.5833C57.2041 38.5833 54.8724 38.3268 55.5907 36.4873C55.5907 36.4873 55.6681 36.3647 55.8007 36.2309C55.0603 35.9968 54.6735 36.6657 54.6735 36.6657C53.9553 38.5052 56.2869 38.7616 56.2869 38.7616C59.0163 45.4731 66.0223 46.8444 66.0223 46.8444C69.2269 47.6136 71.7353 47.7251 73.6912 47.4241C73.7023 47.4241 73.7244 47.4241 73.7354 47.4241C73.7907 47.413 73.8459 47.4018 73.9123 47.3907C74.0228 47.3684 74.1443 47.3461 74.2548 47.3238C74.3101 47.3126 74.3764 47.3015 74.4316 47.2903C74.4979 47.2792 74.5532 47.2569 74.6084 47.2457C74.6084 47.2346 74.5974 47.2346 74.5974 47.2346ZM66.8732 14.9928C67.4036 15.4945 68.2766 16.0184 68.8843 16.3641C69.26 16.5536 69.5805 16.732 69.5805 16.732C69.5805 16.732 66.829 14.937 67.6798 13.5323C67.7461 13.432 67.8124 13.3539 67.8787 13.2759C67.4699 13.131 67.0721 13.209 66.7737 13.7107C66.5527 14.0897 66.5858 14.4799 66.7406 14.8701C66.7848 14.9147 66.829 14.9482 66.8732 14.9928ZM55.867 36.164C56.0769 35.9968 56.4195 35.8741 56.8836 36.0971C56.8836 36.0971 55.6349 34.7481 56.1653 33.5441C56.2316 33.388 56.32 33.2765 56.4084 33.1762C55.9775 33.0647 55.5134 33.1316 55.2592 33.7225C54.8172 34.737 55.5907 35.8184 55.867 36.164Z" fill="url(#paint3_radial)"/>
<path d="M78.7851 34.3468C79.0945 33.4883 82.4538 27.3566 76.6634 24.5583C73.1605 22.8637 70.9725 23.8448 69.7901 24.8816C68.8398 25.5282 68.5414 24.8482 68.5414 24.8482C68.1878 23.3988 67.2043 22.6073 66.4418 22.2171C65.4473 21.7265 63.6903 21.8826 62.3421 24.6586C60.994 27.4346 60.8061 31.0691 60.8061 31.0691L60.2647 31.136C58.6513 31.359 57.3142 33.7448 57.3142 33.7448C57.1595 33.4883 55.7782 32.5296 55.2478 33.7336C54.7174 34.9377 55.955 36.2867 55.955 36.2867C55.1041 35.863 54.6511 36.6657 54.6511 36.6657C53.9328 38.5052 56.2644 38.7616 56.2644 38.7616C58.9939 45.4731 65.9998 46.8444 65.9998 46.8444C76.8181 49.4197 79.5697 44.6816 80.6858 41.114C81.8129 37.5353 78.7851 34.3468 78.7851 34.3468Z" fill="#FCD9B7"/>
<path d="M76.6525 24.5593C73.1495 22.8647 70.9616 23.8458 69.7792 24.8826C69.5803 25.0275 69.4035 25.0944 69.2598 25.139C69.3261 25.3285 69.3924 25.518 69.4366 25.741C69.4366 25.741 69.7129 26.4322 70.6743 25.8079C71.8898 24.8045 74.0999 23.9015 77.5476 25.7076C78.3764 26.1424 79.0063 26.6441 79.4814 27.1792C78.9952 26.187 78.1222 25.2616 76.6525 24.5593ZM79.4925 35.2619C79.4372 35.3846 79.382 35.4849 79.3599 35.5518C79.3599 35.5518 80.045 36.3322 80.6196 37.5363C80.3323 36.6109 79.8792 35.8305 79.4925 35.2619ZM56.4635 39.1751C56.8944 40.1227 57.4028 40.97 57.9774 41.7058C57.5022 40.97 57.0823 40.145 56.7397 39.2309C56.7397 39.2309 56.6292 39.2197 56.4635 39.1751ZM62.3423 24.6485C60.9941 27.4245 60.8063 31.0589 60.8063 31.0589L60.2648 31.1258C58.6514 31.3488 57.3144 33.7346 57.3144 33.7346C57.1596 33.4782 55.7784 32.5194 55.2479 33.7234C54.7175 34.9275 55.9552 36.2765 55.9552 36.2765C55.1043 35.8528 54.6512 36.6555 54.6512 36.6555C54.2865 37.5809 54.6954 38.1048 55.2037 38.4059C54.9938 38.0937 54.9275 37.6589 55.1816 37.0792C55.1816 37.0792 55.6457 36.2988 56.4966 36.7447C56.4966 36.7447 55.2921 35.3623 55.8668 34.1694C56.4303 32.9765 57.1928 34.0244 57.3365 34.2809C57.3365 34.2809 59.0935 31.7613 60.9499 31.7278L61.4914 31.6721C61.4914 31.6721 61.8008 28.0488 63.2374 25.3174C64.6739 22.586 66.4309 22.4856 67.4034 23.0096C67.4918 23.0653 67.5912 23.1211 67.6907 23.1768C67.2928 22.7086 66.8287 22.3964 66.4309 22.1958C65.4474 21.7275 63.6904 21.8724 62.3423 24.6485Z" fill="url(#paint4_radial)"/>
<path d="M87.482 30.0006C87.2389 25.7753 85.4266 21.5499 81.4264 18.9746C80.0893 19.153 78.9179 20.1118 80.6418 21.6614C85.6255 26.1655 81.8573 34.1813 81.8573 34.1813C81.8573 34.1813 85.7029 30.8813 87.482 30.0006Z" fill="url(#paint5_linear)"/>
<path d="M94.1564 26.9785C93.6591 26.7778 93.1287 26.6329 92.5872 26.5548C91.6811 26.3988 90.7529 26.4768 89.8578 26.7332C89.8468 26.7332 89.8467 26.7332 89.8357 26.7332C86.5648 27.6697 83.548 30.9363 82.2109 34.0356C82.2109 34.0356 85.3382 35.5295 84.2442 40.7359C86.388 41.4048 89.3937 40.8362 91.9353 39.5541C95.6592 37.1237 96.8085 34.5038 96.9853 32.419C97.2174 28.6173 94.5211 27.1569 94.1564 26.9785Z" fill="#FCD9B7"/>
<path d="M88.0674 36.4985C88.0674 36.4985 87.4044 36.0971 87.8685 35.339C88.3326 34.5698 89.1062 33.9008 88.4763 33.5441C87.8575 33.1873 86.0231 33.2877 87.8243 31.6265C89.6255 29.9654 93.4821 29.2296 94.2004 31.3478C94.9076 33.4772 90.9958 38.1373 88.0674 36.4985Z" fill="#E08E62"/>
<path d="M90.6204 34.0795C90.1563 35.239 89.4822 36.1197 88.8302 36.7775C88.565 36.7218 88.3108 36.6326 88.0567 36.4876C88.0567 36.4876 87.3937 36.0863 87.8578 35.3282C88.3219 34.5589 89.0954 33.89 88.4655 33.5332C87.8467 33.1765 86.0124 33.2768 87.8136 31.6157C88.1782 31.2812 88.6202 30.9914 89.1065 30.7461C90.1563 31.1251 91.4713 32.0059 90.6204 34.0795Z" fill="#603A17"/>
<path d="M89.4379 28.0822C89.4379 28.0822 89.4489 28.0822 89.46 28.0822C90.3661 27.8258 91.2833 27.7589 92.1894 27.9038C92.7309 27.9819 93.2613 28.1157 93.7586 28.3275C94.1232 28.5059 96.8195 29.9775 96.5875 33.7792C96.5654 34.0244 96.5322 34.292 96.477 34.5484C96.7753 33.8015 96.93 33.0879 96.9853 32.4302C97.2174 28.6285 94.5211 27.1569 94.1564 26.9785C93.6591 26.7778 93.1287 26.6329 92.5872 26.5548C91.6811 26.3988 90.7529 26.4768 89.8578 26.7332C89.8468 26.7332 89.8467 26.7332 89.8357 26.7332C86.5648 27.6697 83.548 30.9363 82.2109 34.0356C82.2109 34.0356 82.2993 34.0802 82.4209 34.1582C83.9458 31.4602 86.5979 28.8961 89.4379 28.0822Z" fill="url(#paint6_radial)"/>
<path opacity="0.43" d="M94.1564 26.9785C93.6591 26.7778 93.1287 26.6329 92.5872 26.5548C91.6811 26.3988 90.7529 26.4768 89.8578 26.7332C89.8468 26.7332 89.8467 26.7332 89.8357 26.7332C86.5648 27.6697 83.548 30.9363 82.2109 34.0356C82.222 34.0356 85.3382 35.5295 84.2442 40.7359C86.388 41.4048 89.3937 40.8362 91.9353 39.5541C95.6592 37.1237 96.8085 34.5038 96.9853 32.419C97.2174 28.6173 94.5211 27.1569 94.1564 26.9785Z" fill="url(#paint7_radial)"/>
<path d="M68.2871 7.80273C68.2871 7.80273 72.0332 12.5298 77.9009 16.2088C83.7687 19.8878 89.1723 22.6304 94.9185 24.6595C94.9185 24.6595 86.9844 14.1575 85.6583 12.7193C85.6583 12.7193 85.0947 11.9946 84.4649 11.8051C83.846 11.6156 69.9557 7.83618 68.2871 7.80273Z" fill="#49494B"/>
<path d="M83.5808 12.6412C83.5808 12.6412 89.316 17.948 90.6199 19.3973C90.852 19.6537 90.7746 19.4085 90.5094 18.8399C88.443 16.1531 86.2992 13.3993 85.6694 12.7193C85.6694 12.7193 85.1058 11.9946 84.4759 11.8051C83.846 11.6156 69.9557 7.83618 68.2871 7.80273C68.2871 7.80273 69.3921 9.20746 71.3481 11.0693C71.5359 11.1585 71.6464 11.2142 71.6464 11.2142C71.6464 11.2142 70.9392 9.84293 70.8397 9.66456C70.7624 9.47503 80.3983 11.8051 83.5808 12.6412Z" fill="url(#paint8_linear)"/>
<path d="M76.9843 13.2207L71.5254 16.2866C71.5254 16.2866 72.7741 19.921 77.6362 22.0727C82.4984 24.2355 86.0456 24.1464 86.0456 24.1464L86.7307 18.8173C86.7307 18.8173 82.8189 13.9119 76.9843 13.2207Z" fill="#4E4C50"/>
<path d="M84.6643 17.0112C84.6643 17.0112 84.2665 16.5095 83.4708 15.8406C81.8133 14.67 79.5922 13.5217 76.9843 13.2207L71.5254 16.2866C71.5254 16.2866 72.1442 18.0815 74.1996 19.8987C74.3101 19.9099 74.3764 19.921 74.3764 19.921L73.0503 17.0447L77.0506 14.67C77.0506 14.67 81.2055 14.8038 84.6643 17.0112Z" fill="url(#paint9_linear)"/>
<path opacity="0.78" d="M86.0454 24.1476L86.7306 18.8185C86.7306 18.8185 86.167 18.105 85.1393 17.1908L85.0398 17.1797L83.0618 21.6057C82.2883 23.3226 79.9346 22.9658 79.9346 22.9658L81.9678 23.6124C81.9678 23.6124 82.3546 23.7128 83.1171 23.8243C84.9404 24.1699 86.0454 24.1476 86.0454 24.1476Z" fill="url(#paint10_linear)"/>
<path opacity="0.78" d="M87.0064 18.7402L90.5536 19.4092L94.1781 24.0916C94.1781 24.0916 88.1778 21.8061 86.7412 20.8473L87.0064 18.7402Z" fill="url(#paint11_linear)"/>
<path opacity="0.65" d="M80.0777 40.9805C80.0777 40.9805 78.8842 46.8446 72.1104 46.8446C72.1104 46.8335 76.9504 46.1869 80.0777 40.9805Z" fill="url(#paint12_radial)"/>
<path d="M71.459 37.1689C71.459 37.1689 73.7243 33.9915 78.0671 36.2212C78.0671 36.2212 74.7188 35.4631 71.459 37.1689Z" fill="url(#paint13_radial)"/>
<path opacity="0.43" d="M78.7851 34.3468C79.0945 33.4883 82.4538 27.3566 76.6634 24.5583C73.1605 22.8637 70.9725 23.8448 69.7901 24.8816C68.8398 25.5282 68.5414 24.8482 68.5414 24.8482C68.1878 23.3988 67.2043 22.6073 66.4418 22.2171C65.4473 21.7265 63.6903 21.8826 62.3421 24.6586C60.994 27.4346 60.8061 31.0691 60.8061 31.0691L60.2647 31.136C58.6513 31.359 57.3142 33.7448 57.3142 33.7448C57.1595 33.4883 55.7782 32.5296 55.2478 33.7336C54.7174 34.9377 55.955 36.2867 55.955 36.2867C55.1041 35.863 54.6511 36.6657 54.6511 36.6657C53.9328 38.5052 56.2644 38.7616 56.2644 38.7616C58.9939 45.4731 65.9998 46.8444 65.9998 46.8444C76.8181 49.4197 79.5697 44.6816 80.6858 41.114C81.8129 37.5353 78.7851 34.3468 78.7851 34.3468Z" fill="url(#paint14_radial)"/>
<path d="M74.8959 26.6775C74.487 26.1424 73.9898 25.9863 73.592 25.9863C72.7963 25.9863 72.4759 26.41 72.3985 26.5215C72.3764 26.5549 72.3654 26.5772 72.3543 26.6107C72.1886 27.1123 72.5643 27.3688 72.8184 27.1235C72.9842 26.9674 73.2715 26.8448 73.5699 26.8002C73.7577 26.789 74.2218 26.8225 74.5312 27.235C74.5423 27.2461 74.5644 27.2684 74.5754 27.2907C74.5865 27.313 74.6086 27.3353 74.6196 27.3465C74.7744 27.5694 74.907 27.7701 74.9401 27.8147C75.0175 27.8927 75.1059 27.7924 75.1059 27.7924C75.1943 27.3242 75.0948 26.9674 74.8959 26.6775Z" fill="#603A17"/>
<path d="M64.696 24.5028C65.2043 24.1571 65.6353 24.2017 65.9558 24.3578C66.5635 24.6588 66.6519 25.1717 66.663 25.3055C66.663 25.3389 66.674 25.3723 66.663 25.4058C66.6077 25.9186 66.221 26.019 66.1105 25.7068C66.0442 25.495 65.8674 25.272 65.6464 25.1271C65.5137 25.049 65.138 24.9041 64.7513 25.1717C64.7292 25.1828 64.7181 25.194 64.696 25.2051C64.6739 25.2163 64.6518 25.2386 64.6408 25.2386C64.4419 25.3835 64.2651 25.5284 64.2209 25.5507C64.1325 25.5953 64.1104 25.4727 64.1104 25.4727C64.2319 24.9933 64.4419 24.6923 64.696 24.5028Z" fill="#603A17"/>
<path d="M75.1385 33.4004C74.4645 35.1507 72.7627 36.1095 71.3372 35.5632C69.9228 35.0058 69.315 33.1328 69.9891 31.3825C70.6631 29.6321 72.3649 28.6734 73.7904 29.2308C75.2048 29.7771 75.8126 31.65 75.1385 33.4004Z" fill="url(#paint15_radial)"/>
<path opacity="0.13" d="M75.282 33.3882C74.5527 35.2388 72.7515 36.2645 71.2376 35.6736C69.7237 35.0827 69.0938 33.1094 69.8121 31.2476C70.5304 29.3969 72.3426 28.3713 73.8565 28.951C75.3594 29.553 76.0003 31.5375 75.282 33.3882Z" fill="url(#paint16_linear)"/>
<path opacity="0.13" d="M66.6298 31.1032C65.8452 32.5748 64.3202 33.0988 63.2373 32.285C62.1433 31.4711 61.9113 29.6205 62.6958 28.1488C63.4804 26.6772 65.0054 26.1532 66.0883 26.9671C67.1602 27.7921 67.4033 29.6316 66.6298 31.1032Z" fill="url(#paint17_linear)"/>
<path d="M66.8402 30.1557C66.4866 31.7612 65.2268 32.8537 64.0223 32.6084C62.8178 32.3632 62.1217 30.8581 62.4642 29.2527C62.8178 27.6473 64.0776 26.5547 65.2821 26.8C66.4866 27.0564 67.1827 28.5503 66.8402 30.1557Z" fill="url(#paint18_radial)"/>
<path d="M66.221 30.5677C65.9669 31.3258 65.2817 31.7829 64.7071 31.5822C64.1325 31.3816 63.8673 30.6012 64.1325 29.843C64.3867 29.0849 65.0718 28.6278 65.6464 28.8285C66.221 29.0292 66.4752 29.8096 66.221 30.5677Z" fill="url(#paint19_radial)"/>
<path d="M65.9112 30.6024C65.7123 31.1822 65.215 31.5278 64.7951 31.3828C64.3752 31.2379 64.1873 30.647 64.3862 30.0673C64.5851 29.4876 65.0824 29.142 65.5023 29.2869C65.9222 29.4318 66.1101 30.0227 65.9112 30.6024Z" fill="#341718"/>
<path d="M65.0054 29.765C64.906 29.9545 64.696 30.0437 64.5413 29.9545C64.3866 29.8653 64.3314 29.6423 64.4308 29.4528C64.5303 29.2633 64.7402 29.1741 64.8949 29.2633C65.0607 29.3525 65.1049 29.5755 65.0054 29.765Z" fill="white"/>
<path d="M65.6903 31.1699C65.6129 31.326 65.4582 31.3929 65.3477 31.326C65.2372 31.2591 65.2041 31.0919 65.2814 30.9358C65.3588 30.7797 65.5135 30.7128 65.624 30.7797C65.7345 30.8466 65.7676 31.0139 65.6903 31.1699Z" fill="white"/>
<path d="M67.8345 37.0014C68.0666 36.6558 68.387 36.0538 68.0224 35.8865C67.6688 35.7193 67.1936 36.3102 66.9395 36.7004L67.8345 37.0014Z" fill="#603A17"/>
<path d="M64.6406 35.9529C64.6627 35.5292 64.7511 34.8603 65.1379 34.9495C65.5247 35.0275 65.5578 35.7856 65.5357 36.2539L64.6406 35.9529Z" fill="#603A17"/>
<path d="M75.1385 33.4004C74.4645 35.1507 72.7627 36.1095 71.3372 35.5632C69.9228 35.0058 69.315 33.1328 69.9891 31.3825C70.6631 29.6321 72.3649 28.6734 73.7904 29.2308C75.2048 29.7771 75.8126 31.65 75.1385 33.4004Z" fill="url(#paint20_radial)"/>
<path d="M74.3212 33.7354C73.8902 34.5493 72.9952 34.906 72.3321 34.5493C71.6691 34.1925 71.4702 33.2449 71.9122 32.4422C72.3432 31.6283 73.2383 31.2716 73.9013 31.6283C74.5643 31.9739 74.7522 32.9216 74.3212 33.7354Z" fill="url(#paint21_radial)"/>
<path d="M74.0779 33.6561C73.7574 34.2582 73.0944 34.5257 72.5861 34.2582C72.0888 33.9906 71.9452 33.2882 72.2767 32.6862C72.5971 32.0842 73.2601 31.8166 73.7685 32.0842C74.2547 32.3406 74.3983 33.0541 74.0779 33.6561Z" fill="#341718"/>
<path d="M72.9842 32.5423C72.8406 32.743 72.5754 32.7988 72.3986 32.665C72.2218 32.5312 72.1997 32.2636 72.3433 32.063C72.487 31.8623 72.7522 31.8177 72.929 31.9515C73.1168 32.0741 73.1389 32.3417 72.9842 32.5423Z" fill="white"/>
<path d="M73.5913 34.2919C73.4697 34.448 73.2708 34.4926 73.1493 34.3923C73.0167 34.2919 73.0167 34.0912 73.1272 33.9352C73.2377 33.7791 73.4476 33.7345 73.5692 33.8348C73.6908 33.9352 73.7018 34.147 73.5913 34.2919Z" fill="white"/>
<path d="M94.9296 24.6483C94.9296 24.6483 86.9954 14.1463 85.6694 12.7081C85.6694 12.7081 85.1058 11.9835 84.4759 11.7939C83.846 11.6156 69.9557 7.83618 68.2871 7.80273C68.2871 7.80273 70.8729 11.0581 75.1162 14.2689L71.5249 16.2868C71.5249 16.2868 72.7736 19.9213 77.6357 22.073C82.4979 24.2358 86.0451 24.1466 86.0451 24.1466L86.4429 21.0362C89.2497 22.4409 92.0454 23.6338 94.9296 24.6483Z" fill="url(#paint22_radial)"/>
<path opacity="0.43" d="M88.0674 36.4985C88.0674 36.4985 87.4044 36.0971 87.8685 35.339C88.3326 34.5698 89.1062 33.9008 88.4763 33.5441C87.8575 33.1873 86.0231 33.2877 87.8243 31.6265C89.6255 29.9654 93.4821 29.2296 94.2004 31.3478C94.9076 33.4772 90.9958 38.1373 88.0674 36.4985Z" fill="url(#paint23_linear)"/>
<path opacity="0.9" d="M64.1877 33.667C62.718 31.8163 61.9887 31.7606 61.0273 31.4707L60.1543 31.8944C62.1544 31.7606 64.1877 33.667 64.1877 33.667Z" fill="url(#paint24_linear)"/>
<path opacity="0.42" d="M85.3929 39.5656C85.3598 39.7663 85.3487 40.1119 85.2051 40.3795C88.7301 40.7808 91.0839 38.8633 91.0839 38.8633C89.0396 39.5768 87.0173 39.6548 85.3929 39.5656Z" fill="url(#paint25_linear)"/>
<path opacity="0.27" d="M56.5518 36.9121C56.5518 36.9121 62.6958 43.9915 70.6962 41.929C70.6962 41.9178 62.6184 42.2189 56.5518 36.9121Z" fill="url(#paint26_linear)"/>
<path d="M89.0841 17C88.8963 19.4415 88.8631 22.1061 89.493 23.4662L90.1228 23.5777C90.1228 23.5777 89.3383 22.3848 89.6145 17.6578L89.0841 17Z" fill="url(#paint27_linear)"/>
<path d="M89.2498 25.9421L88.9404 23.9353C88.9404 23.9353 89.0399 23.4894 89.2388 23.4225C89.4377 23.3556 90.0013 22.9765 90.0013 22.9765C90.0013 22.9765 90.4764 22.8204 90.6201 23.1326C90.7637 23.4336 91.5815 24.7715 91.5815 24.7715C91.5815 24.7715 91.6036 25.1171 91.4157 25.2285C91.2168 25.3177 89.4598 26.2542 89.2498 25.9421Z" fill="url(#paint28_linear)"/>
<path d="M89.4716 26.0195L89.2285 28.7732C89.2285 28.7732 90.3004 29.2192 91.317 28.8512C92.3337 28.4722 93.0298 27.8925 92.9304 27.6806C92.842 27.4688 91.3944 25.2168 91.3944 25.2168L89.4716 26.0195Z" fill="url(#paint29_linear)"/>
<path d="M89.2062 23.4766L90.2228 25.4387L89.372 25.7955L89.0957 23.811L89.2062 23.4766Z" fill="url(#paint30_linear)"/>
<path d="M90.0234 28.9406L90.0676 28.9741C90.1892 28.9852 90.3218 28.9964 90.4654 28.9964L90.0345 26.1869L90.0234 28.9406ZM91.0511 28.9295C91.1395 28.9072 91.239 28.8849 91.3274 28.8514C91.3937 28.818 91.471 28.7957 91.5373 28.7623L91.5705 28.6954L90.4213 26.1869L91.0511 28.9295ZM91.4268 25.9082L92.3993 28.1156L92.4214 28.294C92.5982 28.1714 92.7308 28.0599 92.8192 27.9596L91.4268 25.9082ZM91.8688 28.6173C92.0236 28.5393 92.1672 28.4612 92.2888 28.3832L90.9517 26.1646L91.8688 28.6173Z" fill="url(#paint31_radial)"/>
<path opacity="0.88" d="M89.1843 17.123C89.1843 17.123 88.897 20.3116 89.2506 21.6605C89.2506 21.6605 89.1733 18.394 89.339 17.3572L89.1843 17.123Z" fill="url(#paint32_linear)"/>
<path opacity="0.43" d="M92.941 27.6807C92.8526 27.4688 91.405 25.2168 91.405 25.2168C91.5928 25.1053 91.5707 24.7597 91.5707 24.7597C91.5707 24.7597 90.753 23.433 90.6093 23.1209C90.4657 22.8087 89.9905 22.9648 89.9905 22.9648C89.9905 22.9648 89.427 23.3439 89.228 23.4107C89.0291 23.4776 88.9297 23.9236 88.9297 23.9236L89.2391 25.9303C89.2833 25.9972 89.3938 25.9972 89.5485 25.9749L89.4712 26.0084L89.228 28.7621C89.228 28.7621 90.2999 29.208 91.3166 28.8401C92.3443 28.4722 93.0294 27.9036 92.941 27.6807Z" fill="url(#paint33_radial)"/>
<path d="M76.5533 40.4464C72.741 42.0295 69.0722 42.0407 65.9008 41.3606C65.3814 41.2491 64.8731 41.1042 64.3758 40.9593C63.5691 40.714 62.8288 40.4464 62.1436 40.1789C62.1326 40.1789 62.1326 40.1677 62.1215 40.1677C61.8121 40.0451 61.5248 39.9113 61.2375 39.7887C61.1712 39.7552 61.116 39.7329 61.0497 39.7106C58.1987 38.3728 56.5411 36.8677 55.8118 36.1096C55.7786 36.0873 55.7676 36.0762 55.7676 36.0762C55.7676 36.0762 57.3699 38.2947 61.3038 40.1454C61.3591 40.1789 61.4254 40.2012 61.4806 40.2346C61.7569 40.3572 62.0442 40.491 62.3426 40.6137C62.3536 40.6137 62.3536 40.6248 62.3647 40.6248C63.0277 40.9035 63.757 41.1599 64.5416 41.3941C65.0278 41.539 65.514 41.6728 66.0334 41.7731C69.1275 42.4309 72.7189 42.4086 76.4539 40.792C76.5975 40.7363 76.6528 40.5691 76.5975 40.4241C76.5865 40.4241 76.5754 40.4353 76.5533 40.4464Z" fill="#603A17"/>
<path d="M76.564 39.2422C76.564 39.2422 75.3927 40.9591 77.6248 41.4496C77.6248 41.4608 76.1662 40.7361 76.564 39.2422Z" fill="#603A17"/>
<path d="M117.373 74.4379C117.373 74.6163 117.229 74.7612 117.052 74.7612C116.876 74.7612 116.743 74.6163 116.743 74.4379V72.5649H116.279C116.113 72.5649 115.98 72.4311 115.98 72.2639C115.98 72.0967 116.113 71.9629 116.279 71.9629H117.837C118.003 71.9629 118.135 72.0967 118.135 72.2639C118.135 72.4423 118.003 72.5649 117.837 72.5649H117.373V74.4379Z" fill="#4E4C50"/>
<path d="M119.241 73.9911L118.931 73.4894V74.4594C118.931 74.6378 118.788 74.7827 118.622 74.7827C118.445 74.7827 118.312 74.6378 118.312 74.4594V72.2185C118.312 72.0847 118.412 71.9844 118.545 71.9844C118.633 71.9844 118.699 72.029 118.743 72.0959L119.616 73.5229L120.489 72.0959C120.534 72.029 120.611 71.9844 120.688 71.9844C120.821 71.9844 120.92 72.0847 120.92 72.2185V74.4594C120.92 74.6378 120.777 74.7827 120.6 74.7827C120.423 74.7827 120.291 74.6378 120.291 74.4594V73.4894L119.981 73.9911C119.904 74.1138 119.771 74.203 119.616 74.203C119.451 74.203 119.318 74.1138 119.241 73.9911Z" fill="#4E4C50"/>
<path d="M47.3359 69.8672C47.3249 69.8003 47.3138 69.7334 47.2917 69.6666C47.2807 69.6443 47.2807 69.622 47.2696 69.5997C47.2586 69.5662 47.2475 69.5328 47.2254 69.4993C47.1923 69.4213 47.1481 69.3544 47.1039 69.2875C47.1039 69.2875 47.0928 69.2764 47.0928 69.2652C47.0486 69.1983 47.0155 69.1426 46.9713 69.098C46.9602 69.0868 46.9602 69.0757 46.9492 69.0645C46.9492 69.0534 46.9381 69.0534 46.9381 69.0422C46.9381 69.0311 46.9271 69.0311 46.916 69.0199C46.5955 68.5628 45.9325 67.6264 45.5679 66.9686C45.5568 66.9463 45.5458 66.9351 45.5347 66.9128C45.5237 66.8905 45.5126 66.8794 45.5016 66.8571C45.2032 66.2997 44.9822 65.8649 44.9822 65.8649C44.938 65.7645 44.8938 65.653 44.8496 65.5527C44.496 64.7723 44.2087 64.0253 43.9766 63.3341C43.3799 61.4054 42.9489 58.3953 42.9489 58.3953C42.9047 58.0051 42.8716 57.7152 42.8605 57.6372C42.8163 57.2916 42.7721 56.9794 42.7058 56.6784C42.308 54.6271 41.4792 53.5122 40.1863 53.2781C40.0427 53.2558 39.888 53.2335 39.7443 53.2335C38.6724 53.2335 37.6116 53.9804 36.5839 55.4409C35.6778 56.7564 34.7053 59.1534 34.2081 60.4578L32.871 64.0365C32.8268 64.148 32.7052 64.4936 32.4179 64.4936C32.2743 64.4936 32.0864 64.4044 31.9427 63.9919C31.777 63.4233 31.6554 62.8436 31.567 62.3419C31.556 62.3085 30.9703 58.7632 30.031 52.5869C29.5117 49.1531 28.1967 47.3136 26.1634 47.2578C23.5003 47.2578 21.4228 50.7919 19.9752 57.7598C17.7209 68.5851 20.4504 75.5642 20.5609 75.854C20.804 76.4449 21.3344 76.8574 21.9643 76.9355C22.0306 76.9466 22.0969 76.9466 22.1632 76.9466C22.3842 76.9466 22.6052 76.902 22.8151 76.824C23.6881 76.4672 24.1191 75.4415 23.7655 74.5608C23.7434 74.4939 21.3344 68.1838 23.3566 58.4845C24.108 54.8612 24.9258 52.8879 25.4893 51.8622C25.6109 51.6727 25.7545 51.5835 25.9092 51.5835C26.2297 51.5835 26.3623 51.9514 26.4176 52.0963C26.4839 52.3862 26.5612 52.7206 26.6165 53.122C27.5557 59.2983 28.1635 62.8993 28.1635 62.9216C28.6387 65.7311 29.6995 69.1203 32.0422 69.3767C32.1306 69.3878 32.219 69.3878 32.3074 69.3878C34.5396 69.3878 35.6778 66.4 36.1087 65.274L37.5011 61.5615C37.91 60.4578 38.363 59.4656 38.6724 58.8189C38.8161 58.5291 38.9708 58.3953 39.1365 58.3953C39.3465 58.3953 39.4791 58.5737 39.5123 58.9304C39.5233 59.0977 39.5454 59.276 39.5454 59.4656L39.5565 59.5547C39.5675 59.722 39.899 62.721 41.435 66.3777C41.4571 66.4335 41.4792 66.4892 41.5013 66.5561V66.5672C41.6229 66.8571 41.7886 67.2362 41.9875 67.6709C42.5843 68.9419 43.5014 70.7926 44.507 71.5618C44.6286 71.651 44.7501 71.7402 44.8717 71.8071C45.0927 71.9074 45.3248 71.9632 45.5789 71.9632C46.5513 71.9632 47.347 71.1605 47.347 70.1794C47.347 70.0902 47.3359 70.001 47.3249 69.923C47.3359 69.9007 47.3359 69.8895 47.3359 69.8672ZM54.5408 57.2358C50.4963 57.2358 47.2254 60.5358 47.2254 64.6162C47.2254 68.6855 50.4963 71.9966 54.5408 71.9966C58.5742 71.9966 61.8561 68.6966 61.8561 64.6162C61.8561 60.5358 58.5742 57.2358 54.5408 57.2358ZM57.6349 65.8091C56.5519 67.147 55.2148 68.0166 54.5518 68.4068C53.8888 68.0166 52.5517 67.147 51.4688 65.8091C49.9549 63.9473 50.872 61.7845 52.4522 61.8179C53.933 61.8514 54.5629 63.3007 54.5629 63.3007C54.5629 63.3007 54.5629 63.3007 54.5629 63.2895V63.3007C54.5629 63.3007 55.1927 61.8514 56.6735 61.8179C58.2316 61.7845 59.1377 63.9473 57.6349 65.8091ZM104.113 68.3064C104.102 67.7936 103.892 67.3253 103.527 66.9797C103.284 66.7456 102.986 66.5895 102.665 66.5115C102.533 66.478 102.389 66.4669 102.256 66.4669C101.737 66.4669 101.251 66.6899 100.897 67.0689C100.234 67.7824 99.3058 68.1949 98.3445 68.1949C98.0903 68.1949 97.8361 68.1615 97.5709 68.1057C96.6648 67.8939 95.8913 67.3253 95.394 66.5226C94.8967 65.7199 94.742 64.7612 94.9409 63.8358C95.3056 62.2304 96.7311 61.0598 98.3445 61.0598C98.6097 61.0598 98.8638 61.0933 99.118 61.149C99.56 61.2493 100.002 61.45 100.4 61.751C100.51 61.8514 100.842 62.197 100.72 62.5426C100.566 62.9997 99.7037 63.2784 98.1898 63.3564L98.1235 63.3676L97.9687 63.4122C97.4273 63.5571 97.0516 64.0588 97.0516 64.6274C97.0516 65.2963 97.5599 65.8426 98.2119 65.8872H98.245L98.4329 65.876C98.687 65.8649 104.676 65.4635 104.787 62.7321V62.6095C104.831 62.0855 104.765 61.5504 104.588 61.0487C104.566 60.9818 104.544 60.9149 104.511 60.848L104.411 60.6585C104.4 60.6362 104.389 60.6139 104.356 60.5581C104.267 60.4132 104.201 60.3017 104.146 60.246L104.069 60.1679C103.041 58.7855 101.571 57.8156 99.9357 57.4365C99.4164 57.3139 98.8749 57.2581 98.3334 57.2581C94.9962 57.2581 92.0457 59.6662 91.3054 62.9885C90.8744 64.9061 91.2059 66.8794 92.2336 68.5517C93.2613 70.224 94.8636 71.3834 96.7311 71.8182C97.2505 71.9409 97.7919 71.9966 98.3224 71.9966C100.311 71.9966 102.234 71.1493 103.593 69.6777C103.947 69.2986 104.135 68.8193 104.113 68.3064ZM119.318 57.2804C119.241 57.2693 119.174 57.2693 119.053 57.2693C119.042 57.2693 119.031 57.2693 119.02 57.2693C118.136 57.3139 117.406 57.9828 117.296 58.8858C117.241 59.2649 116.721 62.6764 114.025 66.322L113.682 66.7791L113.395 67.0466L113.274 66.6676C112.566 64.4378 111.196 61.1156 108.71 57.9493C108.367 57.5145 107.848 57.2581 107.284 57.2693C106.886 57.2693 106.511 57.4031 106.19 57.6595C105.815 57.9605 105.582 58.3841 105.527 58.8635C105.472 59.3429 105.605 59.8112 105.903 60.1902C109.119 64.2706 110.157 68.7189 110.268 69.2206L110.4 70.0345L109.87 70.4358L109.704 70.5696L109.682 70.5584C107.074 72.4426 103.936 73.825 100.334 74.6611C99.8584 74.7726 99.4605 75.0625 99.1953 75.475C98.9412 75.8875 98.8528 76.378 98.9633 76.8574C99.1622 77.7047 99.8915 78.2844 100.753 78.2844H100.82C100.93 78.2844 101.041 78.2621 101.14 78.2398C118.987 74.1037 120.821 59.9115 120.887 59.3095C121.02 58.3173 120.302 57.4031 119.318 57.2804ZM85.1835 64.003L85.3824 63.8135C86.7858 62.498 88.2776 61.3831 89.8357 60.5135C90.6976 60.023 91.007 58.9304 90.5318 58.0608C90.2114 57.4923 89.6147 57.1355 88.9627 57.1355C88.6643 57.1355 88.3549 57.2135 88.0897 57.3585C86.0454 58.5179 84.1005 60.0007 82.3104 61.7845L82.2772 61.8179L82.233 61.8402L81.8684 62.0186V59.0865C81.8684 58.072 81.0506 57.247 80.045 57.247C79.0395 57.247 78.2217 58.072 78.2217 59.0865V70.1125C78.2217 71.127 79.0395 71.952 80.045 71.952C81.0506 71.952 81.8684 71.127 81.8684 70.1125V66.701L81.9015 66.5449L82.001 66.4669L82.1667 66.3777H82.233C82.3435 66.3777 82.454 66.4334 82.5645 66.5338L88.8964 72.554C89.239 72.8774 89.681 73.0557 90.1451 73.0557C90.6423 73.0557 91.1286 72.8439 91.4711 72.476C91.8026 72.1193 91.9794 71.651 91.9684 71.1605C91.9573 70.6699 91.7474 70.2128 91.3938 69.8784L85.1835 64.003ZM74.4535 57.2693C73.448 57.2693 72.6302 58.0943 72.6302 59.1088V66.1213L72.1661 65.352C70.9727 63.4122 68.8842 60.023 68.2322 59.0531C67.9338 58.6071 67.0277 57.2581 65.7016 57.2581C65.4917 57.2581 65.2817 57.2916 65.0718 57.3585C63.37 57.8825 63.359 59.9227 63.359 61.2159L63.3479 70.1236C63.3479 71.1382 64.1656 71.9632 65.1712 71.9632C66.1768 71.9632 66.9945 71.1382 66.9945 70.1236V63.9027L67.4587 64.6608C68.8068 66.8348 70.2765 69.2429 70.3097 69.2986C71.3815 71.0378 72.5639 71.9632 73.7242 71.9632C73.9231 71.9632 74.122 71.9297 74.332 71.8851C75.5696 71.5395 76.2216 70.3689 76.2769 68.3845V59.1088C76.2658 58.0943 75.4481 57.2693 74.4535 57.2693Z" fill="#EE202E"/>
<path d="M55.0272 84.4281L54.0327 82.8673V85.6321C54.0327 86.301 53.4912 86.8473 52.8282 86.8473C52.1652 86.8473 51.6348 86.301 51.6348 85.6321V78.0065C51.6348 77.4602 52.0436 77.0254 52.5961 77.0254C52.9387 77.0254 53.2592 77.2038 53.4249 77.4936L56.2317 82.1203L59.0385 77.4936C59.2043 77.2149 59.5137 77.0254 59.8673 77.0254C60.4088 77.0254 60.8287 77.4602 60.8287 78.0065V85.6321C60.8287 86.301 60.2983 86.8473 59.6352 86.8473C58.9722 86.8473 58.4307 86.301 58.4307 85.6321V82.8673L57.4362 84.4281C57.2042 84.8629 56.7621 85.1639 56.2317 85.1639C55.7013 85.1639 55.2593 84.8629 55.0272 84.4281Z" fill="#FBAD18"/>
<path d="M73.2046 79.366H71.8012C71.1603 79.366 70.6299 78.8309 70.6299 78.1843C70.6299 77.5377 71.1603 77.0137 71.8012 77.0137H77.017C77.6579 77.0137 78.1883 77.5265 78.1883 78.1843C78.1883 78.8309 77.6579 79.366 77.017 79.366H75.6026V85.6427C75.6026 86.3116 75.0611 86.8468 74.3981 86.8468C73.735 86.8468 73.2046 86.3116 73.2046 85.6427V79.366Z" fill="#FBAD18"/>
<path d="M85.4707 83.3021H82.2329V85.6321C82.2329 86.301 81.6914 86.8473 81.0284 86.8473C80.3654 86.8473 79.835 86.301 79.835 85.6321V78.2406C79.835 77.5717 80.3654 77.0254 81.0284 77.0254C81.6914 77.0254 82.2329 77.5717 82.2329 78.2406V80.9609H85.4707V78.2406C85.4707 77.5717 86.0011 77.0254 86.6641 77.0254C87.3271 77.0254 87.8686 77.5717 87.8686 78.2406V85.6321C87.8686 86.301 87.3271 86.8473 86.6641 86.8473C86.0011 86.8473 85.4707 86.301 85.4707 85.6321V83.3021Z" fill="#FBAD18"/>
<path d="M70.7853 85.2079L68.1885 78.1285C67.9564 77.4819 67.3265 77.0137 66.6193 77.0137C65.9121 77.0137 65.2822 77.4819 65.0502 78.1285L62.4533 85.2079C62.4091 85.3417 62.376 85.4866 62.376 85.6427C62.376 86.3116 62.9395 86.8468 63.6026 86.8468C64.0998 86.8468 64.5308 86.5792 64.6966 86.1332L65.006 85.2637H68.2437L68.5531 86.1332C68.7189 86.5792 69.1499 86.8468 69.6471 86.8468C70.3102 86.8468 70.8737 86.3116 70.8737 85.6427C70.8737 85.4978 70.8406 85.3417 70.7853 85.2079ZM68.7078 81.8187L67.9564 82.4542L68.1995 83.4464C68.2216 83.5356 68.2879 83.8589 68.078 84.0262C67.9454 84.1376 67.7575 84.1265 67.5365 84.015C67.5034 84.0039 67.4702 83.9816 67.4371 83.9593L66.6083 83.4353L65.68 84.0262C65.6027 84.0708 65.3817 84.2157 65.1717 84.1042C65.0723 84.0485 64.9176 83.9035 65.006 83.5022L65.2601 82.4431L64.3761 81.7072C64.1993 81.5289 64.144 81.3728 64.1882 81.2278C64.2214 81.1275 64.2987 81.0049 64.5419 80.9603L65.7795 80.8711L66.1884 79.8454C66.2768 79.667 66.3762 79.5667 66.4978 79.5333C66.5862 79.4998 66.6856 79.511 66.774 79.5556C66.9066 79.6224 66.984 79.7562 67.0392 79.8566L67.4481 80.8711L68.4316 80.938C68.4647 80.938 68.6194 80.9603 68.752 81.0272C68.9289 81.1275 68.9731 81.2613 68.9841 81.3393C68.9952 81.5735 68.7742 81.7518 68.7078 81.8187Z" fill="#FBAD18"/>
</g>
<defs>
<radialGradient id="paint0_radial" cx="0" cy="0" r="1" gradientUnits="userSpaceOnUse" gradientTransform="translate(57.2058 25.3334) rotate(85.4064) scale(5.53915 3.25065)">
<stop offset="0.3939" stop-color="white"/>
<stop offset="0.4187" stop-color="#FFFAF6"/>
<stop offset="0.567" stop-color="#FEEBD9"/>
<stop offset="0.7146" stop-color="#FDE1C6"/>
<stop offset="0.8598" stop-color="#FDDBBB"/>
<stop offset="1" stop-color="#FCD9B7"/>
</radialGradient>
<linearGradient id="paint1_linear" x1="46.7899" y1="22.5034" x2="62.288" y2="27.1388" gradientUnits="userSpaceOnUse">
<stop offset="0.635" stop-color="white" stop-opacity="0"/>
<stop offset="0.6659" stop-color="#FFF1E9" stop-opacity="0.0893"/>
<stop offset="0.7256" stop-color="#FDD5C0" stop-opacity="0.2616"/>
<stop offset="0.8072" stop-color="#F9AA85" stop-opacity="0.4972"/>
<stop offset="0.8606" stop-color="#F68D62" stop-opacity="0.6512"/>
<stop offset="0.8954" stop-color="#DC7B4D" stop-opacity="0.7259"/>
<stop offset="0.9329" stop-color="#CC703E" stop-opacity="0.8063"/>
<stop offset="0.9685" stop-color="#C26A36" stop-opacity="0.8826"/>
<stop offset="1" stop-color="#BF6834" stop-opacity="0.95"/>
</linearGradient>
<linearGradient id="paint2_linear" x1="85.1089" y1="38.0351" x2="80.4952" y2="43.799" gradientUnits="userSpaceOnUse">
<stop stop-color="#A91F27"/>
<stop offset="0.1913" stop-color="#AE1F27"/>
<stop offset="0.3892" stop-color="#BC2028"/>
<stop offset="0.5791" stop-color="#D42029"/>
<stop offset="0.7394" stop-color="#EB2227"/>
</linearGradient>
<radialGradient id="paint3_radial" cx="0" cy="0" r="1" gradientUnits="userSpaceOnUse" gradientTransform="translate(63.0155 15.6333) rotate(16.9322) scale(18.0668 18.2003)">
<stop stop-color="white"/>
<stop offset="0.1049" stop-color="#FCD4C4"/>
<stop offset="0.2345" stop-color="#F7A990"/>
<stop offset="0.3658" stop-color="#F3876B"/>
<stop offset="0.4961" stop-color="#F06A50"/>
<stop offset="0.6254" stop-color="#EE503B"/>
<stop offset="0.7531" stop-color="#EC3A2F"/>
<stop offset="0.8788" stop-color="#EB2929"/>
<stop offset="1" stop-color="#EB2227"/>
</radialGradient>
<radialGradient id="paint4_radial" cx="0" cy="0" r="1" gradientUnits="userSpaceOnUse" gradientTransform="translate(63.1491 30.9687) rotate(16.9322) scale(15.2073 15.3197)">
<stop offset="0.3939" stop-color="white"/>
<stop offset="0.4187" stop-color="#FFFAF6"/>
<stop offset="0.567" stop-color="#FEEBD9"/>
<stop offset="0.7146" stop-color="#FDE1C6"/>
<stop offset="0.8598" stop-color="#FDDBBB"/>
<stop offset="1" stop-color="#FCD9B7"/>
</radialGradient>
<linearGradient id="paint5_linear" x1="87.3078" y1="27.48" x2="81.5443" y2="26.5725" gradientUnits="userSpaceOnUse">
<stop stop-color="#AE1F28"/>
<stop offset="0.2066" stop-color="#B21F28"/>
<stop offset="0.4204" stop-color="#C12029"/>
<stop offset="0.5791" stop-color="#D42029"/>
<stop offset="0.7394" stop-color="#EB2227"/>
</linearGradient>
<radialGradient id="paint6_radial" cx="0" cy="0" r="1" gradientUnits="userSpaceOnUse" gradientTransform="translate(90.2966 31.1659) rotate(16.9322) scale(8.91602 8.98191)">
<stop offset="0.3939" stop-color="white"/>
<stop offset="0.4187" stop-color="#FFFAF6"/>
<stop offset="0.567" stop-color="#FEEBD9"/>
<stop offset="0.7146" stop-color="#FDE1C6"/>
<stop offset="0.8598" stop-color="#FDDBBB"/>
<stop offset="1" stop-color="#FCD9B7"/>
</radialGradient>
<radialGradient id="paint7_radial" cx="0" cy="0" r="1" gradientUnits="userSpaceOnUse" gradientTransform="translate(88.3561 32.4871) rotate(16.9322) scale(8.65503 8.71898)">
<stop offset="0.635" stop-color="white" stop-opacity="0"/>
<stop offset="0.6659" stop-color="#FFF1E9" stop-opacity="0.0893"/>
<stop offset="0.7256" stop-color="#FDD5C0" stop-opacity="0.2616"/>
<stop offset="0.8072" stop-color="#F9AA85" stop-opacity="0.4972"/>
<stop offset="0.8606" stop-color="#F68D62" stop-opacity="0.6512"/>
<stop offset="0.8954" stop-color="#DC7B4D" stop-opacity="0.7259"/>
<stop offset="0.9329" stop-color="#CC703E" stop-opacity="0.8063"/>
<stop offset="0.9685" stop-color="#C26A36" stop-opacity="0.8826"/>
<stop offset="1" stop-color="#BF6834" stop-opacity="0.95"/>
</radialGradient>
<linearGradient id="paint8_linear" x1="67.5429" y1="9.54185" x2="91.3656" y2="16.6671" gradientUnits="userSpaceOnUse">
<stop stop-color="#929497"/>
<stop offset="0.0471" stop-color="#8A8B8D"/>
<stop offset="0.2414" stop-color="#6E6E6F"/>
<stop offset="0.4358" stop-color="#5A595A"/>
<stop offset="0.6281" stop-color="#4C4B4C"/>
<stop offset="0.8174" stop-color="#444444"/>
<stop offset="1" stop-color="#414142"/>
</linearGradient>
<linearGradient id="paint9_linear" x1="75.3134" y1="13.9385" x2="77.3128" y2="16.1213" gradientUnits="userSpaceOnUse">
<stop stop-color="white"/>
<stop offset="0.0432" stop-color="#E7E6E6"/>
<stop offset="0.2054" stop-color="#B3B0B1"/>
<stop offset="0.3687" stop-color="#8F8C8D"/>
<stop offset="0.5305" stop-color="#767475"/>
<stop offset="0.6906" stop-color="#656566"/>
<stop offset="0.848" stop-color="#5C5C5E"/>
<stop offset="1" stop-color="#595A5C"/>
</linearGradient>
<linearGradient id="paint10_linear" x1="83.7577" y1="21.3739" x2="89.7269" y2="19.0207" gradientUnits="userSpaceOnUse">
<stop stop-color="#414142"/>
<stop offset="0.121" stop-color="#464647"/>
<stop offset="0.4199" stop-color="#515153"/>
<stop offset="0.7151" stop-color="#57585A"/>
<stop offset="1" stop-color="#595A5C"/>
</linearGradient>
<linearGradient id="paint11_linear" x1="92.0014" y1="23.0758" x2="84.8183" y2="16.8916" gradientUnits="userSpaceOnUse">
<stop stop-color="#414142"/>
<stop offset="0.121" stop-color="#464647"/>
<stop offset="0.4199" stop-color="#515153"/>
<stop offset="0.7151" stop-color="#57585A"/>
<stop offset="1" stop-color="#595A5C"/>
</linearGradient>
<radialGradient id="paint12_radial" cx="0" cy="0" r="1" gradientUnits="userSpaceOnUse" gradientTransform="translate(75.9644 43.849) rotate(17.0654) scale(4.72289 4.70892)">
<stop offset="0.3939" stop-color="white"/>
<stop offset="0.4187" stop-color="#FFFAF6"/>
<stop offset="0.567" stop-color="#FEEBD9"/>
<stop offset="0.7146" stop-color="#FDE1C6"/>
<stop offset="0.8598" stop-color="#FDDBBB"/>
<stop offset="1" stop-color="#FCD9B7"/>
</radialGradient>
<radialGradient id="paint13_radial" cx="0" cy="0" r="1" gradientUnits="userSpaceOnUse" gradientTransform="translate(74.641 37.5502) rotate(-140.61) scale(3.61087 2.91647)">
<stop offset="0.3939" stop-color="white"/>
<stop offset="0.4187" stop-color="#FFFAF6"/>
<stop offset="0.567" stop-color="#FEEBD9"/>
<stop offset="0.7146" stop-color="#FDE1C6"/>
<stop offset="0.8598" stop-color="#FDDBBB"/>
<stop offset="1" stop-color="#FCD9B7"/>
</radialGradient>
<radialGradient id="paint14_radial" cx="0" cy="0" r="1" gradientUnits="userSpaceOnUse" gradientTransform="translate(68.1638 34.6069) rotate(17.0655) scale(14.4391 14.5606)">
<stop offset="0.635" stop-color="white" stop-opacity="0"/>
<stop offset="0.6659" stop-color="#FFF1E9" stop-opacity="0.0893"/>
<stop offset="0.7256" stop-color="#FDD5C0" stop-opacity="0.2616"/>
<stop offset="0.8072" stop-color="#F9AA85" stop-opacity="0.4972"/>
<stop offset="0.8606" stop-color="#F68D62" stop-opacity="0.6512"/>
<stop offset="0.8954" stop-color="#DC7B4D" stop-opacity="0.7259"/>
<stop offset="0.9329" stop-color="#CC703E" stop-opacity="0.8063"/>
<stop offset="0.9685" stop-color="#C26A36" stop-opacity="0.8826"/>
<stop offset="1" stop-color="#BF6834" stop-opacity="0.95"/>
</radialGradient>
<radialGradient id="paint15_radial" cx="0" cy="0" r="1" gradientUnits="userSpaceOnUse" gradientTransform="translate(72.9311 32.5788) rotate(16.9322) scale(3.16101 3.73811)">
<stop offset="0.8061" stop-color="white"/>
<stop offset="0.828" stop-color="#F8F8F8"/>
<stop offset="0.9154" stop-color="#EBEBEB"/>
<stop offset="1" stop-color="#E7E7E7"/>
</radialGradient>
<linearGradient id="paint16_linear" x1="69.7356" y1="31.4605" x2="75.3711" y2="33.1292" gradientUnits="userSpaceOnUse">
<stop stop-color="#914F37"/>
<stop offset="0.162" stop-color="#93523A"/>
<stop offset="0.3298" stop-color="#9A5C42"/>
<stop offset="0.5004" stop-color="#A76C51"/>
<stop offset="0.6728" stop-color="#BA8467"/>
<stop offset="0.845" stop-color="#D6A888"/>
<stop offset="1" stop-color="#FCD9B7"/>
</linearGradient>
<linearGradient id="paint17_linear" x1="62.6044" y1="28.3166" x2="67.0184" y2="30.2307" gradientUnits="userSpaceOnUse">
<stop stop-color="#914F37"/>
<stop offset="0.162" stop-color="#93523A"/>
<stop offset="0.3298" stop-color="#9A5C42"/>
<stop offset="0.5004" stop-color="#A76C51"/>
<stop offset="0.6728" stop-color="#BA8467"/>
<stop offset="0.845" stop-color="#D6A888"/>
<stop offset="1" stop-color="#FCD9B7"/>
</linearGradient>
<radialGradient id="paint18_radial" cx="0" cy="0" r="1" gradientUnits="userSpaceOnUse" gradientTransform="translate(64.9802 29.8112) rotate(6.84066) scale(2.55811 3.26122)">
<stop offset="0.8061" stop-color="white"/>
<stop offset="0.828" stop-color="#F8F8F8"/>
<stop offset="0.9154" stop-color="#EBEBEB"/>
<stop offset="1" stop-color="#E7E7E7"/>
</radialGradient>
<radialGradient id="paint19_radial" cx="0" cy="0" r="1" gradientUnits="userSpaceOnUse" gradientTransform="translate(65.2132 30.2228) rotate(110.555) scale(1.96607 1.35234)">
<stop offset="0.6485" stop-color="#914F37"/>
<stop offset="0.6844" stop-color="#7C4533"/>
<stop offset="0.7487" stop-color="#60352B"/>
<stop offset="0.8131" stop-color="#4D2924"/>
<stop offset="0.8768" stop-color="#3F201E"/>
<stop offset="0.9395" stop-color="#371A1A"/>
<stop offset="1" stop-color="#341718"/>
</radialGradient>
<radialGradient id="paint20_radial" cx="0" cy="0" r="1" gradientUnits="userSpaceOnUse" gradientTransform="translate(72.9311 32.5788) rotate(16.9322) scale(3.16101 3.73811)">
<stop offset="0.8061" stop-color="white"/>
<stop offset="0.828" stop-color="#F8F8F8"/>
<stop offset="0.9154" stop-color="#EBEBEB"/>
<stop offset="1" stop-color="#E7E7E7"/>
</radialGradient>
<radialGradient id="paint21_radial" cx="0" cy="0" r="1" gradientUnits="userSpaceOnUse" gradientTransform="translate(73.1192 33.068) rotate(120.091) scale(2.24744 1.67433)">
<stop offset="0.6485" stop-color="#914F37"/>
<stop offset="0.6844" stop-color="#7C4533"/>
<stop offset="0.7487" stop-color="#60352B"/>
<stop offset="0.8131" stop-color="#4D2924"/>
<stop offset="0.8768" stop-color="#3F201E"/>
<stop offset="0.9395" stop-color="#371A1A"/>
<stop offset="1" stop-color="#341718"/>
</radialGradient>
<radialGradient id="paint22_radial" cx="0" cy="0" r="1" gradientUnits="userSpaceOnUse" gradientTransform="translate(79.3098 12.6609) rotate(16.9322) scale(17.8013 17.9328)">
<stop stop-color="white" stop-opacity="0"/>
<stop offset="0.1876" stop-color="#ECECEC" stop-opacity="0.142"/>
<stop offset="0.5474" stop-color="#C8C8C9" stop-opacity="0.4142"/>
<stop offset="0.8606" stop-color="#A6A8AC" stop-opacity="0.6512"/>
<stop offset="0.8713" stop-color="#909092" stop-opacity="0.6742"/>
<stop offset="0.8946" stop-color="#6B696A" stop-opacity="0.724"/>
<stop offset="0.9176" stop-color="#4F4C4D" stop-opacity="0.7734"/>
<stop offset="0.94" stop-color="#3C3839" stop-opacity="0.8214"/>
<stop offset="0.9616" stop-color="#2E2B2B" stop-opacity="0.8677"/>
<stop offset="0.982" stop-color="#262223" stop-opacity="0.9114"/>
<stop offset="1" stop-color="#231F20" stop-opacity="0.95"/>
</radialGradient>
<linearGradient id="paint23_linear" x1="86.5891" y1="32.1868" x2="93.1272" y2="34.1423" gradientUnits="userSpaceOnUse">
<stop offset="0.635" stop-color="white" stop-opacity="0"/>
<stop offset="0.6659" stop-color="#FFF1E9" stop-opacity="0.0893"/>
<stop offset="0.7256" stop-color="#FDD5C0" stop-opacity="0.2616"/>
<stop offset="0.8072" stop-color="#F9AA85" stop-opacity="0.4972"/>
<stop offset="0.8606" stop-color="#F68D62" stop-opacity="0.6512"/>
<stop offset="0.8954" stop-color="#DC7B4D" stop-opacity="0.7259"/>
<stop offset="0.9329" stop-color="#CC703E" stop-opacity="0.8063"/>
<stop offset="0.9685" stop-color="#C26A36" stop-opacity="0.8826"/>
<stop offset="1" stop-color="#BF6834" stop-opacity="0.95"/>
</linearGradient>
<linearGradient id="paint24_linear" x1="60.1115" y1="32.2039" x2="64.3155" y2="32.8116" gradientUnits="userSpaceOnUse">
<stop offset="0.3939" stop-color="white"/>
<stop offset="0.4187" stop-color="#FFFAF6"/>
<stop offset="0.567" stop-color="#FEEBD9"/>
<stop offset="0.7146" stop-color="#FDE1C6"/>
<stop offset="0.8598" stop-color="#FDDBBB"/>
<stop offset="1" stop-color="#FCD9B7"/>
</linearGradient>
<linearGradient id="paint25_linear" x1="88.2927" y1="39.1109" x2="87.1689" y2="41.4923" gradientUnits="userSpaceOnUse">
<stop offset="0.3939" stop-color="white"/>
<stop offset="0.4062" stop-color="#FFFAF7"/>
<stop offset="0.5273" stop-color="#FDE3D0"/>
<stop offset="0.6484" stop-color="#FCD2B5"/>
<stop offset="0.7683" stop-color="#FBC6A2"/>
<stop offset="0.8862" stop-color="#FABF97"/>
<stop offset="1" stop-color="#FABC93"/>
</linearGradient>
<linearGradient id="paint26_linear" x1="63.1977" y1="40.6436" x2="62.5524" y2="42.402" gradientUnits="userSpaceOnUse">
<stop stop-color="#914F37"/>
<stop offset="0.162" stop-color="#93523A"/>
<stop offset="0.3298" stop-color="#9A5C42"/>
<stop offset="0.5004" stop-color="#A76C51"/>
<stop offset="0.6728" stop-color="#BA8467"/>
<stop offset="0.845" stop-color="#D6A888"/>
<stop offset="1" stop-color="#FCD9B7"/>
</linearGradient>
<linearGradient id="paint27_linear" x1="88.2127" y1="19.909" x2="90.9729" y2="20.7346" gradientUnits="userSpaceOnUse">
<stop stop-color="#FECF0A"/>
<stop offset="0.0671" stop-color="#FDC810"/>
<stop offset="0.3051" stop-color="#FAB31A"/>
<stop offset="0.5419" stop-color="#F8A41E"/>
<stop offset="0.775" stop-color="#F79B20"/>
<stop offset="1" stop-color="#F79820"/>
</linearGradient>
<linearGradient id="paint28_linear" x1="90.0449" y1="24.4235" x2="91.7023" y2="24.0663" gradientUnits="userSpaceOnUse">
<stop stop-color="#FECF0A"/>
<stop offset="0.0671" stop-color="#FDC810"/>
<stop offset="0.3051" stop-color="#FAB31A"/>
<stop offset="0.5419" stop-color="#F8A41E"/>
<stop offset="0.775" stop-color="#F79B20"/>
<stop offset="1" stop-color="#F79820"/>
</linearGradient>
<linearGradient id="paint29_linear" x1="89.2754" y1="26.6834" x2="92.9435" y2="27.7805" gradientUnits="userSpaceOnUse">
<stop offset="0.00606061" stop-color="white"/>
<stop offset="0.3152" stop-color="#FECF0A"/>
<stop offset="0.3611" stop-color="#FDC810"/>
<stop offset="0.5241" stop-color="#FAB31A"/>
<stop offset="0.6863" stop-color="#F8A41E"/>
<stop offset="0.8459" stop-color="#F79B20"/>
<stop offset="1" stop-color="#F79820"/>
</linearGradient>
<linearGradient id="paint30_linear" x1="89.1424" y1="24.5928" x2="90.6176" y2="25.034" gradientUnits="userSpaceOnUse">
<stop stop-color="white"/>
<stop offset="0.1067" stop-color="#FFF2D1"/>
<stop offset="0.236" stop-color="#FFE7A6"/>
<stop offset="0.3671" stop-color="#FFDE82"/>
<stop offset="0.4972" stop-color="#FFD761"/>
<stop offset="0.6261" stop-color="#FFD242"/>
<stop offset="0.7536" stop-color="#FFCE28"/>
<stop offset="0.8791" stop-color="#FFCC12"/>
<stop offset="1" stop-color="#FFCB09"/>
</linearGradient>
<radialGradient id="paint31_radial" cx="0" cy="0" r="1" gradientUnits="userSpaceOnUse" gradientTransform="translate(90.2971 27.1507) rotate(16.9322) scale(5.35468 5.39424)">
<stop offset="0.103" stop-color="white"/>
<stop offset="0.1418" stop-color="#FFF2D1"/>
<stop offset="0.1888" stop-color="#FFE7A6"/>
<stop offset="0.2365" stop-color="#FFDE82"/>
<stop offset="0.2838" stop-color="#FFD761"/>
<stop offset="0.3307" stop-color="#FFD242"/>
<stop offset="0.3771" stop-color="#FFCE28"/>
<stop offset="0.4227" stop-color="#FFCC12"/>
<stop offset="0.4667" stop-color="#FFCB09"/>
</radialGradient>
<linearGradient id="paint32_linear" x1="88.5651" y1="19.1963" x2="89.8742" y2="19.5878" gradientUnits="userSpaceOnUse">
<stop stop-color="white"/>
<stop offset="0.1067" stop-color="#FFF2D1"/>
<stop offset="0.236" stop-color="#FFE7A6"/>
<stop offset="0.3671" stop-color="#FFDE82"/>
<stop offset="0.4972" stop-color="#FFD761"/>
<stop offset="0.6261" stop-color="#FFD242"/>
<stop offset="0.7536" stop-color="#FFCE28"/>
<stop offset="0.8791" stop-color="#FFCC12"/>
<stop offset="1" stop-color="#FFCB09"/>
</linearGradient>
<radialGradient id="paint33_radial" cx="0" cy="0" r="1" gradientUnits="userSpaceOnUse" gradientTransform="translate(89.3523 26.4371) rotate(16.9322) scale(3.18755 3.2111)">
<stop offset="0.635" stop-color="white" stop-opacity="0"/>
<stop offset="0.6565" stop-color="#FFF5EB" stop-opacity="0.0621"/>
<stop offset="0.698" stop-color="#FEE2C6" stop-opacity="0.1819"/>
<stop offset="0.7553" stop-color="#FDC48E" stop-opacity="0.3474"/>
<stop offset="0.8255" stop-color="#F99D47" stop-opacity="0.55"/>
<stop offset="0.8606" stop-color="#F68A20" stop-opacity="0.6512"/>
<stop offset="0.89" stop-color="#F47B22" stop-opacity="0.7143"/>
<stop offset="0.9295" stop-color="#F26A24" stop-opacity="0.7988"/>
<stop offset="0.9669" stop-color="#F15E24" stop-opacity="0.8791"/>
<stop offset="1" stop-color="#F15A25" stop-opacity="0.95"/>
</radialGradient>
<clipPath id="clip0">
<rect width="101.818" height="82.065" fill="white" transform="translate(19.0908 4.78125)"/>
</clipPath>
</defs>
</svg>
