<svg width="64" height="64" viewBox="0 0 64 64" fill="none" xmlns="http://www.w3.org/2000/svg">
<path d="M30.625 62.625C47.5387 62.625 61.25 48.9137 61.25 32C61.25 15.0863 47.5387 1.375 30.625 1.375C13.7113 1.375 0 15.0863 0 32C0 48.9137 13.7113 62.625 30.625 62.625Z" fill="#FED402"/>
<path d="M59 14.75H5.3185C1.96325 19.6627 0 25.6019 0 32C0 38.3981 1.96325 44.3372 5.3185 49.25H59C61.7614 49.25 64 47.0114 64 44.25V19.75C64 16.9886 61.7614 14.75 59 14.75Z" fill="#EE202E"/>
<path d="M37.5791 31.4096C37.9071 31.4096 38.1739 31.1429 38.1739 30.815C38.1739 30.4869 37.9071 30.2202 37.5791 30.2202C37.2512 30.2202 36.9844 30.4869 36.9844 30.815C36.9845 31.1429 37.2512 31.4096 37.5791 31.4096Z" fill="#EE202E"/>
<path d="M43.7627 38.9184C44.0907 38.9184 44.3575 38.6517 44.3575 38.3238C44.3575 37.9957 44.0907 37.729 43.7627 37.729C43.4348 37.729 43.168 37.9957 43.168 38.3238C43.1681 38.6517 43.4349 38.9184 43.7627 38.9184Z" fill="#EE202E"/>
<path d="M14.5012 40.7141H8.19037C7.60628 40.7141 7.13281 40.2407 7.13281 39.6566V38.599C7.13281 38.0149 7.60628 37.5415 8.19037 37.5415H14.5012C15.4521 37.5415 16.2229 36.7706 16.2229 35.8198V34.2642C16.2229 33.3133 15.4521 32.5425 14.5012 32.5425H8.19037C7.60628 32.5425 7.13281 32.069 7.13281 31.4849V24.1694C7.13281 23.5853 7.60628 23.1118 8.19037 23.1118H17.8759C18.46 23.1118 18.9335 23.5853 18.9335 24.1694V25.2269C18.9335 25.811 18.46 26.2845 17.8759 26.2845H10.3055V29.3698H14.5012C17.2044 29.3698 19.3956 31.5611 19.3956 34.2642V35.8198C19.3957 38.5228 17.2044 40.7141 14.5012 40.7141Z" fill="white"/>
<path d="M28.1282 40.7137H25.0565C22.585 40.7137 20.5742 38.703 20.5742 36.2315V27.5936C20.5742 25.1221 22.585 23.1113 25.0565 23.1113H28.1282C30.5998 23.1113 32.6105 25.1221 32.6105 27.5936V36.2315C32.6105 38.703 30.5998 40.7137 28.1282 40.7137ZM25.0565 26.284C24.3344 26.284 23.7469 26.8715 23.7469 27.5936V36.2315C23.7469 36.9536 24.3344 37.5411 25.0565 37.5411H28.1282C28.8503 37.5411 29.4378 36.9536 29.4378 36.2315V27.5936C29.4378 26.8715 28.8503 26.284 28.1282 26.284H25.0565Z" fill="white"/>
<path d="M37.581 33.5246C36.0868 33.5246 34.8711 32.3091 34.8711 30.8149C34.8711 29.3206 36.0868 28.105 37.581 28.105C39.0752 28.105 40.2909 29.3206 40.2909 30.8149C40.2909 32.3091 39.0752 33.5246 37.581 33.5246ZM37.581 30.2201C37.253 30.2201 36.9862 30.4868 36.9862 30.8149C36.9862 31.1428 37.253 31.4095 37.581 31.4095C37.9089 31.4095 38.1757 31.1428 38.1757 30.8149C38.1757 30.4868 37.9089 30.2201 37.581 30.2201Z" fill="white"/>
<path d="M43.7607 41.0334C42.2664 41.0334 41.0508 39.8179 41.0508 38.3237C41.0508 36.8294 42.2666 35.6138 43.7607 35.6138C45.2548 35.6138 46.4706 36.8294 46.4706 38.3237C46.4706 39.8179 45.2549 41.0334 43.7607 41.0334ZM43.7607 37.7289C43.4327 37.7289 43.1659 37.9956 43.1659 38.3237C43.1659 38.6516 43.4327 38.9183 43.7607 38.9183C44.0886 38.9183 44.3554 38.6516 44.3554 38.3237C44.3554 37.9956 44.0886 37.7289 43.7607 37.7289Z" fill="white"/>
<path d="M37.3536 40.1849C37.1368 40.1849 36.9181 40.1185 36.7298 39.9805C36.2585 39.6355 36.1562 38.9737 36.5011 38.5025L43.1343 29.4417C43.4792 28.9706 44.141 28.8679 44.6124 29.2132C45.0836 29.5582 45.186 30.22 44.841 30.6912L38.2078 39.752C38.0008 40.0349 37.6794 40.1849 37.3536 40.1849Z" fill="white"/>
<path d="M52.8965 37.105C53.1518 37.2544 53.4437 37.3334 53.7413 37.3334C54.0388 37.3334 54.3308 37.2544 54.5861 37.105C56.4701 35.936 58.067 34.375 59.2628 32.5333C59.3905 32.3532 59.4791 32.1495 59.5233 31.9348C59.5675 31.72 59.5663 31.4986 59.5197 31.2843C59.4732 31.07 59.3823 30.8672 59.2526 30.6885C59.1229 30.5098 58.9573 30.3589 58.7657 30.2451C58.5742 30.1313 58.3609 30.0569 58.139 30.0267C57.917 29.9964 57.691 30.0108 57.4749 30.069C57.2589 30.1273 57.0573 30.2281 56.8825 30.3653C56.7078 30.5025 56.5636 30.6732 56.4588 30.8668C56.2176 31.2334 55.9542 31.5856 55.67 31.9214L55.2985 27.2851C55.2985 26.8854 55.1361 26.502 54.8469 26.2193C54.5577 25.9366 54.1655 25.7778 53.7566 25.7778C53.3476 25.7778 52.9554 25.9366 52.6662 26.2193C52.3771 26.502 52.2146 26.8854 52.2146 27.2851L51.8431 31.9513C51.5525 31.6098 51.2888 31.2473 51.0543 30.8668C50.9431 30.6859 50.7964 30.5281 50.6228 30.4026C50.4491 30.277 50.2519 30.1861 50.0423 30.1351C49.8327 30.084 49.6149 30.0738 49.4013 30.1051C49.1877 30.1363 48.9825 30.2084 48.7974 30.3171C48.4235 30.5368 48.1543 30.8927 48.0488 31.3064C47.9433 31.7202 48.0103 32.1579 48.2351 32.5234C49.4255 34.3669 51.0171 35.9313 52.8965 37.105Z" fill="#FED402"/>
</svg>
