<svg width="140" height="98" viewBox="0 0 140 98" fill="none" xmlns="http://www.w3.org/2000/svg">
<path d="M73.9741 25.418C74.4523 25.4332 74.9304 25.5092 75.4009 25.6384C76.1902 25.8437 76.9112 26.2314 77.5563 26.7635C77.5639 26.7711 77.5639 26.7711 77.5715 26.7787C79.8862 28.7019 81.1764 32.4191 81.1537 35.399C81.1537 35.399 78.0876 35.4826 77.1161 40.0664C75.1353 39.8384 72.9116 38.2952 71.3027 36.3492C69.1473 33.0577 69.1473 30.5339 69.7469 28.7855C70.9156 25.6384 73.625 25.4332 73.9741 25.418Z" fill="#FCD9B7"/>
<path d="M72.206 36.7901C70.0507 33.4986 70.0507 30.9748 70.6502 29.234C71.8114 26.0869 74.5208 25.8741 74.8851 25.8589C75.3632 25.8741 75.8413 25.9501 76.3119 26.0793C76.4864 26.1173 76.6534 26.1781 76.8128 26.239C76.3726 25.9729 75.9096 25.7676 75.4087 25.6384C74.9382 25.5092 74.4601 25.4332 73.9819 25.418C73.6252 25.4332 70.9158 25.646 69.7547 28.7855C69.1551 30.5339 69.1551 33.0577 71.3105 36.3492C72.5172 37.8011 74.0654 39.0326 75.5985 39.656C74.369 38.9718 73.1775 37.9532 72.206 36.7901Z" fill="url(#paint0_radial)"/>
<path d="M75.5301 35.2768C75.5301 35.2768 76.2132 35.2008 76.1069 34.4102C76.0007 33.6272 75.6136 32.8138 76.2435 32.7454C76.8734 32.6846 78.323 33.422 77.4578 31.4379C76.585 29.4539 73.7239 27.4774 72.3881 28.9218C71.0524 30.3813 72.5779 35.5428 75.5301 35.2768Z" fill="#E08E62"/>
<path opacity="0.33" d="M73.9741 25.418C74.4523 25.4332 74.9304 25.5092 75.4009 25.6384C76.1902 25.8437 76.9112 26.2314 77.5563 26.7635C77.5639 26.7711 77.5639 26.7711 77.5715 26.7787C79.8862 28.7019 81.1764 32.4191 81.1537 35.399C81.1537 35.399 78.0876 35.4826 77.1161 40.0664C75.1353 39.8384 72.9116 38.2952 71.3027 36.3492C69.1473 33.0577 69.1473 30.5339 69.7469 28.7855C70.9156 25.6384 73.625 25.4332 73.9741 25.418Z" fill="url(#paint1_linear)"/>
<path d="M94.2303 24.1245C91.111 22.4597 88.6065 21.7907 85.9351 21.9656C85.9199 21.9656 85.9123 21.9656 85.9047 21.9656C84.3717 22.1252 84.1136 21.6007 83.4989 20.7797C82.8842 19.9587 81.3511 18.0735 80.5087 19.4722C79.6663 20.8709 82.406 22.6345 82.406 22.6345C82.406 22.6345 82.0873 22.4673 81.7154 22.2696C81.1083 21.9352 80.2355 21.4183 79.7118 20.9165C78.8315 20.088 77.9435 19.6243 77.473 20.0423C77.0176 20.4452 77.268 22.4217 80.4859 23.2123C80.4024 23.2503 80.3266 23.2883 80.2431 23.3263C80.2051 23.3415 80.1748 23.3643 80.1368 23.3795C79.8029 23.5391 79.2944 23.8052 78.7024 24.2005C78.6341 24.2461 78.5886 24.2765 78.5886 24.2765C77.6172 24.9454 76.4484 25.9641 75.4694 27.4464C74.9912 28.2218 74.5966 29.02 74.2778 29.8105C73.6024 31.6501 73.276 33.9459 73.6555 36.7889C72.2211 37.2754 71.0979 39.2746 71.0979 39.2746C70.9385 39.0238 69.5724 38.0736 69.0412 39.267C68.5099 40.4529 69.747 41.7908 69.747 41.7908C68.897 41.3727 68.4568 42.1633 68.4568 42.1633C67.7358 43.9801 70.0657 44.231 70.0657 44.231C72.7827 50.8596 79.7574 52.2203 79.7574 52.2203C82.9525 52.9729 85.4418 53.0945 87.3922 52.7981C87.3998 52.7981 87.4226 52.7981 87.4302 52.7981C87.4833 52.7905 87.544 52.7753 87.6047 52.7677C87.7186 52.7449 87.8324 52.7221 87.9463 52.6992C88.007 52.6916 88.0677 52.6764 88.1284 52.6612C88.2347 52.6384 88.3409 52.6156 88.4472 52.5852C91.6271 51.8098 95.5508 49.7574 99.0191 44.7327C99.2089 44.421 99.391 44.0941 99.558 43.7596C102.495 37.8759 101.873 28.2066 94.2303 24.1245Z" fill="#EB2227"/>
<path d="M91.748 51.3609C93.8199 50.3194 96.0057 48.6471 98.0776 46.0093L98.2218 42.6113C98.2218 42.6113 95.5807 48.5178 92.3931 50.7147C92.0137 50.9808 91.8164 51.1936 91.748 51.3609Z" fill="url(#paint2_linear)"/>
<path d="M71.4852 38.69C71.7508 38.8269 71.9633 39.0017 72.0164 39.0853C72.0164 39.0853 73.1396 37.0861 74.574 36.5996C74.1946 33.7489 74.5209 31.4532 75.1964 29.6136C75.5075 28.823 75.9022 28.0248 76.3803 27.2495C77.3517 25.7747 78.5205 24.7561 79.4995 24.0796C79.4995 24.0796 79.5451 24.0492 79.6134 24.0036C80.2053 23.6083 80.7138 23.3346 81.0478 23.1826C81.0857 23.1674 81.1161 23.1522 81.154 23.1294C81.2375 23.0913 81.321 23.0533 81.4045 23.0153C78.4067 22.278 77.9817 20.5144 78.308 19.9518C77.9741 19.8378 77.6857 19.8454 77.4808 20.0279C77.0254 20.4308 77.2758 22.4072 80.4937 23.1978C80.4103 23.2358 80.3344 23.2738 80.2509 23.3118C80.2129 23.327 80.1826 23.3498 80.1446 23.365C79.8107 23.5246 79.3022 23.7907 78.7102 24.186C78.6419 24.2316 78.5964 24.262 78.5964 24.262C77.625 24.931 76.4562 25.9496 75.4772 27.4319C74.999 28.2073 74.6044 29.0055 74.2856 29.796C73.6102 31.6357 73.2838 33.9314 73.6633 36.7744C72.7298 37.1013 71.9329 38.0591 71.4852 38.69ZM88.3108 52.6163C86.3603 52.9128 83.871 52.7988 80.6759 52.0386C80.6759 52.0386 73.7089 50.6855 70.9843 44.0568C70.9843 44.0568 68.6619 43.806 69.3753 41.9816C69.3753 41.9816 69.4512 41.8599 69.5878 41.7307C68.8517 41.4951 68.4646 42.164 68.4646 42.164C67.7436 43.9808 70.0735 44.2317 70.0735 44.2317C72.7905 50.8603 79.7652 52.2211 79.7652 52.2211C82.9603 52.9736 85.4496 53.0952 87.4 52.7988C87.4076 52.7988 87.4304 52.7988 87.438 52.7988C87.4911 52.7912 87.5518 52.776 87.6125 52.7684C87.7264 52.7456 87.8402 52.7228 87.9541 52.7C88.0148 52.6924 88.0755 52.6772 88.1362 52.6619C88.1969 52.6467 88.2576 52.6315 88.3184 52.6239C88.3184 52.6087 88.3108 52.6163 88.3108 52.6163ZM80.6152 20.7424C81.1464 21.2441 82.0116 21.761 82.6188 22.0955C82.9906 22.2856 83.3094 22.4604 83.3094 22.4604C83.3094 22.4604 80.5696 20.6892 81.412 19.2905C81.4728 19.1917 81.5411 19.1081 81.6094 19.0396C81.1995 18.8952 80.8049 18.9712 80.5013 19.4729C80.2812 19.8454 80.3116 20.2407 80.471 20.6208C80.5317 20.6588 80.5772 20.6968 80.6152 20.7424ZM69.6637 41.6699C69.8762 41.5103 70.2102 41.3886 70.6731 41.6091C70.6731 41.6091 69.436 40.2712 69.9597 39.0853C70.028 38.9333 70.1115 38.8193 70.2026 38.728C69.7776 38.614 69.3146 38.6824 69.0566 39.2678C68.6164 40.256 69.3905 41.3278 69.6637 41.6699Z" fill="url(#paint3_radial)"/>
<path d="M92.4766 39.8753C92.7802 39.0239 96.1271 32.9654 90.3592 30.1907C86.868 28.5108 84.6899 29.4838 83.5211 30.5024C82.5877 31.1562 82.2917 30.472 82.2917 30.472C81.9426 29.0353 80.9635 28.2523 80.197 27.8722C79.2028 27.3857 77.4648 27.5377 76.1215 30.282C74.7782 33.0262 74.5885 36.6142 74.5885 36.6142L74.0496 36.6826C72.4407 36.903 71.1125 39.2672 71.1125 39.2672C70.9532 39.0163 69.5871 38.0661 69.0558 39.2596C68.5246 40.4454 69.7616 41.7833 69.7616 41.7833C68.9116 41.3652 68.4714 42.1558 68.4714 42.1558C67.7505 43.9726 70.0804 44.2235 70.0804 44.2235C72.7974 50.8522 79.772 52.2129 79.772 52.2129C90.5489 54.7594 93.2886 50.0768 94.3967 46.5496C95.4972 43.03 92.4766 39.8753 92.4766 39.8753Z" fill="#FCD9B7"/>
<path d="M90.3597 30.1909C86.8686 28.511 84.6905 29.484 83.5217 30.5026C83.3168 30.6471 83.1498 30.7155 82.998 30.7535C83.0664 30.9359 83.1347 31.1336 83.1726 31.3464C83.1726 31.3464 83.4458 32.0306 84.4021 31.4148C85.6088 30.4266 87.8173 29.5296 91.2477 31.3236C92.0749 31.7569 92.6972 32.251 93.1754 32.7831C92.6897 31.8025 91.8169 30.8903 90.3597 30.1909ZM93.1906 40.7801C93.1298 40.9017 93.0843 41.0006 93.0615 41.069C93.0615 41.069 93.7522 41.8368 94.3214 43.0302C94.0178 42.1104 93.5776 41.335 93.1906 40.7801ZM70.2555 44.6418C70.6805 45.5844 71.1966 46.413 71.7582 47.1503C71.2877 46.4206 70.8627 45.6072 70.5287 44.7026C70.5287 44.7026 70.4225 44.6798 70.2555 44.6418ZM76.1145 30.2898C74.7712 33.034 74.5815 36.622 74.5815 36.622L74.0426 36.6904C72.4337 36.9108 71.1055 39.275 71.1055 39.275C70.9462 39.0241 69.5801 38.0739 69.0488 39.2674C68.5176 40.4532 69.7546 41.7911 69.7546 41.7911C68.9046 41.373 68.4644 42.1636 68.4644 42.1636C68.1001 43.0834 68.51 43.6003 69.0109 43.8892C68.806 43.5775 68.7376 43.1518 68.9881 42.5817C68.9881 42.5817 69.451 41.8063 70.2935 42.2548C70.2935 42.2548 69.1019 40.8865 69.6635 39.7083C70.2328 38.53 70.9841 39.5714 71.1283 39.8147C71.1283 39.8147 72.8738 37.3213 74.7332 37.2985L75.2721 37.2453C75.2721 37.2453 75.5832 33.6649 77.01 30.9663C78.4368 28.2677 80.19 28.1689 81.1614 28.6858C81.2525 28.739 81.3512 28.7922 81.4498 28.853C81.0552 28.3893 80.5922 28.0777 80.19 27.88C79.1958 27.3935 77.4578 27.5456 76.1145 30.2898Z" fill="url(#paint4_radial)"/>
<path d="M101.144 35.5727C100.909 31.3994 99.0951 27.2184 95.1107 24.6719C93.7825 24.8467 92.6138 25.7969 94.329 27.3325C99.2848 31.7795 95.5357 39.708 95.5357 39.708C95.5357 39.708 99.3683 36.4393 101.144 35.5727Z" fill="url(#paint5_linear)"/>
<path d="M107.793 32.5859C107.299 32.3807 106.776 32.2438 106.229 32.1678C105.319 32.0158 104.408 32.0842 103.512 32.3427C103.505 32.3427 103.497 32.3427 103.49 32.3427C100.234 33.2625 97.2207 36.4932 95.8926 39.5643C95.9002 39.5643 99.0042 41.039 97.9189 46.193C100.052 46.8619 103.042 46.2842 105.577 45.0299C109.28 42.6278 110.434 40.0432 110.608 37.9755C110.844 34.2127 108.149 32.7608 107.793 32.5859Z" fill="#FCD9B7"/>
<path d="M101.72 42.0048C101.72 42.0048 101.06 41.6095 101.523 40.857C101.986 40.0968 102.753 39.443 102.13 39.0858C101.508 38.7361 99.6865 38.8349 101.478 37.1929C103.276 35.551 107.116 34.8212 107.83 36.9193C108.543 39.0097 104.635 43.624 101.72 42.0048Z" fill="#E08E62"/>
<path d="M104.27 39.6101C103.808 40.7504 103.14 41.6322 102.487 42.2783C102.229 42.2251 101.971 42.1339 101.72 41.997C101.72 41.997 101.06 41.6017 101.523 40.8492C101.986 40.089 102.753 39.4353 102.13 39.078C101.508 38.7283 99.6865 38.8271 101.478 37.1852C101.842 36.8583 102.282 36.5618 102.76 36.3262C103.8 36.6911 105.105 37.5652 104.27 39.6101Z" fill="#603A17"/>
<path d="M103.087 33.6727C103.094 33.6727 103.102 33.6727 103.109 33.6651C104.005 33.4143 104.923 33.3383 105.834 33.4903C106.373 33.5663 106.896 33.7032 107.397 33.9084C107.762 34.0908 110.448 35.5352 110.213 39.298C110.19 39.5413 110.152 39.7997 110.107 40.0582C110.41 39.3208 110.562 38.6215 110.615 37.9677C110.843 34.2049 108.156 32.7529 107.8 32.5781C107.306 32.3729 106.783 32.236 106.236 32.16C105.325 32.008 104.415 32.0764 103.519 32.3348C103.512 32.3348 103.504 32.3348 103.496 32.3348C100.241 33.2547 97.2276 36.4854 95.8994 39.5565C95.8994 39.5565 95.9829 39.5945 96.1043 39.6781C97.6146 37.0251 100.256 34.4785 103.087 33.6727Z" fill="url(#paint6_radial)"/>
<path opacity="0.43" d="M107.793 32.5859C107.299 32.3807 106.776 32.2438 106.229 32.1678C105.319 32.0158 104.408 32.0842 103.512 32.3427C103.505 32.3427 103.497 32.3427 103.49 32.3427C100.234 33.2625 97.2283 36.4932 95.8926 39.5643C95.9002 39.5643 99.0042 41.039 97.9189 46.193C100.052 46.8619 103.042 46.2842 105.577 45.0299C109.28 42.6278 110.434 40.0432 110.608 37.9755C110.844 34.2127 108.149 32.7608 107.793 32.5859Z" fill="url(#paint7_radial)"/>
<path d="M82.0342 13.627C82.0342 13.627 85.7606 18.302 91.6044 21.9356C97.4482 25.5692 102.829 28.283 108.551 30.2899C108.551 30.2899 100.658 19.906 99.3303 18.492C99.3303 18.492 98.7611 17.7699 98.1388 17.5874C97.5241 17.3974 83.6887 13.665 82.0342 13.627Z" fill="#49494B"/>
<path d="M97.2506 18.416C97.2506 18.416 102.965 23.6612 104.263 25.0903C104.491 25.3412 104.415 25.0979 104.149 24.543C102.093 21.8824 99.96 19.161 99.3301 18.4844C99.3301 18.4844 98.7609 17.7623 98.1386 17.5798C97.5238 17.3974 83.6808 13.665 82.0264 13.627C82.0264 13.627 83.1344 15.0105 85.0773 16.8577C85.267 16.9413 85.3733 16.9945 85.3733 16.9945C85.3733 16.9945 84.6751 15.6414 84.5764 15.4666C84.4929 15.2841 94.0859 17.5874 97.2506 18.416Z" fill="url(#paint8_linear)"/>
<path d="M90.6859 18.9941L85.252 22.0196C85.252 22.0196 86.489 25.6076 91.3386 27.7437C96.1806 29.8798 99.7097 29.7886 99.7097 29.7886L100.393 24.5206C100.393 24.5206 96.4994 19.6707 90.6859 18.9941Z" fill="#4E4C50"/>
<path d="M98.336 22.734C98.336 22.734 97.9338 22.2399 97.1445 21.5785C95.49 20.4154 93.2815 19.2828 90.6859 18.9863L85.252 22.0118C85.252 22.0118 85.8667 23.7906 87.9158 25.577C88.0221 25.5922 88.0904 25.5998 88.0904 25.5998L86.7774 22.7568L90.7542 20.4078C90.7542 20.4154 94.8904 20.5599 98.336 22.734Z" fill="url(#paint9_linear)"/>
<path opacity="0.78" d="M99.7097 29.7873L100.393 24.5193C100.393 24.5193 99.8311 23.8124 98.8066 22.9078L98.7079 22.8926L96.7347 27.2712C95.9606 28.9739 93.623 28.6167 93.623 28.6167L95.6494 29.2628C95.6494 29.2628 96.0365 29.3616 96.7954 29.4756C98.6093 29.8101 99.7097 29.7873 99.7097 29.7873Z" fill="url(#paint10_linear)"/>
<path opacity="0.78" d="M100.666 24.4434L104.195 25.1123L107.8 29.7493C107.8 29.7493 101.827 27.484 100.393 26.5414L100.666 24.4434Z" fill="url(#paint11_linear)"/>
<path opacity="0.65" d="M93.7754 46.4277C93.7754 46.4277 92.5914 52.2202 85.8369 52.2202C85.8369 52.2202 90.6562 51.5741 93.7754 46.4277Z" fill="url(#paint12_radial)"/>
<path d="M85.1836 42.6665C85.1836 42.6665 87.4376 39.5194 91.7636 41.7315C91.7636 41.7315 88.4318 40.9789 85.1836 42.6665Z" fill="url(#paint13_radial)"/>
<path opacity="0.43" d="M92.4766 39.8753C92.7802 39.0239 96.1271 32.9654 90.3592 30.1907C86.868 28.5108 84.6899 29.4838 83.5211 30.5024C82.5877 31.1562 82.2917 30.472 82.2917 30.472C81.9426 29.0353 80.9635 28.2523 80.197 27.8722C79.2028 27.3857 77.4648 27.5377 76.1215 30.282C74.7782 33.0262 74.5885 36.6142 74.5885 36.6142L74.0496 36.6826C72.4407 36.903 71.1125 39.2672 71.1125 39.2672C70.9532 39.0163 69.5871 38.0661 69.0558 39.2596C68.5246 40.4454 69.7616 41.7833 69.7616 41.7833C68.9116 41.3652 68.4714 42.1558 68.4714 42.1558C67.7505 43.9726 70.0804 44.2235 70.0804 44.2235C72.7974 50.8522 79.772 52.2129 79.772 52.2129C90.5489 54.7594 93.2886 50.0768 94.3967 46.5496C95.4972 43.03 92.4766 39.8753 92.4766 39.8753Z" fill="url(#paint14_radial)"/>
<path d="M88.614 32.2894C88.2042 31.7573 87.7185 31.6053 87.3087 31.5977C86.5194 31.5977 86.2006 32.0157 86.1247 32.1298C86.1095 32.1602 86.0944 32.1906 86.0792 32.221C85.9122 32.7151 86.2917 32.966 86.5421 32.7303C86.7091 32.5783 86.9975 32.449 87.2935 32.411C87.4756 32.4034 87.9386 32.4338 88.2497 32.8443C88.2649 32.8595 88.2801 32.8747 88.2953 32.8975C88.3105 32.9203 88.3256 32.9432 88.3408 32.9584C88.5002 33.1712 88.6216 33.3841 88.6596 33.4221C88.7355 33.5057 88.8189 33.3993 88.8189 33.3993C88.9024 32.928 88.8038 32.5707 88.614 32.2894Z" fill="#603A17"/>
<path d="M78.4598 30.1456C78.9683 29.8111 79.4009 29.8491 79.7197 30.0011C80.3268 30.2976 80.4103 30.7993 80.4255 30.9361C80.4255 30.9741 80.4331 31.0045 80.4255 31.035C80.3723 31.5443 79.9853 31.6431 79.879 31.3314C79.8107 31.1262 79.6362 30.9057 79.4237 30.7537C79.2871 30.6777 78.9228 30.5256 78.5281 30.7917C78.5129 30.7993 78.4902 30.8145 78.475 30.8221C78.4598 30.8373 78.4371 30.8525 78.4219 30.8601C78.217 30.9969 78.05 31.1414 78.0045 31.1642C77.9134 31.2098 77.8906 31.0806 77.8906 31.0806C77.9969 30.6169 78.2018 30.328 78.4598 30.1456Z" fill="#603A17"/>
<path d="M88.849 38.9328C88.1736 40.666 86.4811 41.6162 85.0619 41.0689C83.6503 40.514 83.0432 38.6668 83.7186 36.9412C84.3941 35.208 86.0865 34.2578 87.5057 34.8051C88.9173 35.3524 89.5245 37.1996 88.849 38.9328Z" fill="url(#paint15_radial)"/>
<path opacity="0.13" d="M88.9862 38.9261C88.2652 40.7581 86.4665 41.7691 84.9638 41.1914C83.4611 40.6136 82.8312 38.6524 83.5446 36.8204C84.258 34.9884 86.0643 33.9774 87.567 34.5551C89.0697 35.1404 89.7072 37.0941 88.9862 38.9261Z" fill="url(#paint16_linear)"/>
<path opacity="0.13" d="M80.3719 36.6672C79.5902 38.1192 78.0723 38.6361 76.9946 37.8379C75.9094 37.0321 75.6665 35.2001 76.4482 33.7558C77.2299 32.3039 78.7402 31.7793 79.8255 32.5851C80.9107 33.3833 81.1536 35.2153 80.3719 36.6672Z" fill="url(#paint17_linear)"/>
<path d="M80.5845 35.7253C80.2354 37.3064 78.9756 38.3935 77.7765 38.1426C76.5698 37.8918 75.8791 36.4094 76.2283 34.8283C76.5774 33.2395 77.8372 32.1601 79.0363 32.4034C80.2354 32.6618 80.9337 34.1441 80.5845 35.7253Z" fill="url(#paint18_radial)"/>
<path d="M79.9694 36.1355C79.7114 36.8881 79.0359 37.3366 78.4591 37.1313C77.8823 36.9337 77.6243 36.1583 77.8823 35.4134C78.1404 34.6608 78.8158 34.2123 79.3926 34.4099C79.9694 34.6152 80.2274 35.3829 79.9694 36.1355Z" fill="url(#paint19_radial)"/>
<path d="M79.6659 36.1664C79.4686 36.7366 78.9753 37.0863 78.5503 36.9418C78.1329 36.7974 77.9507 36.2121 78.1481 35.6419C78.3378 35.0718 78.8387 34.7221 79.2637 34.8666C79.6735 35.011 79.8633 35.5887 79.6659 36.1664Z" fill="#341718"/>
<path d="M78.7631 35.3448C78.6644 35.5349 78.4595 35.6185 78.3077 35.5349C78.1559 35.4513 78.1028 35.2308 78.2015 35.0408C78.3001 34.8507 78.505 34.7671 78.6644 34.8507C78.8162 34.9268 78.8617 35.1472 78.7631 35.3448Z" fill="white"/>
<path d="M79.4389 36.7284C79.363 36.8804 79.2112 36.9488 79.0974 36.888C78.9835 36.8272 78.9532 36.6523 79.0291 36.5079C79.105 36.3559 79.2567 36.2875 79.3782 36.3483C79.492 36.4091 79.5148 36.5763 79.4389 36.7284Z" fill="white"/>
<path d="M81.5782 42.4969C81.8058 42.1548 82.1246 41.5619 81.7603 41.4022C81.4036 41.2426 80.9407 41.8203 80.6826 42.208L81.5782 42.4969Z" fill="#603A17"/>
<path d="M78.3984 41.4561C78.4136 41.0456 78.5047 40.3767 78.8993 40.4603C79.2864 40.5363 79.3168 41.2889 79.3016 41.745L78.3984 41.4561Z" fill="#603A17"/>
<path d="M88.849 38.9328C88.1736 40.666 86.4811 41.6162 85.0619 41.0689C83.6503 40.514 83.0432 38.6668 83.7186 36.9412C84.3941 35.208 86.0865 34.2578 87.5057 34.8051C88.9173 35.3524 89.5245 37.1996 88.849 38.9328Z" fill="url(#paint20_radial)"/>
<path d="M88.037 39.2608C87.6044 40.0589 86.7165 40.4238 86.0486 40.0589C85.3807 39.7093 85.191 38.7667 85.6312 37.9685C86.0638 37.1703 86.9517 36.8054 87.612 37.1627C88.2799 37.5276 88.4696 38.4626 88.037 39.2608Z" fill="url(#paint21_radial)"/>
<path d="M87.7944 39.1837C87.4756 39.7767 86.8154 40.0503 86.3145 39.7843C85.8212 39.5182 85.677 38.8265 86.0033 38.2259C86.3221 37.633 86.9899 37.3593 87.4832 37.6254C87.9765 37.8914 88.1131 38.5908 87.7944 39.1837Z" fill="#341718"/>
<path d="M86.7087 38.0814C86.5645 38.279 86.2989 38.3322 86.1243 38.203C85.9498 38.0738 85.927 37.8077 86.0712 37.6101C86.2154 37.42 86.481 37.3592 86.6556 37.4961C86.8302 37.6253 86.8529 37.8913 86.7087 38.0814Z" fill="white"/>
<path d="M87.3086 39.8231C87.1872 39.9752 86.9975 40.0208 86.8684 39.9219C86.7394 39.8231 86.7318 39.6255 86.8457 39.4734C86.9595 39.3214 87.1568 39.2758 87.2859 39.3746C87.4149 39.4658 87.4225 39.6711 87.3086 39.8231Z" fill="white"/>
<path d="M108.551 30.2901C108.551 30.2901 100.658 19.9062 99.3301 18.4923C99.3301 18.4923 98.7609 17.7701 98.1386 17.5876C97.5238 17.4052 83.6808 13.6728 82.0264 13.6348C82.0264 13.6348 84.6068 16.8579 88.8188 20.0278L85.2367 22.027C85.2367 22.027 86.4737 25.615 91.3233 27.7511C96.1653 29.8872 99.6944 29.796 99.6944 29.796L100.097 26.7173C102.905 28.0932 105.682 29.2791 108.551 30.2901Z" fill="url(#paint22_radial)"/>
<path opacity="0.43" d="M101.72 42.0048C101.72 42.0048 101.06 41.6095 101.523 40.857C101.986 40.0968 102.753 39.443 102.13 39.0858C101.508 38.7361 99.6865 38.8349 101.478 37.1929C103.276 35.551 107.116 34.8212 107.83 36.9193C108.543 39.0097 104.635 43.624 101.72 42.0048Z" fill="url(#paint23_linear)"/>
<path opacity="0.9" d="M77.9513 39.2073C76.4866 37.3753 75.7656 37.3221 74.8017 37.0332L73.9365 37.4513C75.9173 37.3145 77.9513 39.2073 77.9513 39.2073Z" fill="url(#paint24_linear)"/>
<path opacity="0.42" d="M99.0647 45.0296C99.0344 45.2273 99.0192 45.5618 98.875 45.8354C102.381 46.2307 104.734 44.3379 104.734 44.3379C102.692 45.0372 100.674 45.1133 99.0647 45.0296Z" fill="url(#paint25_linear)"/>
<path opacity="0.27" d="M70.3467 42.4062C70.3467 42.4062 76.4713 49.4074 84.4325 47.3626C84.4325 47.3626 76.3802 47.6514 70.3467 42.4062Z" fill="url(#paint26_linear)"/>
<path d="M102.738 22.7266C102.548 25.1363 102.51 27.7741 103.148 29.1196L103.77 29.2336C103.77 29.2336 102.981 28.0554 103.262 23.3803L102.738 22.7266Z" fill="url(#paint27_linear)"/>
<path d="M102.897 31.5602L102.586 29.5761C102.586 29.5761 102.685 29.1352 102.882 29.0668C103.079 28.9984 103.641 28.6259 103.641 28.6259C103.641 28.6259 104.119 28.4739 104.256 28.7779C104.4 29.082 105.212 30.3971 105.212 30.3971C105.212 30.3971 105.235 30.7392 105.045 30.8456C104.863 30.952 103.11 31.8642 102.897 31.5602Z" fill="url(#paint28_linear)"/>
<path d="M103.125 31.6441L102.89 34.3731C102.89 34.3731 103.96 34.814 104.977 34.4491C105.994 34.0766 106.677 33.5065 106.586 33.2937C106.495 33.0808 105.053 30.8535 105.053 30.8535L103.125 31.6441Z" fill="url(#paint29_linear)"/>
<path d="M102.859 29.127L103.868 31.0654L103.026 31.4227L102.745 29.4614L102.859 29.127Z" fill="url(#paint30_linear)"/>
<path d="M103.671 34.5244L103.716 34.5624C103.845 34.5776 103.974 34.5852 104.111 34.5852L103.678 31.8106L103.671 34.5244ZM104.695 34.5168C104.787 34.494 104.878 34.4788 104.969 34.4407C105.037 34.4103 105.105 34.3875 105.174 34.3571L105.204 34.2963L104.066 31.8182L104.695 34.5168ZM105.067 31.5293L106.039 33.7186L106.062 33.8934C106.236 33.7718 106.365 33.6654 106.456 33.5589L105.067 31.5293ZM105.515 34.2051C105.667 34.1291 105.811 34.0531 105.933 33.977L104.597 31.7878L105.515 34.2051Z" fill="url(#paint31_radial)"/>
<path opacity="0.88" d="M102.836 22.8477C102.836 22.8477 102.555 26.0024 102.905 27.3403C102.905 27.3403 102.829 24.1095 102.996 23.0833L102.836 22.8477Z" fill="url(#paint32_linear)"/>
<path opacity="0.43" d="M106.578 33.2857C106.487 33.0729 105.045 30.8456 105.045 30.8456C105.227 30.7392 105.212 30.3971 105.212 30.3971C105.212 30.3971 104.392 29.082 104.256 28.7779C104.111 28.4739 103.641 28.6259 103.641 28.6259C103.641 28.6259 103.087 28.9984 102.882 29.0668C102.685 29.1352 102.586 29.5761 102.586 29.5761L102.897 31.5602C102.943 31.621 103.049 31.6286 103.201 31.6058L103.125 31.6362L102.89 34.3652C102.89 34.3652 103.96 34.8061 104.977 34.4412C105.986 34.0687 106.669 33.4986 106.578 33.2857Z" fill="url(#paint33_radial)"/>
<path d="M90.2609 45.897C86.4662 47.463 82.8157 47.4706 79.6509 46.794C79.1273 46.68 78.6264 46.5431 78.1331 46.3987C77.3286 46.1631 76.5924 45.897 75.9094 45.6233C75.9018 45.6157 75.8942 45.6157 75.8866 45.6157C75.583 45.4941 75.2946 45.3649 75.0138 45.2357C74.9531 45.2052 74.8924 45.1824 74.8317 45.152C72.0009 43.8293 70.3464 42.347 69.6178 41.5868C69.5874 41.564 69.5723 41.5488 69.5723 41.5488C69.5723 41.5488 71.1736 43.7457 75.0821 45.5777C75.1429 45.6081 75.2036 45.6309 75.2567 45.6613C75.5299 45.7906 75.8107 45.9122 76.1143 46.0338C76.1219 46.0338 76.1295 46.0414 76.1371 46.0414C76.8049 46.3151 77.5259 46.5736 78.3076 46.8092C78.7933 46.946 79.2791 47.0829 79.7875 47.1893C82.8764 47.843 86.4434 47.8126 90.1698 46.2239C90.3064 46.1631 90.3747 46.0034 90.314 45.8666C90.2988 45.8742 90.2836 45.8894 90.2609 45.897Z" fill="#603A17"/>
<path d="M90.2689 44.7188C90.2689 44.7188 89.1001 46.4139 91.3238 46.9004C91.3314 46.9004 89.8742 46.1859 90.2689 44.7188Z" fill="#603A17"/>
<path d="M130.903 79.5122C130.903 79.6946 130.758 79.8315 130.584 79.8315C130.409 79.8315 130.273 79.687 130.273 79.5122V77.665H129.81C129.643 77.665 129.514 77.5358 129.514 77.3609C129.514 77.1937 129.643 77.0645 129.81 77.0645H131.365C131.532 77.0645 131.661 77.1937 131.661 77.3609C131.661 77.5358 131.532 77.665 131.365 77.665H130.903V79.5122Z" fill="#4E4C50"/>
<path d="M132.762 79.0637L132.45 78.562V79.5198C132.45 79.6946 132.314 79.8315 132.139 79.8315C131.965 79.8315 131.828 79.687 131.828 79.5198V77.3001C131.828 77.1709 131.927 77.0645 132.063 77.0645C132.147 77.0645 132.223 77.1101 132.261 77.1785L133.126 78.5924L133.991 77.1785C134.037 77.1101 134.105 77.0645 134.196 77.0645C134.325 77.0645 134.431 77.1709 134.431 77.3001V79.5198C134.431 79.6946 134.295 79.8315 134.12 79.8315C133.946 79.8315 133.809 79.687 133.809 79.5198V78.562L133.498 79.0637C133.422 79.1929 133.285 79.2766 133.133 79.2766C132.974 79.2766 132.845 79.1853 132.762 79.0637Z" fill="#4E4C50"/>
<path d="M61.1638 74.9881C61.1486 74.9197 61.1334 74.8513 61.1182 74.7904C61.1106 74.7676 61.1031 74.7448 61.0955 74.722C61.0803 74.6916 61.0651 74.6536 61.0575 74.6232C61.0196 74.5472 60.9816 74.4788 60.9437 74.4104C60.9437 74.4104 60.9361 74.4028 60.9285 74.3876C60.883 74.3191 60.845 74.2659 60.8071 74.2203C60.7995 74.2127 60.7919 74.1975 60.7843 74.1899C60.7767 74.1823 60.7767 74.1747 60.7691 74.1671C60.7615 74.1595 60.7539 74.1519 60.7539 74.1443C60.4352 73.6958 59.7749 72.7684 59.4106 72.1222C59.403 72.107 59.3879 72.0842 59.3803 72.069C59.3727 72.0462 59.3575 72.031 59.3499 72.0158C59.0539 71.4685 58.8338 71.0276 58.8338 71.0276C58.7883 70.9288 58.7428 70.8224 58.6972 70.7235C58.3481 69.9558 58.0597 69.2184 57.832 68.5342C57.2325 66.6262 56.8075 63.654 56.8075 63.654C56.7619 63.2663 56.7316 62.985 56.724 62.909C56.6861 62.5745 56.6329 62.2552 56.5722 61.9588C56.17 59.9367 55.3503 58.8345 54.0677 58.5988C53.9235 58.576 53.7717 58.5608 53.6275 58.5608C52.5574 58.5608 51.5025 59.2906 50.4855 60.7425C49.5824 62.0424 48.611 64.4065 48.1177 65.6988L46.7819 69.2412C46.7364 69.3552 46.615 69.6897 46.3266 69.6897C46.19 69.6897 45.9926 69.6061 45.856 69.1956C45.6967 68.6255 45.5676 68.0629 45.4842 67.5612C45.4766 67.5308 44.8846 64.0264 43.9511 57.9223C43.435 54.5319 42.1297 52.7075 40.0957 52.6543C37.447 52.6543 35.3751 56.1511 33.9332 63.0382C31.6943 73.7414 34.4037 80.6361 34.5175 80.925C34.7528 81.5103 35.2917 81.9208 35.9216 81.9893C35.9823 81.9969 36.0506 81.9969 36.1113 81.9969C36.3314 81.9969 36.5515 81.9512 36.7564 81.8752C37.6292 81.5179 38.0542 80.5145 37.7051 79.6327C37.6823 79.5719 35.2841 73.3309 37.2952 63.7452C38.0466 60.1648 38.8586 58.2187 39.4203 57.2001C39.5417 57.0177 39.6859 56.9189 39.8453 56.9189C40.164 56.9189 40.293 57.2837 40.3462 57.4282C40.4145 57.7094 40.4828 58.0439 40.5435 58.4392C41.477 64.5434 42.0841 68.1009 42.0841 68.1314C42.5547 70.906 43.6096 74.2659 45.9395 74.5092C46.0306 74.5168 46.1141 74.5244 46.2051 74.5244C48.4212 74.5244 49.5596 71.5673 49.9846 70.4575L51.3659 66.7859C51.7833 65.6988 52.2387 64.7182 52.5423 64.0797C52.6865 63.7908 52.8382 63.654 53.0052 63.654C53.2177 63.654 53.3391 63.8288 53.3771 64.1785C53.3923 64.3457 53.4074 64.5205 53.415 64.7106L53.4226 64.7942C53.4378 64.9614 53.7566 67.9261 55.2972 71.5369C55.32 71.5977 55.3427 71.6509 55.3579 71.7118C55.3579 71.7194 55.3579 71.7194 55.3655 71.727C55.4869 72.0082 55.6539 72.3883 55.8512 72.8216C56.4432 74.0759 57.3615 75.9155 58.3557 76.6757H58.3633C58.4847 76.7669 58.6062 76.8505 58.7276 76.9113C58.9401 77.0101 59.1829 77.0633 59.4334 77.0633C60.4048 77.0633 61.1941 76.2728 61.1941 75.2998C61.1941 75.2161 61.1865 75.1249 61.1714 75.0413C61.1714 75.0261 61.1638 75.0033 61.1638 74.9881ZM68.3357 62.4909C64.3134 62.4909 61.0575 65.752 61.0575 69.7809C61.0575 73.8098 64.3209 77.071 68.3357 77.071C72.3581 77.071 75.6139 73.8098 75.6139 69.7809C75.6215 65.7596 72.3581 62.4909 68.3357 62.4909ZM71.417 70.9744C70.3393 72.2971 69.0036 73.1561 68.3433 73.5438C67.6754 73.1637 66.3473 72.2971 65.2696 70.9744C63.7669 69.1348 64.6776 66.9987 66.2486 67.0291C67.721 67.0595 68.3433 68.4962 68.3433 68.4962C68.3433 68.4962 68.3433 68.4962 68.3433 68.4886C68.3433 68.4962 68.3433 68.4962 68.3433 68.4962C68.3433 68.4962 68.9732 67.0595 70.438 67.0291C72.009 66.9987 72.9197 69.1348 71.417 70.9744ZM117.704 73.4449C117.689 72.9432 117.484 72.4795 117.12 72.1298C116.877 71.9018 116.581 71.7422 116.263 71.6661C116.133 71.6357 115.989 71.6205 115.853 71.6205C115.337 71.6205 114.843 71.8334 114.502 72.2135C113.841 72.9204 112.916 73.3233 111.959 73.3233C111.709 73.3233 111.451 73.2929 111.193 73.2397C110.29 73.0268 109.516 72.4719 109.022 71.6737C108.529 70.8756 108.37 69.933 108.574 69.0132C108.931 67.4244 110.358 66.2689 111.967 66.2689C112.233 66.2689 112.491 66.2993 112.741 66.3602C113.181 66.459 113.614 66.6566 114.024 66.9531C114.13 67.0519 114.464 67.394 114.35 67.7285C114.198 68.177 113.341 68.4506 111.83 68.5342L111.77 68.5418L111.61 68.5799C111.071 68.7243 110.692 69.2184 110.692 69.7809C110.692 70.4423 111.2 70.9896 111.846 71.0276H111.876L112.058 71.02C112.308 71.0048 118.274 70.6171 118.388 67.9109V67.7893C118.433 67.2648 118.365 66.7402 118.183 66.2537C118.16 66.1853 118.137 66.1169 118.107 66.0561L118.008 65.8737C118 65.8508 117.985 65.828 117.955 65.7748C117.871 65.6304 117.803 65.524 117.75 65.4632L117.674 65.3871C116.65 64.0264 115.192 63.0686 113.553 62.6885C113.037 62.5669 112.498 62.5061 111.959 62.5061C108.635 62.5061 105.691 64.893 104.954 68.177C104.529 70.0698 104.856 72.0234 105.88 73.673C106.905 75.3226 108.491 76.4704 110.366 76.8961C110.889 77.0177 111.42 77.0786 111.952 77.0786C113.933 77.0786 115.845 76.2424 117.196 74.7828C117.545 74.4256 117.72 73.9467 117.704 73.4449ZM132.838 62.5441C132.762 62.5365 132.693 62.5289 132.572 62.5365C132.557 62.5365 132.549 62.5365 132.534 62.5365C131.654 62.5745 130.933 63.2435 130.819 64.1329C130.766 64.5053 130.242 67.8881 127.563 71.4837L127.214 71.9322L126.926 72.1983L126.804 71.8182C126.098 69.6137 124.732 66.3298 122.258 63.2055C121.917 62.7722 121.401 62.5289 120.846 62.5289C120.444 62.5289 120.072 62.6657 119.754 62.9166C119.382 63.2131 119.146 63.6388 119.093 64.1101C119.04 64.5814 119.169 65.0527 119.465 65.4251C122.668 69.4617 123.7 73.8554 123.814 74.3571L123.943 75.1629L123.412 75.5658L123.267 75.6874L123.245 75.6722C120.649 77.5347 117.522 78.903 113.933 79.7239C113.462 79.8304 113.06 80.1192 112.802 80.5297C112.544 80.9402 112.46 81.4267 112.566 81.898C112.756 82.7342 113.492 83.312 114.342 83.3043H114.411C114.517 83.2967 114.623 83.2891 114.729 83.2587C132.496 79.169 134.325 65.1439 134.393 64.551C134.53 63.5627 133.824 62.6657 132.838 62.5441ZM98.8525 69.1956L99.0498 69.0132C100.446 67.7133 101.941 66.611 103.482 65.752C104.34 65.2731 104.651 64.1785 104.173 63.3271C103.854 62.7646 103.262 62.4149 102.617 62.4149C102.313 62.4149 102.017 62.4909 101.752 62.6429C99.7101 63.7832 97.7748 65.2579 95.9989 67.0139L95.9686 67.0519L95.923 67.0671L95.5587 67.2496V64.3533C95.5587 63.3499 94.7467 62.5365 93.7449 62.5365C92.7431 62.5365 91.931 63.3499 91.931 64.3533V75.2541C91.931 76.25 92.7431 77.071 93.7449 77.071C94.7467 77.071 95.5587 76.2576 95.5587 75.2541V71.8866L95.5967 71.7346L95.6954 71.6585L95.8547 71.5673H95.923C96.0293 71.5673 96.1431 71.6205 96.2494 71.727L102.556 77.6791C102.898 77.9984 103.338 78.1732 103.801 78.1732C104.294 78.1732 104.78 77.968 105.121 77.6031C105.455 77.2534 105.622 76.7897 105.615 76.3032C105.599 75.8167 105.395 75.3682 105.045 75.0337L98.8525 69.1956ZM88.1667 62.5289C87.1725 62.5289 86.3529 63.3423 86.3529 64.3457V71.2861L85.8823 70.5259C84.6984 68.6103 82.6189 65.2503 81.9586 64.2925C81.6626 63.8516 80.7595 62.5213 79.4389 62.5213C79.2264 62.5213 79.0215 62.5517 78.8166 62.6201C77.1242 63.137 77.1166 65.1515 77.109 66.4362L77.0938 75.2389C77.0938 76.2348 77.9059 77.0558 78.9077 77.0558C79.9095 77.0558 80.7215 76.2424 80.7215 75.2389V69.0892L81.1921 69.8417C82.5354 71.993 83.9926 74.3723 84.0305 74.4332C85.1006 76.1587 86.277 77.0633 87.4305 77.0633C87.6279 77.0633 87.8252 77.0329 88.0301 76.9797C89.2672 76.6377 89.9123 75.4746 89.973 73.521V64.3457C89.9806 63.3423 89.1609 62.5289 88.1667 62.5289Z" fill="#EE202E"/>
<path d="M20.4545 54.7448C19.7942 53.9619 11.4459 49.0512 7.67402 48.2074C7.67402 48.2074 10.8767 50.4271 13.8062 53.2017C16.0223 55.2922 19.2022 57.223 20.3938 56.7593C20.6594 56.6605 20.5228 56.5845 20.6442 56.4552C18.7469 55.1249 11.4535 50.1686 11.4535 50.1686L21.1148 56.1284C21.2058 55.7179 20.8643 55.239 20.4545 54.7448ZM21.3804 59.1158C20.8264 61.2747 18.8531 69.5073 18.8531 69.5073L20.8795 58.8422C20.4469 58.9182 20.113 59.4047 19.7942 59.952C19.2857 60.8338 17.7755 69.9558 18.4357 73.5362C18.4357 73.5362 19.3464 69.9026 20.9023 66.2842C22.0786 63.5476 22.7085 60.0508 21.7826 59.207C21.5701 59.0246 21.5474 59.169 21.3804 59.1158ZM20.4849 57.8539L9.4651 62.2933L20.1661 57.3142C19.4148 57.1394 17.2746 56.9873 13.3584 59.2451C8.33429 62.1413 5.48828 64.2546 5.48828 64.2546C5.48828 64.2546 9.38162 62.7874 12.6071 61.7536C15.6808 60.7654 20.9933 58.8118 20.4849 57.8539ZM39.2382 44.6194C39.2382 43.6692 38.5627 43.1979 37.5913 43.1979C36.8703 43.1979 36.7033 42.9014 36.3238 43.2587C36.9538 44.1253 37.5002 45.2883 37.2953 46.459C36.1948 52.6544 33.6144 53.8554 30.3814 64.0341C24.3934 52.4567 26.6322 42.3313 20.1585 42.0196C19.0201 41.9664 16.8647 42.9774 16.4321 43.3043C16.4321 43.3043 17.9196 44.6878 20.538 52.4111V52.4187C21.1224 53.9543 21.5322 55.0641 22.0331 56.6073C22.0483 56.6073 22.1773 57.0634 22.1925 57.0634C23.7862 57.261 26.4425 56.0219 26.4425 56.0219C25.6836 57.3674 22.9893 57.9224 22.3974 57.9148C24.0822 63.1067 25.4635 67.797 27.3153 70.2675C27.3988 70.2751 27.4974 70.2827 27.6113 70.2979C29.205 70.4956 30.905 68.9524 30.905 68.9524C30.4876 70.6552 28.5827 70.9593 27.9224 70.9821C28.5675 71.6206 29.2657 71.9779 30.055 71.9779C30.389 71.9779 30.8595 71.9019 31.2769 71.6586C31.2314 71.423 31.2617 71.1797 31.1934 70.8681C29.5541 63.4488 39.2382 48.9219 39.2382 44.6194Z" fill="#663695"/>
<defs>
<radialGradient id="paint0_radial" cx="0" cy="0" r="1" gradientUnits="userSpaceOnUse" gradientTransform="translate(70.9699 30.9609) rotate(85.3733) scale(5.47621 3.23672)">
<stop offset="0.3939" stop-color="white"/>
<stop offset="0.4187" stop-color="#FFFAF6"/>
<stop offset="0.567" stop-color="#FEEBD9"/>
<stop offset="0.7146" stop-color="#FDE1C6"/>
<stop offset="0.8598" stop-color="#FDDBBB"/>
<stop offset="1" stop-color="#FCD9B7"/>
</radialGradient>
<linearGradient id="paint1_linear" x1="60.6213" y1="28.1633" x2="76.0354" y2="32.807" gradientUnits="userSpaceOnUse">
<stop offset="0.635" stop-color="white" stop-opacity="0"/>
<stop offset="0.6659" stop-color="#FFF1E9" stop-opacity="0.0893"/>
<stop offset="0.7256" stop-color="#FDD5C0" stop-opacity="0.2616"/>
<stop offset="0.8072" stop-color="#F9AA85" stop-opacity="0.4972"/>
<stop offset="0.8606" stop-color="#F68D62" stop-opacity="0.6512"/>
<stop offset="0.8954" stop-color="#DC7B4D" stop-opacity="0.7259"/>
<stop offset="0.9329" stop-color="#CC703E" stop-opacity="0.8063"/>
<stop offset="0.9685" stop-color="#C26A36" stop-opacity="0.8826"/>
<stop offset="1" stop-color="#BF6834" stop-opacity="0.95"/>
</linearGradient>
<linearGradient id="paint2_linear" x1="98.7784" y1="43.5155" x2="94.2245" y2="49.2458" gradientUnits="userSpaceOnUse">
<stop stop-color="#A91F27"/>
<stop offset="0.1913" stop-color="#AE1F27"/>
<stop offset="0.3892" stop-color="#BC2028"/>
<stop offset="0.5791" stop-color="#D42029"/>
<stop offset="0.7394" stop-color="#EB2227"/>
</linearGradient>
<radialGradient id="paint3_radial" cx="0" cy="0" r="1" gradientUnits="userSpaceOnUse" gradientTransform="translate(76.7789 21.372) rotate(16.8172) scale(17.9794 18.0038)">
<stop stop-color="white"/>
<stop offset="0.1049" stop-color="#FCD4C4"/>
<stop offset="0.2345" stop-color="#F7A990"/>
<stop offset="0.3658" stop-color="#F3876B"/>
<stop offset="0.4961" stop-color="#F06A50"/>
<stop offset="0.6254" stop-color="#EE503B"/>
<stop offset="0.7531" stop-color="#EC3A2F"/>
<stop offset="0.8788" stop-color="#EB2929"/>
<stop offset="1" stop-color="#EB2227"/>
</radialGradient>
<radialGradient id="paint4_radial" cx="0" cy="0" r="1" gradientUnits="userSpaceOnUse" gradientTransform="translate(76.912 36.5312) rotate(16.8172) scale(15.1338 15.1543)">
<stop offset="0.3939" stop-color="white"/>
<stop offset="0.4187" stop-color="#FFFAF6"/>
<stop offset="0.567" stop-color="#FEEBD9"/>
<stop offset="0.7146" stop-color="#FDE1C6"/>
<stop offset="0.8598" stop-color="#FDDBBB"/>
<stop offset="1" stop-color="#FCD9B7"/>
</radialGradient>
<linearGradient id="paint5_linear" x1="100.968" y1="33.0811" x2="95.2312" y2="32.1713" gradientUnits="userSpaceOnUse">
<stop stop-color="#AE1F28"/>
<stop offset="0.2066" stop-color="#B21F28"/>
<stop offset="0.4204" stop-color="#C12029"/>
<stop offset="0.5791" stop-color="#D42029"/>
<stop offset="0.7394" stop-color="#EB2227"/>
</linearGradient>
<radialGradient id="paint6_radial" cx="0" cy="0" r="1" gradientUnits="userSpaceOnUse" gradientTransform="translate(103.944 36.7264) rotate(16.8172) scale(8.87291 8.88492)">
<stop offset="0.3939" stop-color="white"/>
<stop offset="0.4187" stop-color="#FFFAF6"/>
<stop offset="0.567" stop-color="#FEEBD9"/>
<stop offset="0.7146" stop-color="#FDE1C6"/>
<stop offset="0.8598" stop-color="#FDDBBB"/>
<stop offset="1" stop-color="#FCD9B7"/>
</radialGradient>
<radialGradient id="paint7_radial" cx="0" cy="0" r="1" gradientUnits="userSpaceOnUse" gradientTransform="translate(102.013 38.0327) rotate(16.8172) scale(8.61322 8.62489)">
<stop offset="0.635" stop-color="white" stop-opacity="0"/>
<stop offset="0.6659" stop-color="#FFF1E9" stop-opacity="0.0893"/>
<stop offset="0.7256" stop-color="#FDD5C0" stop-opacity="0.2616"/>
<stop offset="0.8072" stop-color="#F9AA85" stop-opacity="0.4972"/>
<stop offset="0.8606" stop-color="#F68D62" stop-opacity="0.6512"/>
<stop offset="0.8954" stop-color="#DC7B4D" stop-opacity="0.7259"/>
<stop offset="0.9329" stop-color="#CC703E" stop-opacity="0.8063"/>
<stop offset="0.9685" stop-color="#C26A36" stop-opacity="0.8826"/>
<stop offset="1" stop-color="#BF6834" stop-opacity="0.95"/>
</radialGradient>
<linearGradient id="paint8_linear" x1="81.2872" y1="15.3488" x2="104.981" y2="22.4869" gradientUnits="userSpaceOnUse">
<stop stop-color="#929497"/>
<stop offset="0.0471" stop-color="#8A8B8D"/>
<stop offset="0.2414" stop-color="#6E6E6F"/>
<stop offset="0.4358" stop-color="#5A595A"/>
<stop offset="0.6281" stop-color="#4C4B4C"/>
<stop offset="0.8174" stop-color="#444444"/>
<stop offset="1" stop-color="#414142"/>
</linearGradient>
<linearGradient id="paint9_linear" x1="89.0244" y1="19.6958" x2="90.9998" y2="21.8679" gradientUnits="userSpaceOnUse">
<stop stop-color="white"/>
<stop offset="0.0432" stop-color="#E7E6E6"/>
<stop offset="0.2054" stop-color="#B3B0B1"/>
<stop offset="0.3687" stop-color="#8F8C8D"/>
<stop offset="0.5305" stop-color="#767475"/>
<stop offset="0.6906" stop-color="#656566"/>
<stop offset="0.848" stop-color="#5C5C5E"/>
<stop offset="1" stop-color="#595A5C"/>
</linearGradient>
<linearGradient id="paint10_linear" x1="97.4332" y1="27.0442" x2="103.366" y2="24.6885" gradientUnits="userSpaceOnUse">
<stop stop-color="#414142"/>
<stop offset="0.121" stop-color="#464647"/>
<stop offset="0.4199" stop-color="#515153"/>
<stop offset="0.7151" stop-color="#57585A"/>
<stop offset="1" stop-color="#595A5C"/>
</linearGradient>
<linearGradient id="paint11_linear" x1="105.642" y1="28.727" x2="98.5336" y2="22.5624" gradientUnits="userSpaceOnUse">
<stop stop-color="#414142"/>
<stop offset="0.121" stop-color="#464647"/>
<stop offset="0.4199" stop-color="#515153"/>
<stop offset="0.7151" stop-color="#57585A"/>
<stop offset="1" stop-color="#595A5C"/>
</linearGradient>
<radialGradient id="paint12_radial" cx="0" cy="0" r="1" gradientUnits="userSpaceOnUse" gradientTransform="translate(89.6524 49.258) rotate(16.9496) scale(4.70001 4.65812)">
<stop offset="0.3939" stop-color="white"/>
<stop offset="0.4187" stop-color="#FFFAF6"/>
<stop offset="0.567" stop-color="#FEEBD9"/>
<stop offset="0.7146" stop-color="#FDE1C6"/>
<stop offset="0.8598" stop-color="#FDDBBB"/>
<stop offset="1" stop-color="#FCD9B7"/>
</radialGradient>
<radialGradient id="paint13_radial" cx="0" cy="0" r="1" gradientUnits="userSpaceOnUse" gradientTransform="translate(88.3405 43.0697) rotate(-140.812) scale(3.58526 2.89164)">
<stop offset="0.3939" stop-color="white"/>
<stop offset="0.4187" stop-color="#FFFAF6"/>
<stop offset="0.567" stop-color="#FEEBD9"/>
<stop offset="0.7146" stop-color="#FDE1C6"/>
<stop offset="0.8598" stop-color="#FDDBBB"/>
<stop offset="1" stop-color="#FCD9B7"/>
</radialGradient>
<radialGradient id="paint14_radial" cx="0" cy="0" r="1" gradientUnits="userSpaceOnUse" gradientTransform="translate(81.8855 40.1137) rotate(16.9496) scale(14.369 14.4035)">
<stop offset="0.635" stop-color="white" stop-opacity="0"/>
<stop offset="0.6659" stop-color="#FFF1E9" stop-opacity="0.0893"/>
<stop offset="0.7256" stop-color="#FDD5C0" stop-opacity="0.2616"/>
<stop offset="0.8072" stop-color="#F9AA85" stop-opacity="0.4972"/>
<stop offset="0.8606" stop-color="#F68D62" stop-opacity="0.6512"/>
<stop offset="0.8954" stop-color="#DC7B4D" stop-opacity="0.7259"/>
<stop offset="0.9329" stop-color="#CC703E" stop-opacity="0.8063"/>
<stop offset="0.9685" stop-color="#C26A36" stop-opacity="0.8826"/>
<stop offset="1" stop-color="#BF6834" stop-opacity="0.95"/>
</radialGradient>
<radialGradient id="paint15_radial" cx="0" cy="0" r="1" gradientUnits="userSpaceOnUse" gradientTransform="translate(86.6439 38.1088) rotate(16.8172) scale(3.14573 3.69776)">
<stop offset="0.8061" stop-color="white"/>
<stop offset="0.828" stop-color="#F8F8F8"/>
<stop offset="0.9154" stop-color="#EBEBEB"/>
<stop offset="1" stop-color="#E7E7E7"/>
</radialGradient>
<linearGradient id="paint16_linear" x1="83.471" y1="37.0189" x2="89.0761" y2="38.6906" gradientUnits="userSpaceOnUse">
<stop stop-color="#914F37"/>
<stop offset="0.162" stop-color="#93523A"/>
<stop offset="0.3298" stop-color="#9A5C42"/>
<stop offset="0.5004" stop-color="#A76C51"/>
<stop offset="0.6728" stop-color="#BA8467"/>
<stop offset="0.845" stop-color="#D6A888"/>
<stop offset="1" stop-color="#FCD9B7"/>
</linearGradient>
<linearGradient id="paint17_linear" x1="76.3694" y1="33.9093" x2="80.7546" y2="35.8247" gradientUnits="userSpaceOnUse">
<stop stop-color="#914F37"/>
<stop offset="0.162" stop-color="#93523A"/>
<stop offset="0.3298" stop-color="#9A5C42"/>
<stop offset="0.5004" stop-color="#A76C51"/>
<stop offset="0.6728" stop-color="#BA8467"/>
<stop offset="0.845" stop-color="#D6A888"/>
<stop offset="1" stop-color="#FCD9B7"/>
</linearGradient>
<radialGradient id="paint18_radial" cx="0" cy="0" r="1" gradientUnits="userSpaceOnUse" gradientTransform="translate(78.7407 35.3927) rotate(6.79188) scale(2.54702 3.22437)">
<stop offset="0.8061" stop-color="white"/>
<stop offset="0.828" stop-color="#F8F8F8"/>
<stop offset="0.9154" stop-color="#EBEBEB"/>
<stop offset="1" stop-color="#E7E7E7"/>
</radialGradient>
<radialGradient id="paint19_radial" cx="0" cy="0" r="1" gradientUnits="userSpaceOnUse" gradientTransform="translate(78.9682 35.7745) rotate(110.691) scale(1.94542 1.34542)">
<stop offset="0.6485" stop-color="#914F37"/>
<stop offset="0.6844" stop-color="#7C4533"/>
<stop offset="0.7487" stop-color="#60352B"/>
<stop offset="0.8131" stop-color="#4D2924"/>
<stop offset="0.8768" stop-color="#3F201E"/>
<stop offset="0.9395" stop-color="#371A1A"/>
<stop offset="1" stop-color="#341718"/>
</radialGradient>
<radialGradient id="paint20_radial" cx="0" cy="0" r="1" gradientUnits="userSpaceOnUse" gradientTransform="translate(86.6439 38.1088) rotate(16.8172) scale(3.14573 3.69776)">
<stop offset="0.8061" stop-color="white"/>
<stop offset="0.828" stop-color="#F8F8F8"/>
<stop offset="0.9154" stop-color="#EBEBEB"/>
<stop offset="1" stop-color="#E7E7E7"/>
</radialGradient>
<radialGradient id="paint21_radial" cx="0" cy="0" r="1" gradientUnits="userSpaceOnUse" gradientTransform="translate(86.8423 38.5779) rotate(120.271) scale(2.22586 1.66419)">
<stop offset="0.6485" stop-color="#914F37"/>
<stop offset="0.6844" stop-color="#7C4533"/>
<stop offset="0.7487" stop-color="#60352B"/>
<stop offset="0.8131" stop-color="#4D2924"/>
<stop offset="0.8768" stop-color="#3F201E"/>
<stop offset="0.9395" stop-color="#371A1A"/>
<stop offset="1" stop-color="#341718"/>
</radialGradient>
<radialGradient id="paint22_radial" cx="0" cy="0" r="1" gradientUnits="userSpaceOnUse" gradientTransform="translate(93.0043 18.4325) rotate(16.8172) scale(17.7151 17.7391)">
<stop stop-color="white" stop-opacity="0"/>
<stop offset="0.1876" stop-color="#ECECEC" stop-opacity="0.142"/>
<stop offset="0.5474" stop-color="#C8C8C9" stop-opacity="0.4142"/>
<stop offset="0.8606" stop-color="#A6A8AC" stop-opacity="0.6512"/>
<stop offset="0.8713" stop-color="#909092" stop-opacity="0.6742"/>
<stop offset="0.8946" stop-color="#6B696A" stop-opacity="0.724"/>
<stop offset="0.9176" stop-color="#4F4C4D" stop-opacity="0.7734"/>
<stop offset="0.94" stop-color="#3C3839" stop-opacity="0.8214"/>
<stop offset="0.9616" stop-color="#2E2B2B" stop-opacity="0.8677"/>
<stop offset="0.982" stop-color="#262223" stop-opacity="0.9114"/>
<stop offset="1" stop-color="#231F20" stop-opacity="0.95"/>
</radialGradient>
<linearGradient id="paint23_linear" x1="100.252" y1="37.7372" x2="106.755" y2="39.6962" gradientUnits="userSpaceOnUse">
<stop offset="0.635" stop-color="white" stop-opacity="0"/>
<stop offset="0.6659" stop-color="#FFF1E9" stop-opacity="0.0893"/>
<stop offset="0.7256" stop-color="#FDD5C0" stop-opacity="0.2616"/>
<stop offset="0.8072" stop-color="#F9AA85" stop-opacity="0.4972"/>
<stop offset="0.8606" stop-color="#F68D62" stop-opacity="0.6512"/>
<stop offset="0.8954" stop-color="#DC7B4D" stop-opacity="0.7259"/>
<stop offset="0.9329" stop-color="#CC703E" stop-opacity="0.8063"/>
<stop offset="0.9685" stop-color="#C26A36" stop-opacity="0.8826"/>
<stop offset="1" stop-color="#BF6834" stop-opacity="0.95"/>
</linearGradient>
<linearGradient id="paint24_linear" x1="73.8872" y1="37.7537" x2="78.0723" y2="38.363" gradientUnits="userSpaceOnUse">
<stop offset="0.3939" stop-color="white"/>
<stop offset="0.4187" stop-color="#FFFAF6"/>
<stop offset="0.567" stop-color="#FEEBD9"/>
<stop offset="0.7146" stop-color="#FDE1C6"/>
<stop offset="0.8598" stop-color="#FDDBBB"/>
<stop offset="1" stop-color="#FCD9B7"/>
</linearGradient>
<linearGradient id="paint25_linear" x1="101.95" y1="44.5804" x2="100.844" y2="46.9408" gradientUnits="userSpaceOnUse">
<stop offset="0.3939" stop-color="white"/>
<stop offset="0.4062" stop-color="#FFFAF7"/>
<stop offset="0.5273" stop-color="#FDE3D0"/>
<stop offset="0.6484" stop-color="#FCD2B5"/>
<stop offset="0.7683" stop-color="#FBC6A2"/>
<stop offset="0.8862" stop-color="#FABF97"/>
<stop offset="1" stop-color="#FABC93"/>
</linearGradient>
<linearGradient id="paint26_linear" x1="76.9606" y1="46.0948" x2="76.3262" y2="47.8361" gradientUnits="userSpaceOnUse">
<stop stop-color="#914F37"/>
<stop offset="0.162" stop-color="#93523A"/>
<stop offset="0.3298" stop-color="#9A5C42"/>
<stop offset="0.5004" stop-color="#A76C51"/>
<stop offset="0.6728" stop-color="#BA8467"/>
<stop offset="0.845" stop-color="#D6A888"/>
<stop offset="1" stop-color="#FCD9B7"/>
</linearGradient>
<linearGradient id="paint27_linear" x1="101.87" y1="25.5986" x2="104.615" y2="26.4256" gradientUnits="userSpaceOnUse">
<stop stop-color="#FECF0A"/>
<stop offset="0.0671" stop-color="#FDC810"/>
<stop offset="0.3051" stop-color="#FAB31A"/>
<stop offset="0.5419" stop-color="#F8A41E"/>
<stop offset="0.775" stop-color="#F79B20"/>
<stop offset="1" stop-color="#F79820"/>
</linearGradient>
<linearGradient id="paint28_linear" x1="103.694" y1="30.0611" x2="105.343" y2="29.7031" gradientUnits="userSpaceOnUse">
<stop stop-color="#FECF0A"/>
<stop offset="0.0671" stop-color="#FDC810"/>
<stop offset="0.3051" stop-color="#FAB31A"/>
<stop offset="0.5419" stop-color="#F8A41E"/>
<stop offset="0.775" stop-color="#F79B20"/>
<stop offset="1" stop-color="#F79820"/>
</linearGradient>
<linearGradient id="paint29_linear" x1="102.927" y1="32.2961" x2="106.575" y2="33.3952" gradientUnits="userSpaceOnUse">
<stop offset="0.00606061" stop-color="white"/>
<stop offset="0.3152" stop-color="#FECF0A"/>
<stop offset="0.3611" stop-color="#FDC810"/>
<stop offset="0.5241" stop-color="#FAB31A"/>
<stop offset="0.6863" stop-color="#F8A41E"/>
<stop offset="0.8459" stop-color="#F79B20"/>
<stop offset="1" stop-color="#F79820"/>
</linearGradient>
<linearGradient id="paint30_linear" x1="102.795" y1="30.2295" x2="104.262" y2="30.6715" gradientUnits="userSpaceOnUse">
<stop stop-color="white"/>
<stop offset="0.1067" stop-color="#FFF2D1"/>
<stop offset="0.236" stop-color="#FFE7A6"/>
<stop offset="0.3671" stop-color="#FFDE82"/>
<stop offset="0.4972" stop-color="#FFD761"/>
<stop offset="0.6261" stop-color="#FFD242"/>
<stop offset="0.7536" stop-color="#FFCE28"/>
<stop offset="0.8791" stop-color="#FFCC12"/>
<stop offset="1" stop-color="#FFCB09"/>
</linearGradient>
<radialGradient id="paint31_radial" cx="0" cy="0" r="1" gradientUnits="userSpaceOnUse" gradientTransform="translate(103.945 32.7572) rotate(16.8172) scale(5.32873 5.33595)">
<stop offset="0.103" stop-color="white"/>
<stop offset="0.1418" stop-color="#FFF2D1"/>
<stop offset="0.1888" stop-color="#FFE7A6"/>
<stop offset="0.2365" stop-color="#FFDE82"/>
<stop offset="0.2838" stop-color="#FFD761"/>
<stop offset="0.3307" stop-color="#FFD242"/>
<stop offset="0.3771" stop-color="#FFCE28"/>
<stop offset="0.4227" stop-color="#FFCC12"/>
<stop offset="0.4667" stop-color="#FFCB09"/>
</radialGradient>
<linearGradient id="paint32_linear" x1="102.219" y1="24.893" x2="103.522" y2="25.2853" gradientUnits="userSpaceOnUse">
<stop stop-color="white"/>
<stop offset="0.1067" stop-color="#FFF2D1"/>
<stop offset="0.236" stop-color="#FFE7A6"/>
<stop offset="0.3671" stop-color="#FFDE82"/>
<stop offset="0.4972" stop-color="#FFD761"/>
<stop offset="0.6261" stop-color="#FFD242"/>
<stop offset="0.7536" stop-color="#FFCE28"/>
<stop offset="0.8791" stop-color="#FFCC12"/>
<stop offset="1" stop-color="#FFCB09"/>
</linearGradient>
<radialGradient id="paint33_radial" cx="0" cy="0" r="1" gradientUnits="userSpaceOnUse" gradientTransform="translate(103.004 32.0522) rotate(16.8172) scale(3.17222 3.17652)">
<stop offset="0.635" stop-color="white" stop-opacity="0"/>
<stop offset="0.6565" stop-color="#FFF5EB" stop-opacity="0.0621"/>
<stop offset="0.698" stop-color="#FEE2C6" stop-opacity="0.1819"/>
<stop offset="0.7553" stop-color="#FDC48E" stop-opacity="0.3474"/>
<stop offset="0.8255" stop-color="#F99D47" stop-opacity="0.55"/>
<stop offset="0.8606" stop-color="#F68A20" stop-opacity="0.6512"/>
<stop offset="0.89" stop-color="#F47B22" stop-opacity="0.7143"/>
<stop offset="0.9295" stop-color="#F26A24" stop-opacity="0.7988"/>
<stop offset="0.9669" stop-color="#F15E24" stop-opacity="0.8791"/>
<stop offset="1" stop-color="#F15A25" stop-opacity="0.95"/>
</radialGradient>
</defs>
</svg>
