<svg width="176" height="123" viewBox="0 0 176 123" fill="none" xmlns="http://www.w3.org/2000/svg">
<rect width="176" height="123" fill="white"/>
<path d="M92.9988 31.9019C93.5999 31.9209 94.201 32.0163 94.7925 32.1785C95.7848 32.4361 96.6912 32.9227 97.5022 33.5906C97.5117 33.6001 97.5117 33.6001 97.5212 33.6097C100.431 36.0235 102.053 40.689 102.025 44.4291C102.025 44.4291 98.17 44.534 96.9488 50.2872C94.4586 50.001 91.6631 48.0642 89.6405 45.6217C86.9308 41.4905 86.9308 38.3229 87.6846 36.1285C89.1539 32.1785 92.56 31.9209 92.9988 31.9019Z" fill="#FCD9B7"/>
<path d="M90.7741 46.1751C88.0645 42.0438 88.0645 38.8763 88.8182 36.6914C90.278 32.7415 93.6841 32.4743 94.142 32.4552C94.7431 32.4743 95.3442 32.5697 95.9357 32.7319C96.1552 32.7796 96.3651 32.8559 96.5654 32.9323C96.012 32.5983 95.43 32.3407 94.8003 32.1785C94.2088 32.0163 93.6077 31.9209 93.0067 31.9019C92.5582 31.9209 89.1521 32.1881 87.6924 36.1285C86.9386 38.3229 86.9386 41.4905 89.6483 45.6217C91.1653 47.444 93.1116 48.9896 95.0389 49.772C93.4932 48.9133 91.9953 47.6348 90.7741 46.1751Z" fill="url(#paint0_radial)"/>
<path d="M94.9537 44.2764C94.9537 44.2764 95.8124 44.181 95.6788 43.1888C95.5453 42.2061 95.0587 41.1852 95.8506 41.0993C96.6425 41.023 98.4648 41.9485 97.3771 39.4583C96.2799 36.9681 92.683 34.4875 91.0038 36.3003C89.3246 38.1321 91.2423 44.6104 94.9537 44.2764Z" fill="#E08E62"/>
<path opacity="0.33" d="M92.9988 31.9019C93.5999 31.9209 94.201 32.0163 94.7925 32.1785C95.7848 32.4361 96.6912 32.9227 97.5022 33.5906C97.5117 33.6001 97.5117 33.6001 97.5212 33.6097C100.431 36.0235 102.053 40.689 102.025 44.4291C102.025 44.4291 98.17 44.534 96.9488 50.2872C94.4586 50.001 91.6631 48.0642 89.6405 45.6217C86.9308 41.4905 86.9308 38.3229 87.6846 36.1285C89.1539 32.1785 92.56 31.9209 92.9988 31.9019Z" fill="url(#paint1_linear)"/>
<path d="M118.462 30.28C114.54 28.1906 111.392 27.351 108.033 27.5704C108.014 27.5704 108.005 27.5704 107.995 27.5704C106.068 27.7708 105.744 27.1124 104.971 26.082C104.198 25.0516 102.271 22.6854 101.212 24.441C100.153 26.1965 103.597 28.41 103.597 28.41C103.597 28.41 103.196 28.2001 102.729 27.952C101.965 27.5322 100.868 26.8834 100.21 26.2537C99.1032 25.2138 97.9869 24.6318 97.3953 25.1565C96.8229 25.6622 97.1377 28.1428 101.183 29.1351C101.078 29.1828 100.983 29.2305 100.878 29.2782C100.83 29.2973 100.792 29.3259 100.744 29.345C100.324 29.5454 99.6852 29.8793 98.941 30.3754C98.8551 30.4327 98.7979 30.4708 98.7979 30.4708C97.5766 31.3104 96.1073 32.5889 94.8766 34.4494C94.2755 35.4226 93.7793 36.4244 93.3786 37.4166C92.5295 39.7255 92.1192 42.6069 92.5963 46.1752C90.793 46.7858 89.381 49.295 89.381 49.295C89.1806 48.9802 87.4633 47.7876 86.7954 49.2855C86.1275 50.7739 87.6827 52.4531 87.6827 52.4531C86.6141 51.9283 86.0608 52.9206 86.0608 52.9206C85.1544 55.2009 88.0834 55.5157 88.0834 55.5157C91.4991 63.8354 100.267 65.5432 100.267 65.5432C104.284 66.4878 107.413 66.6404 109.865 66.2683C109.875 66.2683 109.903 66.2683 109.913 66.2683C109.98 66.2588 110.056 66.2397 110.132 66.2302C110.276 66.2015 110.419 66.1729 110.562 66.1443C110.638 66.1347 110.714 66.1157 110.791 66.0966C110.924 66.068 111.058 66.0393 111.191 66.0012C115.189 65.028 120.122 62.452 124.482 56.1454C124.721 55.7542 124.949 55.344 125.159 54.9242C128.852 47.5395 128.069 35.4035 118.462 30.28Z" fill="#EB2227"/>
<path d="M115.34 64.465C117.945 63.1579 120.692 61.0589 123.297 57.7482L123.478 53.4834C123.478 53.4834 120.158 60.8967 116.151 63.654C115.674 63.9879 115.426 64.2551 115.34 64.465Z" fill="url(#paint2_linear)"/>
<path d="M89.8658 48.5603C90.1998 48.732 90.4669 48.9515 90.5337 49.0564C90.5337 49.0564 91.9458 46.5472 93.749 45.9365C93.2719 42.3587 93.6822 39.4774 94.5313 37.1685C94.9225 36.1762 95.4187 35.1744 96.0197 34.2012C97.241 32.3503 98.7103 31.0718 99.941 30.2227C99.941 30.2227 99.9983 30.1845 100.084 30.1273C100.828 29.6311 101.468 29.2877 101.887 29.0968C101.935 29.0778 101.973 29.0587 102.021 29.0301C102.126 28.9824 102.231 28.9347 102.336 28.8869C98.5671 27.9615 98.0329 25.748 98.4431 25.042C98.0233 24.8988 97.6608 24.9084 97.4032 25.1374C96.8307 25.643 97.1456 28.1237 101.191 29.1159C101.086 29.1636 100.991 29.2113 100.886 29.259C100.838 29.2781 100.8 29.3067 100.752 29.3258C100.332 29.5262 99.693 29.8601 98.9488 30.3562C98.8629 30.4135 98.8057 30.4517 98.8057 30.4517C97.5844 31.2913 96.1151 32.5697 94.8844 34.4302C94.2833 35.4034 93.7872 36.4052 93.3864 37.3974C92.5373 39.7063 92.127 42.5877 92.6041 46.156C91.4306 46.5662 90.4288 47.7684 89.8658 48.5603ZM111.018 66.0392C108.566 66.4113 105.437 66.2682 101.42 65.3141C101.42 65.3141 92.6613 63.6158 89.2361 55.2962C89.2361 55.2962 86.3166 54.9813 87.2135 52.6915C87.2135 52.6915 87.3089 52.5389 87.4806 52.3767C86.5551 52.0809 86.0686 52.9205 86.0686 52.9205C85.1622 55.2008 88.0912 55.5156 88.0912 55.5156C91.5069 63.8353 100.275 65.5431 100.275 65.5431C104.292 66.4877 107.421 66.6403 109.873 66.2682C109.883 66.2682 109.911 66.2682 109.921 66.2682C109.988 66.2587 110.064 66.2396 110.14 66.2301C110.283 66.2014 110.427 66.1728 110.57 66.1442C110.646 66.1346 110.722 66.1156 110.799 66.0965C110.875 66.0774 110.951 66.0583 111.028 66.0488C111.028 66.0297 111.018 66.0392 111.018 66.0392ZM101.344 26.0342C102.011 26.6639 103.099 27.3127 103.862 27.7325C104.33 27.971 104.731 28.1905 104.731 28.1905C104.731 28.1905 101.286 25.9674 102.345 24.2119C102.422 24.0879 102.508 23.9829 102.593 23.8971C102.078 23.7158 101.582 23.8112 101.2 24.4409C100.924 24.9084 100.962 25.4045 101.162 25.8816C101.239 25.9293 101.296 25.977 101.344 26.0342ZM87.576 52.3003C87.8432 52.1 88.263 51.9473 88.845 52.224C88.845 52.224 87.2898 50.5448 87.9481 49.0564C88.034 48.8656 88.1389 48.7225 88.2534 48.608C87.7191 48.4649 87.1371 48.5508 86.8128 49.2854C86.2594 50.5257 87.2326 51.871 87.576 52.3003Z" fill="url(#paint3_radial)"/>
<path d="M116.258 50.0486C116.64 48.98 120.847 41.3759 113.596 37.8934C109.207 35.7849 106.469 37.0061 105 38.2846C103.826 39.1051 103.454 38.2465 103.454 38.2465C103.015 36.4432 101.785 35.4605 100.821 34.9835C99.5711 34.3728 97.3863 34.5637 95.6975 38.0079C94.0088 41.4522 93.7703 45.9555 93.7703 45.9555L93.0929 46.0414C91.0702 46.3181 89.4005 49.2853 89.4005 49.2853C89.2002 48.9704 87.4828 47.7778 86.8149 49.2757C86.1471 50.7641 87.7022 52.4433 87.7022 52.4433C86.6337 51.9186 86.0803 52.9108 86.0803 52.9108C85.1739 55.1911 88.103 55.506 88.103 55.506C91.5186 63.8256 100.287 65.5334 100.287 65.5334C113.835 68.7297 117.279 62.8525 118.672 58.4255C120.055 54.008 116.258 50.0486 116.258 50.0486Z" fill="#FCD9B7"/>
<path d="M113.595 37.8937C109.206 35.7851 106.468 37.0064 104.999 38.2848C104.741 38.4661 104.531 38.552 104.34 38.5997C104.426 38.8287 104.512 39.0767 104.56 39.3439C104.56 39.3439 104.903 40.2026 106.105 39.4298C107.622 38.1894 110.399 37.0636 114.711 39.3153C115.751 39.8591 116.534 40.4793 117.135 41.1471C116.524 39.9163 115.427 38.7714 113.595 37.8937ZM117.154 51.1842C117.078 51.3368 117.02 51.4608 116.992 51.5467C116.992 51.5467 117.86 52.5103 118.575 54.0083C118.194 52.8538 117.64 51.8806 117.154 51.1842ZM88.3212 56.0309C88.8555 57.214 89.5043 58.254 90.2103 59.1794C89.6188 58.2635 89.0845 57.2426 88.6647 56.1073C88.6647 56.1073 88.5311 56.0786 88.3212 56.0309ZM95.6868 38.0177C93.9981 41.462 93.7595 45.9653 93.7595 45.9653L93.0821 46.0511C91.0595 46.3278 89.3898 49.2951 89.3898 49.2951C89.1894 48.9802 87.4721 47.7876 86.8042 49.2855C86.1364 50.7739 87.6915 52.4531 87.6915 52.4531C86.6229 51.9283 86.0696 52.9206 86.0696 52.9206C85.6116 54.075 86.1268 54.7238 86.7565 55.0864C86.4989 54.6952 86.413 54.1609 86.7279 53.4453C86.7279 53.4453 87.3099 52.4722 88.3689 53.0351C88.3689 53.0351 86.871 51.3177 87.577 49.8389C88.2926 48.36 89.2372 49.6671 89.4184 49.9725C89.4184 49.9725 91.6128 46.843 93.9504 46.8144L94.6278 46.7476C94.6278 46.7476 95.0189 42.2539 96.8126 38.8668C98.6063 35.4798 100.81 35.3558 102.032 36.0046C102.146 36.0714 102.27 36.1381 102.394 36.2145C101.898 35.6325 101.316 35.2413 100.81 34.9932C99.5604 34.3826 97.3755 34.5734 95.6868 38.0177Z" fill="url(#paint4_radial)"/>
<path d="M127.155 44.6485C126.859 39.4105 124.578 34.163 119.569 30.9668C117.9 31.1862 116.431 32.3789 118.587 34.3061C124.817 39.8875 120.104 49.8387 120.104 49.8387C120.104 49.8387 124.922 45.7361 127.155 44.6485Z" fill="url(#paint5_linear)"/>
<path d="M135.511 40.899C134.891 40.6414 134.232 40.4697 133.545 40.3742C132.401 40.1834 131.256 40.2693 130.13 40.5937C130.12 40.5937 130.111 40.5937 130.101 40.5937C126.008 41.7481 122.22 45.803 120.551 49.6575C120.56 49.6575 124.463 51.5085 123.098 57.9772C125.779 58.8168 129.538 58.0917 132.725 56.5175C137.381 53.5025 138.831 50.2586 139.051 47.6635C139.346 42.9408 135.959 41.1184 135.511 40.899Z" fill="#FCD9B7"/>
<path d="M127.88 52.7202C127.88 52.7202 127.05 52.2241 127.632 51.2795C128.214 50.3254 129.177 49.5049 128.395 49.0565C127.613 48.6176 125.323 48.7416 127.574 46.6808C129.836 44.62 134.663 43.704 135.56 46.3373C136.457 48.9611 131.543 54.7524 127.88 52.7202Z" fill="#E08E62"/>
<path d="M131.085 49.7149C130.503 51.1461 129.664 52.2528 128.843 53.0638C128.519 52.997 128.195 52.8825 127.88 52.7108C127.88 52.7108 127.05 52.2147 127.632 51.2701C128.214 50.316 129.177 49.4955 128.395 49.0471C127.613 48.6082 125.323 48.7322 127.574 46.6714C128.032 46.2611 128.586 45.889 129.187 45.5933C130.494 46.0512 132.135 47.1484 131.085 49.7149Z" fill="#603A17"/>
<path d="M129.594 42.2636C129.603 42.2636 129.613 42.2636 129.622 42.2541C130.748 41.9392 131.903 41.8438 133.048 42.0346C133.725 42.13 134.383 42.3018 135.013 42.5594C135.471 42.7884 138.849 44.6011 138.553 49.3239C138.524 49.6292 138.476 49.9536 138.419 50.278C138.801 49.3525 138.992 48.4747 139.058 47.6542C139.345 42.9315 135.967 41.1092 135.519 40.8897C134.899 40.6321 134.24 40.4604 133.553 40.365C132.408 40.1742 131.263 40.26 130.138 40.5844C130.128 40.5844 130.119 40.5844 130.109 40.5844C126.016 41.7389 122.228 45.7937 120.559 49.6483C120.559 49.6483 120.664 49.696 120.816 49.8009C122.715 46.4712 126.035 43.2749 129.594 42.2636Z" fill="url(#paint6_radial)"/>
<path opacity="0.43" d="M135.511 40.899C134.891 40.6414 134.232 40.4697 133.545 40.3742C132.401 40.1834 131.256 40.2693 130.13 40.5937C130.12 40.5937 130.111 40.5937 130.101 40.5937C126.008 41.7481 122.23 45.803 120.551 49.6575C120.56 49.6575 124.463 51.5085 123.098 57.9772C125.779 58.8168 129.538 58.0917 132.725 56.5175C137.381 53.5025 138.831 50.2586 139.051 47.6635C139.346 42.9408 135.959 41.1184 135.511 40.899Z" fill="url(#paint7_radial)"/>
<path d="M103.129 17.104C103.129 17.104 107.813 22.9717 115.16 27.5322C122.506 32.0928 129.271 35.4989 136.465 38.0177C136.465 38.0177 126.542 24.9848 124.873 23.2102C124.873 23.2102 124.157 22.3038 123.375 22.0748C122.602 21.8363 105.209 17.1517 103.129 17.104Z" fill="#49494B"/>
<path d="M122.26 23.1148C122.26 23.1148 129.444 29.698 131.076 31.4917C131.362 31.8065 131.267 31.5012 130.933 30.8047C128.347 27.4654 125.666 24.0498 124.874 23.2006C124.874 23.2006 124.159 22.2943 123.376 22.0653C122.604 21.8363 105.201 17.1517 103.121 17.104C103.121 17.104 104.514 18.8404 106.957 21.1589C107.195 21.2638 107.329 21.3306 107.329 21.3306C107.329 21.3306 106.451 19.6323 106.327 19.4129C106.222 19.1839 118.282 22.0748 122.26 23.1148Z" fill="url(#paint8_linear)"/>
<path d="M114.007 23.8398L107.176 27.6371C107.176 27.6371 108.731 32.1404 114.828 34.8214C120.915 37.5024 125.351 37.3879 125.351 37.3879L126.21 30.7761C126.21 30.7761 121.315 24.689 114.007 23.8398Z" fill="#4E4C50"/>
<path d="M123.624 28.5342C123.624 28.5342 123.119 27.9141 122.126 27.084C120.046 25.6243 117.27 24.2027 114.007 23.8306L107.176 27.6278C107.176 27.6278 107.949 29.8604 110.525 32.1025C110.658 32.1216 110.744 32.1312 110.744 32.1312L109.094 28.5629L114.093 25.6147C114.093 25.6243 119.293 25.8055 123.624 28.5342Z" fill="url(#paint9_linear)"/>
<path opacity="0.78" d="M125.351 37.388L126.21 30.7761C126.21 30.7761 125.504 29.8888 124.216 28.7535L124.092 28.7344L121.611 34.2299C120.638 36.3671 117.699 35.9187 117.699 35.9187L120.247 36.7297C120.247 36.7297 120.733 36.8537 121.687 36.9968C123.968 37.4166 125.351 37.388 125.351 37.388Z" fill="url(#paint10_linear)"/>
<path opacity="0.78" d="M126.551 30.6807L130.987 31.5203L135.519 37.3402C135.519 37.3402 128.01 34.497 126.207 33.314L126.551 30.6807Z" fill="url(#paint11_linear)"/>
<path opacity="0.65" d="M117.89 58.2729C117.89 58.2729 116.402 65.5431 107.91 65.5431C107.91 65.5431 113.969 64.7321 117.89 58.2729Z" fill="url(#paint12_radial)"/>
<path d="M107.09 53.5504C107.09 53.5504 109.923 49.6004 115.362 52.3768C115.362 52.3768 111.173 51.4323 107.09 53.5504Z" fill="url(#paint13_radial)"/>
<path opacity="0.43" d="M116.258 50.0486C116.64 48.98 120.847 41.3759 113.596 37.8934C109.207 35.7849 106.469 37.0061 105 38.2846C103.826 39.1051 103.454 38.2465 103.454 38.2465C103.015 36.4432 101.785 35.4605 100.821 34.9835C99.5711 34.3728 97.3863 34.5637 95.6975 38.0079C94.0088 41.4522 93.7703 45.9555 93.7703 45.9555L93.0929 46.0414C91.0702 46.3181 89.4005 49.2853 89.4005 49.2853C89.2002 48.9704 87.4828 47.7778 86.8149 49.2757C86.1471 50.7641 87.7022 52.4433 87.7022 52.4433C86.6337 51.9186 86.0803 52.9108 86.0803 52.9108C85.1739 55.1911 88.103 55.506 88.103 55.506C91.5186 63.8256 100.287 65.5334 100.287 65.5334C113.835 68.7297 117.279 62.8525 118.672 58.4255C120.055 54.008 116.258 50.0486 116.258 50.0486Z" fill="url(#paint14_radial)"/>
<path d="M111.402 40.5269C110.887 39.8591 110.277 39.6682 109.761 39.6587C108.769 39.6587 108.368 40.1834 108.273 40.3266C108.254 40.3647 108.235 40.4029 108.216 40.441C108.006 41.0612 108.483 41.3761 108.798 41.0803C109.008 40.8895 109.37 40.7273 109.742 40.6796C109.971 40.67 110.553 40.7082 110.944 41.2234C110.964 41.2425 110.983 41.2616 111.002 41.2902C111.021 41.3188 111.04 41.3474 111.059 41.3665C111.259 41.6337 111.412 41.9008 111.46 41.9485C111.555 42.0535 111.66 41.9199 111.66 41.9199C111.765 41.3284 111.641 40.8799 111.402 40.5269Z" fill="#603A17"/>
<path d="M98.6335 37.8366C99.2728 37.4168 99.8166 37.4645 100.217 37.6553C100.981 38.0274 101.086 38.6571 101.105 38.8288C101.105 38.8765 101.114 38.9147 101.105 38.9529C101.038 39.5921 100.551 39.7161 100.418 39.325C100.332 39.0674 100.112 38.7907 99.8452 38.5998C99.6735 38.5044 99.2155 38.3136 98.7194 38.6476C98.7003 38.6571 98.6717 38.6762 98.6526 38.6857C98.6335 38.7048 98.6049 38.7239 98.5858 38.7334C98.3282 38.9052 98.1183 39.0864 98.0611 39.1151C97.9466 39.1723 97.918 39.0101 97.918 39.0101C98.0515 38.4281 98.3091 38.0656 98.6335 37.8366Z" fill="#603A17"/>
<path d="M111.695 48.8656C110.846 51.0409 108.719 52.2335 106.934 51.5466C105.16 50.8501 104.397 48.5317 105.246 46.3659C106.095 44.1906 108.222 42.9979 110.007 43.6849C111.781 44.3718 112.544 46.6903 111.695 48.8656Z" fill="url(#paint15_radial)"/>
<path opacity="0.13" d="M111.87 48.856C110.964 51.1554 108.703 52.4243 106.813 51.6992C104.924 50.9741 104.132 48.5125 105.029 46.2132C105.926 43.9138 108.197 42.6449 110.086 43.37C111.975 44.1046 112.777 46.5566 111.87 48.856Z" fill="url(#paint16_linear)"/>
<path opacity="0.13" d="M101.04 46.0223C100.057 47.8446 98.1487 48.4934 96.7939 47.4916C95.4296 46.4803 95.1243 44.1809 96.107 42.3682C97.0897 40.5459 98.9883 39.8875 100.353 40.8989C101.717 41.9007 102.022 44.2 101.04 46.0223Z" fill="url(#paint17_linear)"/>
<path d="M101.305 44.8398C100.866 46.8243 99.2825 48.1886 97.775 47.8738C96.258 47.5589 95.3898 45.6984 95.8287 43.7139C96.2676 41.7199 97.8514 40.3651 99.3588 40.6704C100.866 40.9948 101.744 42.8552 101.305 44.8398Z" fill="url(#paint18_radial)"/>
<path d="M100.535 45.3542C100.21 46.2988 99.3612 46.8617 98.6361 46.6041C97.911 46.356 97.5866 45.3828 97.911 44.4478C98.2354 43.5033 99.0845 42.9404 99.8096 43.1884C100.535 43.446 100.859 44.4097 100.535 45.3542Z" fill="url(#paint19_radial)"/>
<path d="M100.153 45.3926C99.9048 46.1082 99.2847 46.547 98.7504 46.3658C98.2256 46.1845 97.9967 45.4498 98.2447 44.7343C98.4832 44.0187 99.1129 43.5798 99.6472 43.7611C100.162 43.9424 100.401 44.6675 100.153 45.3926Z" fill="#341718"/>
<path d="M99.0151 44.362C98.8911 44.6005 98.6335 44.7054 98.4426 44.6005C98.2518 44.4955 98.185 44.2189 98.3091 43.9803C98.4331 43.7418 98.6907 43.6369 98.8911 43.7418C99.0819 43.8372 99.1391 44.1139 99.0151 44.362Z" fill="white"/>
<path d="M99.8646 46.0985C99.7692 46.2893 99.5784 46.3752 99.4352 46.2989C99.2921 46.2226 99.254 46.0031 99.3494 45.8218C99.4448 45.631 99.6356 45.5452 99.7883 45.6215C99.9314 45.6978 99.96 45.9077 99.8646 46.0985Z" fill="white"/>
<path d="M102.556 53.3402C102.842 52.9109 103.242 52.1667 102.784 51.9663C102.336 51.766 101.754 52.4911 101.43 52.9776L102.556 53.3402Z" fill="#603A17"/>
<path d="M98.5586 52.0333C98.5777 51.518 98.6922 50.6784 99.1883 50.7834C99.6749 50.8788 99.713 51.8234 99.694 52.3958L98.5586 52.0333Z" fill="#603A17"/>
<path d="M111.695 48.8656C110.846 51.0409 108.719 52.2335 106.934 51.5466C105.16 50.8501 104.397 48.5317 105.246 46.3659C106.095 44.1906 108.222 42.9979 110.007 43.6849C111.781 44.3718 112.544 46.6903 111.695 48.8656Z" fill="url(#paint20_radial)"/>
<path d="M110.675 49.2758C110.131 50.2776 109.015 50.7356 108.175 50.2776C107.335 49.8387 107.097 48.6557 107.65 47.6539C108.194 46.6521 109.31 46.1941 110.14 46.6425C110.98 47.1005 111.219 48.274 110.675 49.2758Z" fill="url(#paint21_radial)"/>
<path d="M110.37 49.1805C109.97 49.9247 109.14 50.2682 108.51 49.9342C107.89 49.6003 107.708 48.7321 108.119 47.9784C108.519 47.2342 109.359 46.8907 109.979 47.2246C110.599 47.5586 110.771 48.4363 110.37 49.1805Z" fill="#341718"/>
<path d="M109.006 47.797C108.825 48.045 108.491 48.1118 108.272 47.9496C108.052 47.7874 108.024 47.4535 108.205 47.2054C108.386 46.9669 108.72 46.8906 108.94 47.0623C109.159 47.2245 109.188 47.5585 109.006 47.797Z" fill="white"/>
<path d="M109.761 49.9816C109.608 50.1725 109.37 50.2297 109.207 50.1057C109.045 49.9816 109.036 49.7336 109.179 49.5428C109.322 49.3519 109.57 49.2947 109.732 49.4187C109.894 49.5332 109.904 49.7908 109.761 49.9816Z" fill="white"/>
<path d="M136.467 38.0179C136.467 38.0179 126.544 24.985 124.874 23.2104C124.874 23.2104 124.159 22.304 123.376 22.075C122.604 21.8461 105.201 17.1615 103.121 17.1138C103.121 17.1138 106.365 21.1591 111.66 25.1377L107.157 27.6469C107.157 27.6469 108.712 32.1502 114.809 34.8312C120.896 37.5122 125.332 37.3977 125.332 37.3977L125.838 33.5337C129.368 35.2606 132.86 36.749 136.467 38.0179Z" fill="url(#paint22_radial)"/>
<path opacity="0.43" d="M127.88 52.7202C127.88 52.7202 127.05 52.2241 127.632 51.2795C128.214 50.3254 129.177 49.5049 128.395 49.0565C127.613 48.6176 125.323 48.7416 127.574 46.6808C129.836 44.62 134.663 43.704 135.56 46.3373C136.457 48.9611 131.543 54.7524 127.88 52.7202Z" fill="url(#paint23_linear)"/>
<path opacity="0.9" d="M97.9964 49.2092C96.155 46.9098 95.2486 46.843 94.0369 46.4805L92.9492 47.0052C95.4394 46.8335 97.9964 49.2092 97.9964 49.2092Z" fill="url(#paint24_linear)"/>
<path opacity="0.42" d="M124.539 56.5176C124.501 56.7657 124.482 57.1855 124.301 57.529C128.709 58.0251 131.666 55.6494 131.666 55.6494C129.1 56.5272 126.562 56.6226 124.539 56.5176Z" fill="url(#paint25_linear)"/>
<path opacity="0.27" d="M88.4375 53.2261C88.4375 53.2261 96.137 62.0132 106.145 59.4467C106.145 59.4467 96.0225 59.8093 88.4375 53.2261Z" fill="url(#paint26_linear)"/>
<path d="M129.157 28.5244C128.919 31.5489 128.871 34.8596 129.672 36.5483L130.455 36.6914C130.455 36.6914 129.462 35.2126 129.815 29.3449L129.157 28.5244Z" fill="url(#paint27_linear)"/>
<path d="M129.356 39.6109L128.965 37.1207C128.965 37.1207 129.089 36.5673 129.337 36.4814C129.585 36.3956 130.291 35.9281 130.291 35.9281C130.291 35.9281 130.892 35.7373 131.064 36.1189C131.245 36.5005 132.266 38.1511 132.266 38.1511C132.266 38.1511 132.295 38.5804 132.056 38.714C131.827 38.8476 129.623 39.9925 129.356 39.6109Z" fill="url(#paint28_linear)"/>
<path d="M129.643 39.7159L129.348 43.1411C129.348 43.1411 130.693 43.6944 131.971 43.2365C133.25 42.769 134.109 42.0534 133.994 41.7863C133.88 41.5191 132.067 38.7236 132.067 38.7236L129.643 39.7159Z" fill="url(#paint29_linear)"/>
<path d="M129.307 36.5576L130.576 38.9905L129.517 39.439L129.164 36.9774L129.307 36.5576Z" fill="url(#paint30_linear)"/>
<path d="M130.328 43.3319L130.385 43.3796C130.548 43.3987 130.71 43.4082 130.881 43.4082L130.338 39.9258L130.328 43.3319ZM131.616 43.3223C131.731 43.2937 131.845 43.2746 131.96 43.2269C132.045 43.1888 132.131 43.1601 132.217 43.122L132.255 43.0456L130.824 39.9353L131.616 43.3223ZM132.084 39.5728L133.305 42.3205L133.334 42.54C133.553 42.3873 133.715 42.2537 133.83 42.1202L132.084 39.5728ZM132.647 42.9312C132.837 42.8357 133.019 42.7403 133.171 42.6449L131.492 39.8971L132.647 42.9312Z" fill="url(#paint31_radial)"/>
<path opacity="0.88" d="M129.279 28.6772C129.279 28.6772 128.926 32.6367 129.365 34.3159C129.365 34.3159 129.269 30.261 129.479 28.973L129.279 28.6772Z" fill="url(#paint32_linear)"/>
<path opacity="0.43" d="M133.983 41.7767C133.869 41.5095 132.056 38.714 132.056 38.714C132.285 38.5804 132.266 38.1511 132.266 38.1511C132.266 38.1511 131.236 36.5005 131.064 36.1189C130.883 35.7373 130.291 35.9281 130.291 35.9281C130.291 35.9281 129.595 36.3956 129.337 36.4814C129.089 36.5673 128.965 37.1207 128.965 37.1207L129.356 39.6109C129.413 39.6872 129.547 39.6967 129.738 39.6681L129.642 39.7063L129.346 43.1315C129.346 43.1315 130.692 43.6848 131.97 43.2269C133.239 42.7594 134.098 42.0438 133.983 41.7767Z" fill="url(#paint33_radial)"/>
<path d="M113.473 57.6053C108.703 59.5708 104.114 59.5803 100.135 58.7312C99.4768 58.5881 98.8471 58.4163 98.227 58.235C97.2156 57.9393 96.2902 57.6053 95.4315 57.2619C95.422 57.2523 95.4124 57.2523 95.4029 57.2523C95.0212 57.0997 94.6587 56.9375 94.3057 56.7753C94.2293 56.7371 94.153 56.7085 94.0767 56.6703C90.5179 55.0102 88.438 53.1497 87.5221 52.1957C87.4839 52.167 87.4648 52.1479 87.4648 52.1479C87.4648 52.1479 89.478 54.9053 94.3915 57.2046C94.4679 57.2428 94.5442 57.2714 94.611 57.3096C94.9545 57.4718 95.3075 57.6244 95.6891 57.7771C95.6986 57.7771 95.7082 57.7866 95.7177 57.7866C96.5573 58.1301 97.4637 58.4545 98.4464 58.7503C99.057 58.922 99.6677 59.0937 100.307 59.2273C104.19 60.0478 108.674 60.0097 113.359 58.0156C113.531 57.9393 113.616 57.7389 113.54 57.5672C113.521 57.5767 113.502 57.5958 113.473 57.6053Z" fill="#603A17"/>
<path d="M113.48 56.1265C113.48 56.1265 112.01 58.2541 114.806 58.8647C114.815 58.8647 112.984 57.9679 113.48 56.1265Z" fill="#603A17"/>
<path d="M164.562 99.7953C164.562 100.024 164.381 100.196 164.162 100.196C163.942 100.196 163.77 100.015 163.77 99.7953V97.4769H163.189C162.979 97.4769 162.816 97.3147 162.816 97.0952C162.816 96.8853 162.979 96.7231 163.189 96.7231H165.144C165.354 96.7231 165.516 96.8853 165.516 97.0952C165.516 97.3147 165.354 97.4769 165.144 97.4769H164.562V99.7953Z" fill="#4E4C50"/>
<path d="M166.9 99.2324L166.509 98.6027V99.8049C166.509 100.024 166.337 100.196 166.118 100.196C165.898 100.196 165.727 100.015 165.727 99.8049V97.0189C165.727 96.8567 165.851 96.7231 166.022 96.7231C166.127 96.7231 166.223 96.7804 166.27 96.8663L167.358 98.6409L168.446 96.8663C168.503 96.7804 168.589 96.7231 168.703 96.7231C168.866 96.7231 168.999 96.8567 168.999 97.0189V99.8049C168.999 100.024 168.827 100.196 168.608 100.196C168.388 100.196 168.217 100.015 168.217 99.8049V98.6027L167.826 99.2324C167.73 99.3946 167.558 99.4996 167.368 99.4996C167.167 99.4996 167.005 99.3851 166.9 99.2324Z" fill="#4E4C50"/>
<path d="M76.8901 94.1181C76.8711 94.0322 76.852 93.9464 76.8329 93.87C76.8234 93.8414 76.8138 93.8128 76.8043 93.7842C76.7852 93.746 76.7661 93.6983 76.7566 93.6601C76.7089 93.5647 76.6612 93.4789 76.6135 93.393C76.6135 93.393 76.6039 93.3834 76.5944 93.3644C76.5371 93.2785 76.4894 93.2117 76.4417 93.1545C76.4322 93.1449 76.4226 93.1258 76.4131 93.1163C76.4036 93.1068 76.4036 93.0972 76.394 93.0877C76.3845 93.0781 76.3749 93.0686 76.3749 93.0591C75.9742 92.4961 75.1442 91.3322 74.6862 90.5212C74.6767 90.5021 74.6576 90.4735 74.648 90.4544C74.6385 90.4258 74.6194 90.4067 74.6099 90.3876C74.2378 89.7007 73.9611 89.1473 73.9611 89.1473C73.9038 89.0233 73.8466 88.8897 73.7894 88.7657C73.3505 87.802 72.9879 86.8766 72.7017 86.0179C71.948 83.6231 71.4137 79.8926 71.4137 79.8926C71.3564 79.406 71.3183 79.053 71.3087 78.9576C71.261 78.5378 71.1942 78.1371 71.1179 77.765C70.6122 75.2271 69.5818 73.8437 67.9694 73.5479C67.7881 73.5193 67.5973 73.5002 67.416 73.5002C66.0708 73.5002 64.7446 74.4161 63.4661 76.2384C62.3307 77.8699 61.1095 80.8372 60.4893 82.4591L58.8101 86.9052C58.7529 87.0483 58.6002 87.4681 58.2377 87.4681C58.0659 87.4681 57.8179 87.3631 57.6461 86.8479C57.4458 86.1324 57.2836 85.4263 57.1786 84.7966C57.1691 84.7585 56.4249 80.3601 55.2514 72.6988C54.6026 68.4435 52.9616 66.1537 50.4046 66.0869C47.0748 66.0869 44.4701 70.4757 42.6574 79.1198C39.8428 92.5534 43.2489 101.207 43.392 101.57C43.6878 102.304 44.3652 102.819 45.1571 102.905C45.2334 102.915 45.3193 102.915 45.3956 102.915C45.6723 102.915 45.949 102.858 46.2066 102.762C47.3038 102.314 47.8381 101.054 47.3992 99.9476C47.3706 99.8713 44.3557 92.0382 46.884 80.0071C47.8285 75.5133 48.8494 73.0709 49.5554 71.7924C49.7081 71.5634 49.8894 71.4394 50.0897 71.4394C50.4905 71.4394 50.6527 71.8973 50.7194 72.0786C50.8053 72.4316 50.8912 72.8514 50.9675 73.3475C52.141 81.0089 52.9043 85.474 52.9043 85.5122C53.4958 88.9946 54.822 93.2117 57.7511 93.517C57.8656 93.5266 57.9705 93.5361 58.085 93.5361C60.871 93.5361 62.3021 89.8247 62.8364 88.4317L64.5728 83.8235C65.0976 82.4591 65.67 81.2283 66.0517 80.4269C66.233 80.0643 66.4238 79.8926 66.6337 79.8926C66.9008 79.8926 67.0535 80.112 67.1012 80.5509C67.1203 80.7608 67.1393 80.9803 67.1489 81.2188L67.1584 81.3237C67.1775 81.5336 67.5782 85.2546 69.515 89.7865C69.5436 89.8629 69.5723 89.9296 69.5914 90.006C69.5914 90.0155 69.5914 90.0155 69.6009 90.0251C69.7536 90.3781 69.9635 90.8551 70.2115 91.3989C70.9557 92.9732 72.1102 95.2821 73.36 96.2362H73.3696C73.5222 96.3507 73.6749 96.4556 73.8275 96.5319C74.0947 96.656 74.4 96.7228 74.7148 96.7228C75.9361 96.7228 76.9283 95.7305 76.9283 94.5093C76.9283 94.4043 76.9188 94.2898 76.8997 94.1849C76.8997 94.1658 76.8901 94.1372 76.8901 94.1181ZM85.9063 78.4328C80.8496 78.4328 76.7566 82.5259 76.7566 87.5826C76.7566 92.6393 80.8592 96.7323 85.9063 96.7323C90.963 96.7323 95.056 92.6393 95.056 87.5826C95.0656 82.5354 90.963 78.4328 85.9063 78.4328ZM89.7799 89.0805C88.4251 90.7406 86.7459 91.8187 85.9158 92.3053C85.0762 91.8283 83.4066 90.7406 82.0518 89.0805C80.1627 86.7716 81.3076 84.0906 83.2826 84.1288C85.1335 84.1669 85.9158 85.9702 85.9158 85.9702C85.9158 85.9702 85.9158 85.9702 85.9158 85.9606C85.9158 85.9702 85.9158 85.9702 85.9158 85.9702C85.9158 85.9702 86.7077 84.1669 88.5491 84.1288C90.5241 84.0906 91.669 86.7716 89.7799 89.0805ZM147.97 92.1813C147.951 91.5516 147.693 90.9696 147.235 90.5307C146.93 90.2445 146.558 90.0441 146.157 89.9487C145.995 89.9106 145.814 89.8915 145.642 89.8915C144.993 89.8915 144.373 90.1586 143.944 90.6357C143.114 91.523 141.95 92.0286 140.747 92.0286C140.433 92.0286 140.108 91.9905 139.784 91.9237C138.648 91.6565 137.675 90.9601 137.055 89.9583C136.435 88.9565 136.235 87.7734 136.492 86.6189C136.941 84.6249 138.734 83.1747 140.757 83.1747C141.091 83.1747 141.415 83.2128 141.73 83.2892C142.284 83.4132 142.827 83.6613 143.343 84.0334C143.476 84.1574 143.896 84.5867 143.753 85.0065C143.562 85.5694 142.484 85.9129 140.585 86.0179L140.509 86.0274L140.309 86.0751C139.631 86.2564 139.154 86.8766 139.154 87.5826C139.154 88.4126 139.793 89.0996 140.604 89.1473H140.642L140.871 89.1377C141.186 89.1187 148.685 88.6321 148.829 85.2355V85.0829C148.886 84.4245 148.8 83.7662 148.571 83.1556C148.542 83.0697 148.514 82.9839 148.476 82.9075L148.352 82.6786C148.342 82.6499 148.323 82.6213 148.285 82.5545C148.18 82.3732 148.094 82.2397 148.027 82.1633L147.932 82.0679C146.644 80.3601 144.812 79.158 142.751 78.6809C142.102 78.5283 141.425 78.4519 140.747 78.4519C136.569 78.4519 132.867 81.4478 131.941 85.5694C131.407 87.9451 131.817 90.3971 133.105 92.4675C134.393 94.5379 136.387 95.9786 138.744 96.5129C139.402 96.6655 140.07 96.7418 140.738 96.7418C143.228 96.7418 145.632 95.6923 147.331 93.8605C147.77 93.4121 147.989 92.811 147.97 92.1813ZM166.994 78.4996C166.899 78.4901 166.813 78.4805 166.661 78.4901C166.641 78.4901 166.632 78.4901 166.613 78.4901C165.506 78.5378 164.6 79.3774 164.457 80.4937C164.39 80.9612 163.731 85.2069 160.364 89.7197L159.925 90.2827L159.562 90.6166L159.409 90.1395C158.522 87.3727 156.805 83.251 153.694 79.3297C153.265 78.7859 152.616 78.4806 151.92 78.4806C151.414 78.4806 150.947 78.6523 150.546 78.9671C150.078 79.3392 149.783 79.8735 149.716 80.4651C149.649 81.0566 149.811 81.6481 150.183 82.1156C154.21 87.1819 155.507 92.6965 155.65 93.3262L155.813 94.3375L155.145 94.8432L154.963 94.9959L154.935 94.9768C151.672 97.3143 147.741 99.0317 143.228 100.062C142.637 100.196 142.131 100.558 141.806 101.073C141.482 101.589 141.377 102.199 141.511 102.791C141.749 103.84 142.675 104.565 143.743 104.556H143.829C143.963 104.546 144.096 104.537 144.23 104.499C166.565 99.3656 168.864 81.7626 168.95 81.0184C169.122 79.7781 168.235 78.6523 166.994 78.4996ZM124.27 86.8479L124.518 86.6189C126.274 84.9875 128.153 83.604 130.09 82.5259C131.168 81.9248 131.56 80.5509 130.958 79.4823C130.558 78.7763 129.814 78.3374 129.003 78.3374C128.621 78.3374 128.249 78.4329 127.915 78.6237C125.348 80.0548 122.915 81.9057 120.683 84.1097L120.645 84.1574L120.588 84.1765L120.13 84.4055V80.7704C120.13 79.511 119.109 78.4901 117.849 78.4901C116.59 78.4901 115.569 79.511 115.569 80.7704V94.452C115.569 95.7019 116.59 96.7323 117.849 96.7323C119.109 96.7323 120.13 95.7114 120.13 94.452V90.2254L120.177 90.0346L120.301 89.9392L120.502 89.8247H120.588C120.721 89.8247 120.864 89.8915 120.998 90.0251L128.926 97.4956C129.356 97.8963 129.909 98.1157 130.491 98.1157C131.111 98.1157 131.722 97.8581 132.151 97.4002C132.571 96.9613 132.781 96.3793 132.771 95.7687C132.752 95.1581 132.495 94.5951 132.056 94.1753L124.27 86.8479ZM110.837 78.4806C109.587 78.4806 108.556 79.5014 108.556 80.7608V89.4717L107.965 88.5176C106.477 86.1133 103.862 81.8962 103.032 80.694C102.66 80.1407 101.525 78.471 99.8647 78.471C99.5975 78.471 99.3399 78.5092 99.0823 78.595C96.9547 79.2438 96.9451 81.7722 96.9356 83.3846L96.9165 94.433C96.9165 95.6828 97.9374 96.7132 99.1968 96.7132C100.456 96.7132 101.477 95.6924 101.477 94.433V86.7144L102.069 87.6589C103.757 90.359 105.589 93.3453 105.637 93.4216C106.982 95.5874 108.461 96.7228 109.911 96.7228C110.159 96.7228 110.407 96.6846 110.665 96.6178C112.22 96.1885 113.031 94.7287 113.107 92.2767V80.7608C113.117 79.5014 112.087 78.4806 110.837 78.4806Z" fill="#EE202E"/>
<path d="M25.7131 68.7108C24.883 67.7281 14.388 61.5647 9.64622 60.5057C9.64622 60.5057 13.6725 63.2916 17.3553 66.774C20.1412 69.3978 24.1389 71.8212 25.6368 71.2392C25.9707 71.1151 25.799 71.0197 25.9516 70.8575C23.5664 69.1879 14.3976 62.9672 14.3976 62.9672L26.5432 70.4473C26.6577 69.9321 26.2283 69.331 25.7131 68.7108ZM26.8771 74.1969C26.1806 76.9065 23.7 87.2393 23.7 87.2393L26.2474 73.8534C25.7036 73.9488 25.2838 74.5594 24.883 75.2464C24.2438 76.3531 22.3452 87.8022 23.1752 92.296C23.1752 92.296 24.3201 87.7354 26.276 83.1939C27.7549 79.7592 28.5468 75.3704 27.3828 74.3113C27.1156 74.0824 27.087 74.2636 26.8771 74.1969ZM25.7513 72.6131L11.8979 78.185L25.3506 71.9357C24.406 71.7162 21.7155 71.5254 16.7924 74.3591C10.4763 77.9941 6.89844 80.6465 6.89844 80.6465C6.89844 80.6465 11.7929 78.8051 15.8478 77.5076C19.7119 76.2672 26.3905 73.8152 25.7513 72.6131ZM49.3269 56.0023C49.3269 54.8097 48.4777 54.2182 47.2565 54.2182C46.3501 54.2182 46.1402 53.8461 45.6631 54.2945C46.455 55.3822 47.142 56.8419 46.8844 58.3112C45.5009 66.0871 42.257 67.5945 38.1926 80.3698C30.6648 65.839 33.4794 53.1305 25.341 52.7394C23.9099 52.6726 21.2003 53.9415 20.6564 54.3518C20.6564 54.3518 22.5264 56.0882 25.8181 65.7818V65.7913C26.5527 67.7186 27.0679 69.1116 27.6976 71.0484C27.7167 71.0484 27.8789 71.6208 27.898 71.6208C29.9016 71.8689 33.2409 70.3137 33.2409 70.3137C32.2868 72.0024 28.8998 72.6989 28.1556 72.6894C30.2737 79.2058 32.0101 85.0926 34.3381 88.1934C34.443 88.2029 34.5671 88.2125 34.7102 88.2315C36.7138 88.4796 38.8509 86.5428 38.8509 86.5428C38.3262 88.68 35.9314 89.0616 35.1014 89.0902C35.9123 89.8916 36.7901 90.3401 37.7824 90.3401C38.2022 90.3401 38.7937 90.2447 39.3184 89.9394C39.2612 89.6436 39.2994 89.3383 39.2135 88.9471C37.1527 79.6352 49.3269 61.4025 49.3269 56.0023Z" fill="#663695"/>
<defs>
<radialGradient id="paint0_radial" cx="0" cy="0" r="1" gradientUnits="userSpaceOnUse" gradientTransform="translate(89.2201 38.8588) rotate(85.3658) scale(6.87327 4.06897)">
<stop offset="0.3939" stop-color="white"/>
<stop offset="0.4187" stop-color="#FFFAF6"/>
<stop offset="0.567" stop-color="#FEEBD9"/>
<stop offset="0.7146" stop-color="#FDE1C6"/>
<stop offset="0.8598" stop-color="#FDDBBB"/>
<stop offset="1" stop-color="#FCD9B7"/>
</radialGradient>
<linearGradient id="paint1_linear" x1="76.2124" y1="35.3475" x2="95.5849" y2="41.1932" gradientUnits="userSpaceOnUse">
<stop offset="0.635" stop-color="white" stop-opacity="0"/>
<stop offset="0.6659" stop-color="#FFF1E9" stop-opacity="0.0893"/>
<stop offset="0.7256" stop-color="#FDD5C0" stop-opacity="0.2616"/>
<stop offset="0.8072" stop-color="#F9AA85" stop-opacity="0.4972"/>
<stop offset="0.8606" stop-color="#F68D62" stop-opacity="0.6512"/>
<stop offset="0.8954" stop-color="#DC7B4D" stop-opacity="0.7259"/>
<stop offset="0.9329" stop-color="#CC703E" stop-opacity="0.8063"/>
<stop offset="0.9685" stop-color="#C26A36" stop-opacity="0.8826"/>
<stop offset="1" stop-color="#BF6834" stop-opacity="0.95"/>
</linearGradient>
<linearGradient id="paint2_linear" x1="124.178" y1="54.6183" x2="118.465" y2="61.8194" gradientUnits="userSpaceOnUse">
<stop stop-color="#A91F27"/>
<stop offset="0.1913" stop-color="#AE1F27"/>
<stop offset="0.3892" stop-color="#BC2028"/>
<stop offset="0.5791" stop-color="#D42029"/>
<stop offset="0.7394" stop-color="#EB2227"/>
</linearGradient>
<radialGradient id="paint3_radial" cx="0" cy="0" r="1" gradientUnits="userSpaceOnUse" gradientTransform="translate(96.5209 26.8244) rotate(16.7914) scale(22.5997)">
<stop stop-color="white"/>
<stop offset="0.1049" stop-color="#FCD4C4"/>
<stop offset="0.2345" stop-color="#F7A990"/>
<stop offset="0.3658" stop-color="#F3876B"/>
<stop offset="0.4961" stop-color="#F06A50"/>
<stop offset="0.6254" stop-color="#EE503B"/>
<stop offset="0.7531" stop-color="#EC3A2F"/>
<stop offset="0.8788" stop-color="#EB2929"/>
<stop offset="1" stop-color="#EB2227"/>
</radialGradient>
<radialGradient id="paint4_radial" cx="0" cy="0" r="1" gradientUnits="userSpaceOnUse" gradientTransform="translate(96.6893 45.8513) rotate(16.7914) scale(19.0227)">
<stop offset="0.3939" stop-color="white"/>
<stop offset="0.4187" stop-color="#FFFAF6"/>
<stop offset="0.567" stop-color="#FEEBD9"/>
<stop offset="0.7146" stop-color="#FDE1C6"/>
<stop offset="0.8598" stop-color="#FDDBBB"/>
<stop offset="1" stop-color="#FCD9B7"/>
</radialGradient>
<linearGradient id="paint5_linear" x1="126.933" y1="41.5212" x2="119.722" y2="40.3757" gradientUnits="userSpaceOnUse">
<stop stop-color="#AE1F28"/>
<stop offset="0.2066" stop-color="#B21F28"/>
<stop offset="0.4204" stop-color="#C12029"/>
<stop offset="0.5791" stop-color="#D42029"/>
<stop offset="0.7394" stop-color="#EB2227"/>
</linearGradient>
<radialGradient id="paint6_radial" cx="0" cy="0" r="1" gradientUnits="userSpaceOnUse" gradientTransform="translate(130.672 46.0963) rotate(16.7914) scale(11.153)">
<stop offset="0.3939" stop-color="white"/>
<stop offset="0.4187" stop-color="#FFFAF6"/>
<stop offset="0.567" stop-color="#FEEBD9"/>
<stop offset="0.7146" stop-color="#FDE1C6"/>
<stop offset="0.8598" stop-color="#FDDBBB"/>
<stop offset="1" stop-color="#FCD9B7"/>
</radialGradient>
<radialGradient id="paint7_radial" cx="0" cy="0" r="1" gradientUnits="userSpaceOnUse" gradientTransform="translate(128.244 47.7353) rotate(16.7914) scale(10.8266)">
<stop offset="0.635" stop-color="white" stop-opacity="0"/>
<stop offset="0.6659" stop-color="#FFF1E9" stop-opacity="0.0893"/>
<stop offset="0.7256" stop-color="#FDD5C0" stop-opacity="0.2616"/>
<stop offset="0.8072" stop-color="#F9AA85" stop-opacity="0.4972"/>
<stop offset="0.8606" stop-color="#F68D62" stop-opacity="0.6512"/>
<stop offset="0.8954" stop-color="#DC7B4D" stop-opacity="0.7259"/>
<stop offset="0.9329" stop-color="#CC703E" stop-opacity="0.8063"/>
<stop offset="0.9685" stop-color="#C26A36" stop-opacity="0.8826"/>
<stop offset="1" stop-color="#BF6834" stop-opacity="0.95"/>
</radialGradient>
<linearGradient id="paint8_linear" x1="102.192" y1="19.2651" x2="131.97" y2="28.2508" gradientUnits="userSpaceOnUse">
<stop stop-color="#929497"/>
<stop offset="0.0471" stop-color="#8A8B8D"/>
<stop offset="0.2414" stop-color="#6E6E6F"/>
<stop offset="0.4358" stop-color="#5A595A"/>
<stop offset="0.6281" stop-color="#4C4B4C"/>
<stop offset="0.8174" stop-color="#444444"/>
<stop offset="1" stop-color="#414142"/>
</linearGradient>
<linearGradient id="paint9_linear" x1="111.918" y1="24.721" x2="114.397" y2="27.4513" gradientUnits="userSpaceOnUse">
<stop stop-color="white"/>
<stop offset="0.0432" stop-color="#E7E6E6"/>
<stop offset="0.2054" stop-color="#B3B0B1"/>
<stop offset="0.3687" stop-color="#8F8C8D"/>
<stop offset="0.5305" stop-color="#767475"/>
<stop offset="0.6906" stop-color="#656566"/>
<stop offset="0.848" stop-color="#5C5C5E"/>
<stop offset="1" stop-color="#595A5C"/>
</linearGradient>
<linearGradient id="paint10_linear" x1="122.489" y1="33.945" x2="129.944" y2="30.9802" gradientUnits="userSpaceOnUse">
<stop stop-color="#414142"/>
<stop offset="0.121" stop-color="#464647"/>
<stop offset="0.4199" stop-color="#515153"/>
<stop offset="0.7151" stop-color="#57585A"/>
<stop offset="1" stop-color="#595A5C"/>
</linearGradient>
<linearGradient id="paint11_linear" x1="132.807" y1="36.057" x2="123.882" y2="28.3056" gradientUnits="userSpaceOnUse">
<stop stop-color="#414142"/>
<stop offset="0.121" stop-color="#464647"/>
<stop offset="0.4199" stop-color="#515153"/>
<stop offset="0.7151" stop-color="#57585A"/>
<stop offset="1" stop-color="#595A5C"/>
</linearGradient>
<radialGradient id="paint12_radial" cx="0" cy="0" r="1" gradientUnits="userSpaceOnUse" gradientTransform="translate(112.707 61.8252) rotate(16.9237) scale(5.90777 5.84722)">
<stop offset="0.3939" stop-color="white"/>
<stop offset="0.4187" stop-color="#FFFAF6"/>
<stop offset="0.567" stop-color="#FEEBD9"/>
<stop offset="0.7146" stop-color="#FDE1C6"/>
<stop offset="0.8598" stop-color="#FDDBBB"/>
<stop offset="1" stop-color="#FCD9B7"/>
</radialGradient>
<radialGradient id="paint13_radial" cx="0" cy="0" r="1" gradientUnits="userSpaceOnUse" gradientTransform="translate(111.059 54.0564) rotate(-140.858) scale(4.50426 3.63166)">
<stop offset="0.3939" stop-color="white"/>
<stop offset="0.4187" stop-color="#FFFAF6"/>
<stop offset="0.567" stop-color="#FEEBD9"/>
<stop offset="0.7146" stop-color="#FDE1C6"/>
<stop offset="0.8598" stop-color="#FDDBBB"/>
<stop offset="1" stop-color="#FCD9B7"/>
</radialGradient>
<radialGradient id="paint14_radial" cx="0" cy="0" r="1" gradientUnits="userSpaceOnUse" gradientTransform="translate(102.944 50.3478) rotate(16.9237) scale(18.0614 18.0803)">
<stop offset="0.635" stop-color="white" stop-opacity="0"/>
<stop offset="0.6659" stop-color="#FFF1E9" stop-opacity="0.0893"/>
<stop offset="0.7256" stop-color="#FDD5C0" stop-opacity="0.2616"/>
<stop offset="0.8072" stop-color="#F9AA85" stop-opacity="0.4972"/>
<stop offset="0.8606" stop-color="#F68D62" stop-opacity="0.6512"/>
<stop offset="0.8954" stop-color="#DC7B4D" stop-opacity="0.7259"/>
<stop offset="0.9329" stop-color="#CC703E" stop-opacity="0.8063"/>
<stop offset="0.9685" stop-color="#C26A36" stop-opacity="0.8826"/>
<stop offset="1" stop-color="#BF6834" stop-opacity="0.95"/>
</radialGradient>
<radialGradient id="paint15_radial" cx="0" cy="0" r="1" gradientUnits="userSpaceOnUse" gradientTransform="translate(108.923 47.8313) rotate(16.7914) scale(3.95409 4.6417)">
<stop offset="0.8061" stop-color="white"/>
<stop offset="0.828" stop-color="#F8F8F8"/>
<stop offset="0.9154" stop-color="#EBEBEB"/>
<stop offset="1" stop-color="#E7E7E7"/>
</radialGradient>
<linearGradient id="paint16_linear" x1="104.937" y1="46.4624" x2="111.981" y2="48.5668" gradientUnits="userSpaceOnUse">
<stop stop-color="#914F37"/>
<stop offset="0.162" stop-color="#93523A"/>
<stop offset="0.3298" stop-color="#9A5C42"/>
<stop offset="0.5004" stop-color="#A76C51"/>
<stop offset="0.6728" stop-color="#BA8467"/>
<stop offset="0.845" stop-color="#D6A888"/>
<stop offset="1" stop-color="#FCD9B7"/>
</linearGradient>
<linearGradient id="paint17_linear" x1="96.0079" y1="42.5609" x2="101.518" y2="44.9714" gradientUnits="userSpaceOnUse">
<stop stop-color="#914F37"/>
<stop offset="0.162" stop-color="#93523A"/>
<stop offset="0.3298" stop-color="#9A5C42"/>
<stop offset="0.5004" stop-color="#A76C51"/>
<stop offset="0.6728" stop-color="#BA8467"/>
<stop offset="0.845" stop-color="#D6A888"/>
<stop offset="1" stop-color="#FCD9B7"/>
</linearGradient>
<radialGradient id="paint18_radial" cx="0" cy="0" r="1" gradientUnits="userSpaceOnUse" gradientTransform="translate(98.9872 44.4223) rotate(6.78095) scale(3.2019 4.047)">
<stop offset="0.8061" stop-color="white"/>
<stop offset="0.828" stop-color="#F8F8F8"/>
<stop offset="0.9154" stop-color="#EBEBEB"/>
<stop offset="1" stop-color="#E7E7E7"/>
</radialGradient>
<radialGradient id="paint19_radial" cx="0" cy="0" r="1" gradientUnits="userSpaceOnUse" gradientTransform="translate(99.2761 44.9011) rotate(110.722) scale(2.4422 1.69104)">
<stop offset="0.6485" stop-color="#914F37"/>
<stop offset="0.6844" stop-color="#7C4533"/>
<stop offset="0.7487" stop-color="#60352B"/>
<stop offset="0.8131" stop-color="#4D2924"/>
<stop offset="0.8768" stop-color="#3F201E"/>
<stop offset="0.9395" stop-color="#371A1A"/>
<stop offset="1" stop-color="#341718"/>
</radialGradient>
<radialGradient id="paint20_radial" cx="0" cy="0" r="1" gradientUnits="userSpaceOnUse" gradientTransform="translate(108.923 47.8313) rotate(16.7914) scale(3.95409 4.6417)">
<stop offset="0.8061" stop-color="white"/>
<stop offset="0.828" stop-color="#F8F8F8"/>
<stop offset="0.9154" stop-color="#EBEBEB"/>
<stop offset="1" stop-color="#E7E7E7"/>
</radialGradient>
<radialGradient id="paint21_radial" cx="0" cy="0" r="1" gradientUnits="userSpaceOnUse" gradientTransform="translate(109.173 48.4188) rotate(120.311) scale(2.79483 2.09126)">
<stop offset="0.6485" stop-color="#914F37"/>
<stop offset="0.6844" stop-color="#7C4533"/>
<stop offset="0.7487" stop-color="#60352B"/>
<stop offset="0.8131" stop-color="#4D2924"/>
<stop offset="0.8768" stop-color="#3F201E"/>
<stop offset="0.9395" stop-color="#371A1A"/>
<stop offset="1" stop-color="#341718"/>
</radialGradient>
<radialGradient id="paint22_radial" cx="0" cy="0" r="1" gradientUnits="userSpaceOnUse" gradientTransform="translate(116.922 23.1355) rotate(16.7914) scale(22.2674)">
<stop stop-color="white" stop-opacity="0"/>
<stop offset="0.1876" stop-color="#ECECEC" stop-opacity="0.142"/>
<stop offset="0.5474" stop-color="#C8C8C9" stop-opacity="0.4142"/>
<stop offset="0.8606" stop-color="#A6A8AC" stop-opacity="0.6512"/>
<stop offset="0.8713" stop-color="#909092" stop-opacity="0.6742"/>
<stop offset="0.8946" stop-color="#6B696A" stop-opacity="0.724"/>
<stop offset="0.9176" stop-color="#4F4C4D" stop-opacity="0.7734"/>
<stop offset="0.94" stop-color="#3C3839" stop-opacity="0.8214"/>
<stop offset="0.9616" stop-color="#2E2B2B" stop-opacity="0.8677"/>
<stop offset="0.982" stop-color="#262223" stop-opacity="0.9114"/>
<stop offset="1" stop-color="#231F20" stop-opacity="0.95"/>
</radialGradient>
<linearGradient id="paint23_linear" x1="126.034" y1="47.3639" x2="134.207" y2="49.83" gradientUnits="userSpaceOnUse">
<stop offset="0.635" stop-color="white" stop-opacity="0"/>
<stop offset="0.6659" stop-color="#FFF1E9" stop-opacity="0.0893"/>
<stop offset="0.7256" stop-color="#FDD5C0" stop-opacity="0.2616"/>
<stop offset="0.8072" stop-color="#F9AA85" stop-opacity="0.4972"/>
<stop offset="0.8606" stop-color="#F68D62" stop-opacity="0.6512"/>
<stop offset="0.8954" stop-color="#DC7B4D" stop-opacity="0.7259"/>
<stop offset="0.9329" stop-color="#CC703E" stop-opacity="0.8063"/>
<stop offset="0.9685" stop-color="#C26A36" stop-opacity="0.8826"/>
<stop offset="1" stop-color="#BF6834" stop-opacity="0.95"/>
</linearGradient>
<linearGradient id="paint24_linear" x1="92.8872" y1="47.3848" x2="98.1482" y2="48.152" gradientUnits="userSpaceOnUse">
<stop offset="0.3939" stop-color="white"/>
<stop offset="0.4187" stop-color="#FFFAF6"/>
<stop offset="0.567" stop-color="#FEEBD9"/>
<stop offset="0.7146" stop-color="#FDE1C6"/>
<stop offset="0.8598" stop-color="#FDDBBB"/>
<stop offset="1" stop-color="#FCD9B7"/>
</linearGradient>
<linearGradient id="paint25_linear" x1="128.166" y1="55.9538" x2="126.779" y2="58.918" gradientUnits="userSpaceOnUse">
<stop offset="0.3939" stop-color="white"/>
<stop offset="0.4062" stop-color="#FFFAF7"/>
<stop offset="0.5273" stop-color="#FDE3D0"/>
<stop offset="0.6484" stop-color="#FCD2B5"/>
<stop offset="0.7683" stop-color="#FBC6A2"/>
<stop offset="0.8862" stop-color="#FABF97"/>
<stop offset="1" stop-color="#FABC93"/>
</linearGradient>
<linearGradient id="paint26_linear" x1="96.7521" y1="57.8556" x2="95.9569" y2="60.0419" gradientUnits="userSpaceOnUse">
<stop stop-color="#914F37"/>
<stop offset="0.162" stop-color="#93523A"/>
<stop offset="0.3298" stop-color="#9A5C42"/>
<stop offset="0.5004" stop-color="#A76C51"/>
<stop offset="0.6728" stop-color="#BA8467"/>
<stop offset="0.845" stop-color="#D6A888"/>
<stop offset="1" stop-color="#FCD9B7"/>
</linearGradient>
<linearGradient id="paint27_linear" x1="128.066" y1="32.1291" x2="131.516" y2="33.1701" gradientUnits="userSpaceOnUse">
<stop stop-color="#FECF0A"/>
<stop offset="0.0671" stop-color="#FDC810"/>
<stop offset="0.3051" stop-color="#FAB31A"/>
<stop offset="0.5419" stop-color="#F8A41E"/>
<stop offset="0.775" stop-color="#F79B20"/>
<stop offset="1" stop-color="#F79820"/>
</linearGradient>
<linearGradient id="paint28_linear" x1="130.358" y1="37.7294" x2="132.431" y2="37.2787" gradientUnits="userSpaceOnUse">
<stop stop-color="#FECF0A"/>
<stop offset="0.0671" stop-color="#FDC810"/>
<stop offset="0.3051" stop-color="#FAB31A"/>
<stop offset="0.5419" stop-color="#F8A41E"/>
<stop offset="0.775" stop-color="#F79B20"/>
<stop offset="1" stop-color="#F79820"/>
</linearGradient>
<linearGradient id="paint29_linear" x1="129.395" y1="40.5343" x2="133.98" y2="41.9179" gradientUnits="userSpaceOnUse">
<stop offset="0.00606061" stop-color="white"/>
<stop offset="0.3152" stop-color="#FECF0A"/>
<stop offset="0.3611" stop-color="#FDC810"/>
<stop offset="0.5241" stop-color="#FAB31A"/>
<stop offset="0.6863" stop-color="#F8A41E"/>
<stop offset="0.8459" stop-color="#F79B20"/>
<stop offset="1" stop-color="#F79820"/>
</linearGradient>
<linearGradient id="paint30_linear" x1="129.226" y1="37.9414" x2="131.07" y2="38.4979" gradientUnits="userSpaceOnUse">
<stop stop-color="white"/>
<stop offset="0.1067" stop-color="#FFF2D1"/>
<stop offset="0.236" stop-color="#FFE7A6"/>
<stop offset="0.3671" stop-color="#FFDE82"/>
<stop offset="0.4972" stop-color="#FFD761"/>
<stop offset="0.6261" stop-color="#FFD242"/>
<stop offset="0.7536" stop-color="#FFCE28"/>
<stop offset="0.8791" stop-color="#FFCC12"/>
<stop offset="1" stop-color="#FFCB09"/>
</linearGradient>
<radialGradient id="paint31_radial" cx="0" cy="0" r="1" gradientUnits="userSpaceOnUse" gradientTransform="translate(130.672 41.1139) rotate(16.7914) scale(6.69807)">
<stop offset="0.103" stop-color="white"/>
<stop offset="0.1418" stop-color="#FFF2D1"/>
<stop offset="0.1888" stop-color="#FFE7A6"/>
<stop offset="0.2365" stop-color="#FFDE82"/>
<stop offset="0.2838" stop-color="#FFD761"/>
<stop offset="0.3307" stop-color="#FFD242"/>
<stop offset="0.3771" stop-color="#FFCE28"/>
<stop offset="0.4227" stop-color="#FFCC12"/>
<stop offset="0.4667" stop-color="#FFCB09"/>
</radialGradient>
<linearGradient id="paint32_linear" x1="128.503" y1="31.2443" x2="130.14" y2="31.7381" gradientUnits="userSpaceOnUse">
<stop stop-color="white"/>
<stop offset="0.1067" stop-color="#FFF2D1"/>
<stop offset="0.236" stop-color="#FFE7A6"/>
<stop offset="0.3671" stop-color="#FFDE82"/>
<stop offset="0.4972" stop-color="#FFD761"/>
<stop offset="0.6261" stop-color="#FFD242"/>
<stop offset="0.7536" stop-color="#FFCE28"/>
<stop offset="0.8791" stop-color="#FFCC12"/>
<stop offset="1" stop-color="#FFCB09"/>
</linearGradient>
<radialGradient id="paint33_radial" cx="0" cy="0" r="1" gradientUnits="userSpaceOnUse" gradientTransform="translate(129.49 40.2284) rotate(16.7915) scale(3.98739)">
<stop offset="0.635" stop-color="white" stop-opacity="0"/>
<stop offset="0.6565" stop-color="#FFF5EB" stop-opacity="0.0621"/>
<stop offset="0.698" stop-color="#FEE2C6" stop-opacity="0.1819"/>
<stop offset="0.7553" stop-color="#FDC48E" stop-opacity="0.3474"/>
<stop offset="0.8255" stop-color="#F99D47" stop-opacity="0.55"/>
<stop offset="0.8606" stop-color="#F68A20" stop-opacity="0.6512"/>
<stop offset="0.89" stop-color="#F47B22" stop-opacity="0.7143"/>
<stop offset="0.9295" stop-color="#F26A24" stop-opacity="0.7988"/>
<stop offset="0.9669" stop-color="#F15E24" stop-opacity="0.8791"/>
<stop offset="1" stop-color="#F15A25" stop-opacity="0.95"/>
</radialGradient>
</defs>
</svg>
